"","Third Party (Company)","","","Associated Persons","","","","","","","","","","","","","","","",""
"Type (O Organisation or A Associated Individual)"," Subject Organisation Full Entity Name","Country of Registration","First Name of  Associated Individual","Last Name of  Associated Individual","Country of Residence","","","","","","","","","","","","","","","List of type"
"O","NESTLE (MALAYSIA) BHD   (0110925W","Malaysia","","","","","","","","","","","","","","","","","",""
"O","NESTLE ASEAN (MALAYSIA) SDN BHD   (0238995M)","Malaysia","","","","","","","","","","","","","","","","","",""
"O","NESTLE MANUFACTURING (MALAYSIA) SDN BHD   (0315081K)","Malaysia","","","","","","","","","","","","","","","","","",""
"O","NESTLE PRODUCTS SDN BHD   (0045229H)","Malaysia","","","","","","","","","","","","","","","","","",""
"O","NFC WORLDWIDE SDN BHD   (1131808A)","Malaysia","","","","","","","","","","","","","","","","","",""
"O","NH CREATIONS SDN BHD   (1026785M)","Malaysia","","","","","","","","","","","","","","","","","",""
"O","NIRON INDUSTRIES SDN BHD   (0365643U)","Malaysia","","","","","","","","","","","","","","","","","",""
"O","NORTHPORT (MALAYSIA) BHD   (0146850A)","Malaysia","","","","","","","","","","","","","","","","","",""
"O","NOVA LOGISTICS SDN BHD   (0500015H)","Malaysia","","","","","","","","","","","","","","","","","",""
"O","NOVE METAL RECYCLING SDN BHD   (0894408X)","Malaysia","","","","","","","","","","","","","","","","","",""
"O","NOVI LOGISTICS   (SA0136355A)","Malaysia","","","","","","","","","","","","","","","","","",""
"O","NS BLUESCOPE MALAYSIA SDN BHD   (0223136P)","Malaysia","","","","","","","","","","","","","","","","","",""
"O","NUTRIFRES FOOD & BEVERAGES INDUSTRIES SDN BHD   (0641007X)","Malaysia","","","","","","","","","","","","","","","","","",""
"O","OIL HUB KLANG TERMINAL SDN BHD   (1068426X)","Malaysia","","","","","","","","","","","","","","","","","",""
"O","OLDEN DAYS GLOBAL SERVICES   (SA0166368U)","Malaysia","","","","","","","","","","","","","","","","","",""
"O","ONE CENTURY LOGISTICS SDN BHD   (1011735P)","Malaysia","","","","","","","","","","","","","","","","","",""
"O","OOI GLOBAL TRADING   (PG0276180A)","Malaysia","","","","","","","","","","","","","","","","","",""
"O","ORIENT CONTAINERS SDN BHD   (0192027U)","Malaysia","","","","","","","","","","","","","","","","","",""
"O","ORIENT STAR TRANSPORT SDN BHD   (0540490U)","Malaysia","","","","","","","","","","","","","","","","","",""
"O","ORIENTAL FOOD INDUSTRIES SDN BHD   (0038289A)","Malaysia","","","","","","","","","","","","","","","","","",""
"O","OSFACS SDN BHD   (0247298U)","Malaysia","","","","","","","","","","","","","","","","","",""
"O","P C TEONG & BROTHERS FRESHVEG SDN BHD   (0519063P)","Malaysia","","","","","","","","","","","","","","","","","",""
"O","PAAAL NADA (M) SDN BHD   (0849253P)","Malaysia","","","","","","","","","","","","","","","","","",""
"O","PACIFIC OLEOCHEMICALS SDN BHD   (0064175U)","Malaysia","","","","","","","","","","","","","","","","","",""
"O","PACIFIC RIM COMMODITY SDN BHD   (0978711M)","Malaysia","","","","","","","","","","","","","","","","","",""
"O","PALMTOP VEGEOIL PRODUCTS SDN BHD   (0266956P)","Malaysia","","","","","","","","","","","","","","","","","",""
"O","PANASONIC APPLIANCES AIR-CONDITIONING MALAYSIA SDN BHD   (0011969T)","Malaysia","","","","","","","","","","","","","","","","","",""
"O","PANASONIC APPLIANCES FOUNDRY MALAYSIA SDN BHD   (0164938U)","Malaysia","","","","","","","","","","","","","","","","","",""
"O","PANASONIC APPLIANCES REFRIGERATION DEVICES MALAYSIA SDN ","Malaysia","","","","","","","","","","","","","","","","","",""
"O","BHD   (0192040T)","Malaysia","","","","","","","","","","","","","","","","","",""
"O","PANASONIC AVC NETWORKS JOHOR MALAYSIA SDN BHD   (0209936T)","Malaysia","","","","","","","","","","","","","","","","","",""
"O","PANASONIC AVC NETWORKS KUALA LUMPUR MALAYSIA SDN BHD   (0170701M)","Malaysia","","","","","","","","","","","","","","","","","",""
"O","PANASONIC COMPRESSOR MALAYSIA SDN BHD   (0158965A)","Malaysia","","","","","","","","","","","","","","","","","",""
"O","PANASONIC ELECTRIC WORKS KENAF MALAYSIA SDN BHD   (0667272U)","Malaysia","","","","","","","","","","","","","","","","","",""
"O","PANASONIC ENERGY MALAYSIA SDN BHD   (0971402A)","Malaysia","","","","","","","","","","","","","","","","","",""
"O","PANASONIC INDUSTRIAL DEVICES MALAYSIA SDN BHD   (0013394M)","Malaysia","","","","","","","","","","","","","","","","","",""
"O","PANASONIC INDUSTRIAL DEVICES SALES (M) SDN BHD   (0372681M)","Malaysia","","","","","","","","","","","","","","","","","",""
"O","PANASONIC MALAYSIA SDN BHD   (0026975W)","Malaysia","","","","","","","","","","","","","","","","","",""
"O","PANASONIC MANAGEMENT MALAYSIA SDN BHD   (0550278P)","Malaysia","","","","","","","","","","","","","","","","","",""
"O","PANASONIC MANUFACTURING MALAYSIA BHD   (0006100K)","Malaysia","","","","","","","","","","","","","","","","","",""
"O","PANASONIC PROCUREMENT MALAYSIA SDN BHD   (0590931H)","Malaysia","","","","","","","","","","","","","","","","","",""
"O","PANASONIC SYSTEM NETWORKS MALAYSIA SDN BHD   (0042154T)","Malaysia","","","","","","","","","","","","","","","","","",""
"O","PANPHIL SDN BHD   (0728308X)","Malaysia","","","","","","","","","","","","","","","","","",""
"O","PASTI BERJAYA SDN BHD   (0039042M)","Malaysia","","","","","","","","","","","","","","","","","",""
"O","PAT & ASSOCIATES SDN BHD   (0253126H)","Malaysia","","","","","","","","","","","","","","","","","",""
"O","PDZ SHIPPING AGENCY (SABAH) SDN BHD   (0501621T)","Malaysia","","","","","","","","","","","","","","","","","",""
"O","PEARL FREIGHT LOGISTICS SDN BHD   (0727554D)","Malaysia","","","","","","","","","","","","","","","","","",""
"O","PELABUHAN TANJUNG PELEPAS SDN BHD   (0328719K)","Malaysia","","","","","","","","","","","","","","","","","",""
"O","PEMBANGUNAN BUKU HIJAU HOLDINGS SDN BHD   (0889034K)","Malaysia","","","","","","","","","","","","","","","","","",""
"O","PEMBINAAN REDZAI SDN BHD   (0143419T)","Malaysia","","","","","","","","","","","","","","","","","",""
"O","PENANG PORT SDN BHD   (0283544D)","Malaysia","","","","","","","","","","","","","","","","","",""
"O","N P B INDUSTRIES SDN BHD   (0811748M)","Malaysia","","","","","","","","","","","","","","","","","",""
"O","NAFAS MAJUJAYA ENTERPRISE   (KT0181980A)","Malaysia","","","","","","","","","","","","","","","","","",""
"O","NAKHODA KREATIF SDN BHD   (0395711K)","Malaysia","","","","","","","","","","","","","","","","","",""
"O","NANYANG OMEGA SDN BHD   (0443532K)","Malaysia","","","","","","","","","","","","","","","","","",""
"O","NAVIGREEN RESOURCES SDN BHD   (0922744K)","Malaysia","","","","","","","","","","","","","","","","","",""
"O","NCB HOLDINGS BHD   (0475221K)","Malaysia","","","","","","","","","","","","","","","","","",""
"O","NESTLE (MALAYSIA) BHD   (0110925W","Malaysia","","","","","","","","","","","","","","","","","",""
"O","NESTLE ASEAN (MALAYSIA) SDN BHD   (0238995M)","Malaysia","","","","","","","","","","","","","","","","","",""
"O","NESTLE MANUFACTURING (MALAYSIA) SDN BHD   (0315081K)","Malaysia","","","","","","","","","","","","","","","","","",""
"O","NESTLE PRODUCTS SDN BHD   (0045229H)","Malaysia","","","","","","","","","","","","","","","","","",""
"O","NFC WORLDWIDE SDN BHD   (1131808A)","Malaysia","","","","","","","","","","","","","","","","","",""
"O","NH CREATIONS SDN BHD   (1026785M)","Malaysia","","","","","","","","","","","","","","","","","",""
"O","NIRON INDUSTRIES SDN BHD   (0365643U)","Malaysia","","","","","","","","","","","","","","","","","",""
"O","NORTHPORT (MALAYSIA) BHD   (0146850A)","Malaysia","","","","","","","","","","","","","","","","","",""
"O","NOVA LOGISTICS SDN BHD   (0500015H)","Malaysia","","","","","","","","","","","","","","","","","",""
"O","NOVE METAL RECYCLING SDN BHD   (0894408X)","Malaysia","","","","","","","","","","","","","","","","","",""
"O","NOVI LOGISTICS   (SA0136355A)","Malaysia","","","","","","","","","","","","","","","","","",""
"O","NS BLUESCOPE MALAYSIA SDN BHD   (0223136P)","Malaysia","","","","","","","","","","","","","","","","","",""
"O","NUTRIFRES FOOD & BEVERAGES INDUSTRIES SDN BHD   (0641007X)","Malaysia","","","","","","","","","","","","","","","","","",""
"O","OIL HUB KLANG TERMINAL SDN BHD   (1068426X)","Malaysia","","","","","","","","","","","","","","","","","",""
"O","OLDEN DAYS GLOBAL SERVICES   (SA0166368U)","Malaysia","","","","","","","","","","","","","","","","","",""
"O","ONE CENTURY LOGISTICS SDN BHD   (1011735P)","Malaysia","","","","","","","","","","","","","","","","","",""
"O","OOI GLOBAL TRADING   (PG0276180A)","Malaysia","","","","","","","","","","","","","","","","","",""
"O","ORIENT CONTAINERS SDN BHD   (0192027U)","Malaysia","","","","","","","","","","","","","","","","","",""
"O","ORIENT STAR TRANSPORT SDN BHD   (0540490U)","Malaysia","","","","","","","","","","","","","","","","","",""
"O","ORIENTAL FOOD INDUSTRIES SDN BHD   (0038289A)","Malaysia","","","","","","","","","","","","","","","","","",""
"O","OSFACS SDN BHD   (0247298U)","Malaysia","","","","","","","","","","","","","","","","","",""
"O","P C TEONG & BROTHERS FRESHVEG SDN BHD   (0519063P)","Malaysia","","","","","","","","","","","","","","","","","",""
"O","PAAAL NADA (M) SDN BHD   (0849253P)","Malaysia","","","","","","","","","","","","","","","","","",""
"O","PACIFIC OLEOCHEMICALS SDN BHD   (0064175U)","Malaysia","","","","","","","","","","","","","","","","","",""
"O","PACIFIC RIM COMMODITY SDN BHD   (0978711M)","Malaysia","","","","","","","","","","","","","","","","","",""
"O","PALMTOP VEGEOIL PRODUCTS SDN BHD   (0266956P)","Malaysia","","","","","","","","","","","","","","","","","",""
"O","PANASONIC APPLIANCES AIR-CONDITIONING MALAYSIA SDN BHD   (0011969T)","Malaysia","","","","","","","","","","","","","","","","","",""
"O","PANASONIC APPLIANCES FOUNDRY MALAYSIA SDN BHD   (0164938U)","Malaysia","","","","","","","","","","","","","","","","","",""
"O","PANASONIC APPLIANCES REFRIGERATION DEVICES MALAYSIA SDN ","Malaysia","","","","","","","","","","","","","","","","","",""
"O","BHD   (0192040T)","Malaysia","","","","","","","","","","","","","","","","","",""
"O","PANASONIC AVC NETWORKS JOHOR MALAYSIA SDN BHD   (0209936T)","Malaysia","","","","","","","","","","","","","","","","","",""
"O","PANASONIC AVC NETWORKS KUALA LUMPUR MALAYSIA SDN BHD   (0170701M)","Malaysia","","","","","","","","","","","","","","","","","",""
"O","PANASONIC COMPRESSOR MALAYSIA SDN BHD   (0158965A)","Malaysia","","","","","","","","","","","","","","","","","",""
"O","PANASONIC ELECTRIC WORKS KENAF MALAYSIA SDN BHD   (0667272U)","Malaysia","","","","","","","","","","","","","","","","","",""
"O","PANASONIC ENERGY MALAYSIA SDN BHD   (0971402A)","Malaysia","","","","","","","","","","","","","","","","","",""
"O","PANASONIC INDUSTRIAL DEVICES MALAYSIA SDN BHD   (0013394M)","Malaysia","","","","","","","","","","","","","","","","","",""
"O","PANASONIC INDUSTRIAL DEVICES SALES (M) SDN BHD   (0372681M)","Malaysia","","","","","","","","","","","","","","","","","",""
"O","PANASONIC MALAYSIA SDN BHD   (0026975W)","Malaysia","","","","","","","","","","","","","","","","","",""
"O","PANASONIC MANAGEMENT MALAYSIA SDN BHD   (0550278P)","Malaysia","","","","","","","","","","","","","","","","","",""
"O","PANASONIC MANUFACTURING MALAYSIA BHD   (0006100K)","Malaysia","","","","","","","","","","","","","","","","","",""
"O","PANASONIC PROCUREMENT MALAYSIA SDN BHD   (0590931H)","Malaysia","","","","","","","","","","","","","","","","","",""
"O","PANASONIC SYSTEM NETWORKS MALAYSIA SDN BHD   (0042154T)","Malaysia","","","","","","","","","","","","","","","","","",""
"O","PANPHIL SDN BHD   (0728308X)","Malaysia","","","","","","","","","","","","","","","","","",""
"O","PASTI BERJAYA SDN BHD   (0039042M)","Malaysia","","","","","","","","","","","","","","","","","",""
"O","PAT & ASSOCIATES SDN BHD   (0253126H)","Malaysia","","","","","","","","","","","","","","","","","",""
"O","PDZ SHIPPING AGENCY (SABAH) SDN BHD   (0501621T)","Malaysia","","","","","","","","","","","","","","","","","",""
"O","PEARL FREIGHT LOGISTICS SDN BHD   (0727554D)","Malaysia","","","","","","","","","","","","","","","","","",""
"O","PELABUHAN TANJUNG PELEPAS SDN BHD   (0328719K)","Malaysia","","","","","","","","","","","","","","","","","",""
"O","PEMBANGUNAN BUKU HIJAU HOLDINGS SDN BHD   (0889034K)","Malaysia","","","","","","","","","","","","","","","","","",""
"O","PEMBINAAN REDZAI SDN BHD   (0143419T)","Malaysia","","","","","","","","","","","","","","","","","",""
"O","PENANG PORT SDN BHD   (0283544D)","Malaysia","","","","","","","","","","","","","","","","","",""
"O","PENFABRIC SDN BHD   (0014240M)","Malaysia","","","","","","","","","","","","","","","","","",""
"O","PENFIBRE SDN BERHAD   (0013857V)","Malaysia","","","","","","","","","","","","","","","","","",""
"O","PENGANGKUTAN JOHORE BAHRU-KUALA LUMPUR SDN BHD   (0020465K)","Malaysia","","","","","","","","","","","","","","","","","",""
"O","PENINSULA LINES (M) SDN BHD   (0930728W)","Malaysia","","","","","","","","","","","","","","","","","",""
"O","PERANGSANG PESONA SDN BHD   (0827991U)","Malaysia","","","","","","","","","","","","","","","","","",""
"O","PERBENA EMAS SDN BHD   (0036495M)","Malaysia","","","","","","","","","","","","","","","","","",""
"O","PERNIAGAAN SENANG JADI IMPORT & EXPORT SDN BHD   (1088842K)","Malaysia","","","","","","","","","","","","","","","","","",""
"O","PERSADA MAJU LOGISTIC   (SA0243759A)","Malaysia","","","","","","","","","","","","","","","","","",""
"O","PERUSAHAAN GETAH ASAS SDN BHD   (0089708V)","Malaysia","","","","","","","","","","","","","","","","","",""
"O","PERWAKILAN ALLY AZRAN   (000322551U)","Malaysia","","","","","","","","","","","","","","","","","",""
"O","PETIKEMAS FREE ZONE SDN BHD   (1015946P)","Malaysia","","","","","","","","","","","","","","","","","",""
"O","PGD AUTO PARTS   (IP0215936A)","Malaysia","","","","","","","","","","","","","","","","","",""
"O","PGD CONTAINER YARD (M) SDN BHD   (0566104U)","Malaysia","","","","","","","","","","","","","","","","","",""
"O","PHILI-ORIENT LINES (M) SDN BHD   (0148609U)","Malaysia","","","","","","","","","","","","","","","","","",""
"O","PJ LOGISTICS SDN BERHAD   (0404701K)","Malaysia","","","","","","","","","","","","","","","","","",""
"O","PLANT SAFE FERTILIZER SDN BHD   (0277552A)","Malaysia","","","","","","","","","","","","","","","","","",""
"O","PLEASURE LATEX PRODUCTS SDN BHD   (0402137W)","Malaysia","","","","","","","","","","","","","","","","","",""
"O","PORT SERVICES AGENCY SDN BHD   (0771838W)","Malaysia","","","","","","","","","","","","","","","","","",""
"O","POTENTIAL SOLUTION   (MA0048781T","Malaysia","","","","","","","","","","","","","","","","","",""
"O","POWER GALLERY SDN BHD   (0701798H)","Malaysia","","","","","","","","","","","","","","","","","",""
"O","PR SHIPPING (M) SDN BHD   (0553280M)","Malaysia","","","","","","","","","","","","","","","","","",""
"O","PREMIUM FORMULA (M) SDN BHD   (0721281K)","Malaysia","","","","","","","","","","","","","","","","","",""
"O","PREMIUM GLOBAL LOGISTICS SDN BHD   (0660014K)","Malaysia","","","","","","","","","","","","","","","","","",""
"O","PRESS METAL BINTULU SDN BHD   (0918822X)","Malaysia","","","","","","","","","","","","","","","","","",""
"O","PRESS METAL SARAWAK SDN BHD   (0767704M)","Malaysia","","","","","","","","","","","","","","","","","",""
"O","PRIME FREIGHT & FORWARDING SERVICES SDN BHD   (0747829W)","Malaysia","","","","","","","","","","","","","","","","","",""
"O","PRO-TEC INDUSTRIES SDN BHD   (0587905W)","Malaysia","","","","","","","","","","","","","","","","","",""
"O","PT LINK PACIFIC (M) SDN BHD   (0853105V)","Malaysia","","","","","","","","","","","","","","","","","",""
"O","N P B INDUSTRIES SDN BHD   (0811748M)","Malaysia","","","","","","","","","","","","","","","","","",""
"O","NAFAS MAJUJAYA ENTERPRISE   (KT0181980A)","Malaysia","","","","","","","","","","","","","","","","","",""
"O","NAKHODA KREATIF SDN BHD   (0395711K)","Malaysia","","","","","","","","","","","","","","","","","",""
"O","NANYANG OMEGA SDN BHD   (0443532K)","Malaysia","","","","","","","","","","","","","","","","","",""
"O","NAVIGREEN RESOURCES SDN BHD   (0922744K)","Malaysia","","","","","","","","","","","","","","","","","",""
"O","NCB HOLDINGS BHD   (0475221K)","Malaysia","","","","","","","","","","","","","","","","","",""
"O","NESTLE (MALAYSIA) BHD   (0110925W","Malaysia","","","","","","","","","","","","","","","","","",""
"O","NESTLE ASEAN (MALAYSIA) SDN BHD   (0238995M)","Malaysia","","","","","","","","","","","","","","","","","",""
"O","NESTLE MANUFACTURING (MALAYSIA) SDN BHD   (0315081K)","Malaysia","","","","","","","","","","","","","","","","","",""
"O","NESTLE PRODUCTS SDN BHD   (0045229H)","Malaysia","","","","","","","","","","","","","","","","","",""
"O","NFC WORLDWIDE SDN BHD   (1131808A)","Malaysia","","","","","","","","","","","","","","","","","",""
"O","NH CREATIONS SDN BHD   (1026785M)","Malaysia","","","","","","","","","","","","","","","","","",""
"O","NIRON INDUSTRIES SDN BHD   (0365643U)","Malaysia","","","","","","","","","","","","","","","","","",""
"O","NORTHPORT (MALAYSIA) BHD   (0146850A)","Malaysia","","","","","","","","","","","","","","","","","",""
"","","","","","","","","","","","","","","","","","","","",""
"","","","","","","","","","","","","","","","","","","","",""
"","","","","","","","","","","","","","","","","","","","",""
"","","","","","","","","","","","","","","","","","","","",""
"","","","","","","","","","","","","","","","","","","","",""
"","","","","","","","","","","","","","","","","","","","",""
"","","","","","","","","","","","","","","","","","","","",""
"","","","","","","","","","","","","","","","","","","","",""
"","","","","","","","","","","","","","","","","","","","",""
"","","","","","","","","","","","","","","","","","","","",""
"","","","","","","","","","","","","","","","","","","","",""
"","","","","","","","","","","","","","","","","","","","",""
"","","","","","","","","","","","","","","","","","","","",""
"","","","","","","","","","","","","","","","","","","","",""
"","","","","","","","","","","","","","","","","","","","",""
"","","","","","","","","","","","","","","","","","","","",""
"","","","","","","","","","","","","","","","","","","","",""
"","","","","","","","","","","","","","","","","","","","",""
"","","","","","","","","","","","","","","","","","","","",""
"","","","","","","","","","","","","","","","","","","","",""
"","","","","","","","","","","","","","","","","","","","",""
"","","","","","","","","","","","","","","","","","","","",""
"","","","","","","","","","","","","","","","","","","","",""
"","","","","","","","","","","","","","","","","","","","",""
"","","","","","","","","","","","","","","","","","","","",""
"","","","","","","","","","","","","","","","","","","","",""
"","","","","","","","","","","","","","","","","","","","",""
"","","","","","","","","","","","","","","","","","","","",""
"","","","","","","","","","","","","","","","","","","","",""
"","","","","","","","","","","","","","","","","","","","",""
"","","","","","","","","","","","","","","","","","","","",""
"","","","","","","","","","","","","","","","","","","","",""
"","","","","","","","","","","","","","","","","","","","",""
"","","","","","","","","","","","","","","","","","","","",""
"","","","","","","","","","","","","","","","","","","","",""
"","","","","","","","","","","","","","","","","","","","",""
"","","","","","","","","","","","","","","","","","","","",""
"","","","","","","","","","","","","","","","","","","","",""
"","","","","","","","","","","","","","","","","","","","",""
"","","","","","","","","","","","","","","","","","","","",""
"","","","","","","","","","","","","","","","","","","","",""
"","","","","","","","","","","","","","","","","","","","",""
"","","","","","","","","","","","","","","","","","","","",""
"","","","","","","","","","","","","","","","","","","","",""
"","","","","","","","","","","","","","","","","","","","",""
"","","","","","","","","","","","","","","","","","","","",""
"","","","","","","","","","","","","","","","","","","","",""
"","","","","","","","","","","","","","","","","","","","",""
"","","","","","","","","","","","","","","","","","","","",""
"","","","","","","","","","","","","","","","","","","","",""
"","","","","","","","","","","","","","","","","","","","",""
"","","","","","","","","","","","","","","","","","","","",""
"","","","","","","","","","","","","","","","","","","","",""
"","","","","","","","","","","","","","","","","","","","",""
"","","","","","","","","","","","","","","","","","","","",""
"","","","","","","","","","","","","","","","","","","","",""
"","","","","","","","","","","","","","","","","","","","",""
"","","","","","","","","","","","","","","","","","","","",""
"","","","","","","","","","","","","","","","","","","","",""
"","","","","","","","","","","","","","","","","","","","",""
"","","","","","","","","","","","","","","","","","","","",""
"","","","","","","","","","","","","","","","","","","","",""
"","","","","","","","","","","","","","","","","","","","",""
"","","","","","","","","","","","","","","","","","","","",""
"","","","","","","","","","","","","","","","","","","","",""
"","","","","","","","","","","","","","","","","","","","",""
"","","","","","","","","","","","","","","","","","","","",""
"","","","","","","","","","","","","","","","","","","","",""
"","","","","","","","","","","","","","","","","","","","",""
"","","","","","","","","","","","","","","","","","","","",""
"","","","","","","","","","","","","","","","","","","","",""
"","","","","","","","","","","","","","","","","","","","",""
"","","","","","","","","","","","","","","","","","","","",""
"","","","","","","","","","","","","","","","","","","","",""
"","","","","","","","","","","","","","","","","","","","",""
"","","","","","","","","","","","","","","","","","","","",""
"","","","","","","","","","","","","","","","","","","","",""
"","","","","","","","","","","","","","","","","","","","",""
"","","","","","","","","","","","","","","","","","","","",""
"","","","","","","","","","","","","","","","","","","","",""
"","","","","","","","","","","","","","","","","","","","",""
"","","","","","","","","","","","","","","","","","","","",""
"","","","","","","","","","","","","","","","","","","","",""
"","","","","","","","","","","","","","","","","","","","",""
"","","","","","","","","","","","","","","","","","","","",""
"","","","","","","","","","","","","","","","","","","","",""
"","","","","","","","","","","","","","","","","","","","",""
"","","","","","","","","","","","","","","","","","","","",""
"","","","","","","","","","","","","","","","","","","","",""
"","","","","","","","","","","","","","","","","","","","",""
"","","","","","","","","","","","","","","","","","","","",""
"","","","","","","","","","","","","","","","","","","","",""
"","","","","","","","","","","","","","","","","","","","",""
"","","","","","","","","","","","","","","","","","","","",""
"","","","","","","","","","","","","","","","","","","","",""
"","","","","","","","","","","","","","","","","","","","",""
"","","","","","","","","","","","","","","","","","","","",""
"","","","","","","","","","","","","","","","","","","","",""
"","","","","","","","","","","","","","","","","","","","",""
"","","","","","","","","","","","","","","","","","","","",""
"","","","","","","","","","","","","","","","","","","","",""
"","","","","","","","","","","","","","","","","","","","",""
"","","","","","","","","","","","","","","","","","","","",""
"","","","","","","","","","","","","","","","","","","","",""
"","","","","","","","","","","","","","","","","","","","",""
"","","","","","","","","","","","","","","","","","","","",""
"","","","","","","","","","","","","","","","","","","","",""
"","","","","","","","","","","","","","","","","","","","",""
"","","","","","","","","","","","","","","","","","","","",""
"","","","","","","","","","","","","","","","","","","","",""
"","","","","","","","","","","","","","","","","","","","",""
"","","","","","","","","","","","","","","","","","","","",""
"","","","","","","","","","","","","","","","","","","","",""
"","","","","","","","","","","","","","","","","","","","",""
"","","","","","","","","","","","","","","","","","","","",""
"","","","","","","","","","","","","","","","","","","","",""
"","","","","","","","","","","","","","","","","","","","",""
"","","","","","","","","","","","","","","","","","","","",""
"","","","","","","","","","","","","","","","","","","","",""
"","","","","","","","","","","","","","","","","","","","",""
"","","","","","","","","","","","","","","","","","","","",""
"","","","","","","","","","","","","","","","","","","","",""
"","","","","","","","","","","","","","","","","","","","",""
"","","","","","","","","","","","","","","","","","","","",""
"","","","","","","","","","","","","","","","","","","","",""
"","","","","","","","","","","","","","","","","","","","",""
"","","","","","","","","","","","","","","","","","","","",""
"","","","","","","","","","","","","","","","","","","","",""
"","","","","","","","","","","","","","","","","","","","",""
"","","","","","","","","","","","","","","","","","","","",""
"","","","","","","","","","","","","","","","","","","","",""
"","","","","","","","","","","","","","","","","","","","",""
"","","","","","","","","","","","","","","","","","","","",""
"","","","","","","","","","","","","","","","","","","","",""
"","","","","","","","","","","","","","","","","","","","",""
"","","","","","","","","","","","","","","","","","","","",""
"","","","","","","","","","","","","","","","","","","","",""
"","","","","","","","","","","","","","","","","","","","",""
"","","","","","","","","","","","","","","","","","","","",""
"","","","","","","","","","","","","","","","","","","","",""
"","","","","","","","","","","","","","","","","","","","",""
"","","","","","","","","","","","","","","","","","","","",""
"","","","","","","","","","","","","","","","","","","","",""
"","","","","","","","","","","","","","","","","","","","",""
"","","","","","","","","","","","","","","","","","","","",""
"","","","","","","","","","","","","","","","","","","","",""
"","","","","","","","","","","","","","","","","","","","",""
"","","","","","","","","","","","","","","","","","","","",""
"","","","","","","","","","","","","","","","","","","","",""
"","","","","","","","","","","","","","","","","","","","",""
"","","","","","","","","","","","","","","","","","","","",""
"","","","","","","","","","","","","","","","","","","","",""
"","","","","","","","","","","","","","","","","","","","",""
"","","","","","","","","","","","","","","","","","","","",""
"","","","","","","","","","","","","","","","","","","","",""
"","","","","","","","","","","","","","","","","","","","",""
"","","","","","","","","","","","","","","","","","","","",""
"","","","","","","","","","","","","","","","","","","","",""
"","","","","","","","","","","","","","","","","","","","",""
"","","","","","","","","","","","","","","","","","","","",""
"","","","","","","","","","","","","","","","","","","","",""
"","","","","","","","","","","","","","","","","","","","",""
"","","","","","","","","","","","","","","","","","","","",""
"","","","","","","","","","","","","","","","","","","","",""
"","","","","","","","","","","","","","","","","","","","",""
"","","","","","","","","","","","","","","","","","","","",""
"","","","","","","","","","","","","","","","","","","","",""
"","","","","","","","","","","","","","","","","","","","",""
"","","","","","","","","","","","","","","","","","","","",""
"","","","","","","","","","","","","","","","","","","","",""
"","","","","","","","","","","","","","","","","","","","",""
"","","","","","","","","","","","","","","","","","","","",""
"","","","","","","","","","","","","","","","","","","","",""
"","","","","","","","","","","","","","","","","","","","",""
"","","","","","","","","","","","","","","","","","","","",""
"","","","","","","","","","","","","","","","","","","","",""
"","","","","","","","","","","","","","","","","","","","",""
"","","","","","","","","","","","","","","","","","","","",""
"","","","","","","","","","","","","","","","","","","","",""
"","","","","","","","","","","","","","","","","","","","",""
"","","","","","","","","","","","","","","","","","","","",""
"","","","","","","","","","","","","","","","","","","","",""
"","","","","","","","","","","","","","","","","","","","",""
"","","","","","","","","","","","","","","","","","","","",""
"","","","","","","","","","","","","","","","","","","","",""
"","","","","","","","","","","","","","","","","","","","",""
"","","","","","","","","","","","","","","","","","","","",""
"","","","","","","","","","","","","","","","","","","","",""
"","","","","","","","","","","","","","","","","","","","",""
"","","","","","","","","","","","","","","","","","","","",""
"","","","","","","","","","","","","","","","","","","","",""
"","","","","","","","","","","","","","","","","","","","",""
"","","","","","","","","","","","","","","","","","","","",""
"","","","","","","","","","","","","","","","","","","","",""
"","","","","","","","","","","","","","","","","","","","",""
"","","","","","","","","","","","","","","","","","","","",""
"","","","","","","","","","","","","","","","","","","","",""
"","","","","","","","","","","","","","","","","","","","",""
"","","","","","","","","","","","","","","","","","","","",""
"","","","","","","","","","","","","","","","","","","","",""
"","","","","","","","","","","","","","","","","","","","",""
"","","","","","","","","","","","","","","","","","","","",""
"","","","","","","","","","","","","","","","","","","","",""
"","","","","","","","","","","","","","","","","","","","",""
"","","","","","","","","","","","","","","","","","","","",""
"","","","","","","","","","","","","","","","","","","","",""
"","","","","","","","","","","","","","","","","","","","",""
"","","","","","","","","","","","","","","","","","","","",""
"","","","","","","","","","","","","","","","","","","","",""
"","","","","","","","","","","","","","","","","","","","",""
"","","","","","","","","","","","","","","","","","","","",""
"","","","","","","","","","","","","","","","","","","","",""
"","","","","","","","","","","","","","","","","","","","",""
"","","","","","","","","","","","","","","","","","","","",""
"","","","","","","","","","","","","","","","","","","","",""
"","","","","","","","","","","","","","","","","","","","",""
"","","","","","","","","","","","","","","","","","","","",""
"","","","","","","","","","","","","","","","","","","","",""
"","","","","","","","","","","","","","","","","","","","",""
"","","","","","","","","","","","","","","","","","","","",""
"","","","","","","","","","","","","","","","","","","","",""
"","","","","","","","","","","","","","","","","","","","",""
"","","","","","","","","","","","","","","","","","","","",""
"","","","","","","","","","","","","","","","","","","","",""
"","","","","","","","","","","","","","","","","","","","",""
"","","","","","","","","","","","","","","","","","","","",""
"","","","","","","","","","","","","","","","","","","","",""
"","","","","","","","","","","","","","","","","","","","",""
"","","","","","","","","","","","","","","","","","","","",""
"","","","","","","","","","","","","","","","","","","","",""
"","","","","","","","","","","","","","","","","","","","",""
"","","","","","","","","","","","","","","","","","","","",""
"","","","","","","","","","","","","","","","","","","","",""
"","","","","","","","","","","","","","","","","","","","",""
"","","","","","","","","","","","","","","","","","","","",""
"","","","","","","","","","","","","","","","","","","","",""
"","","","","","","","","","","","","","","","","","","","",""
"","","","","","","","","","","","","","","","","","","","",""
"","","","","","","","","","","","","","","","","","","","",""
"","","","","","","","","","","","","","","","","","","","",""
"","","","","","","","","","","","","","","","","","","","",""
"","","","","","","","","","","","","","","","","","","","",""
"","","","","","","","","","","","","","","","","","","","",""
"","","","","","","","","","","","","","","","","","","","",""
"","","","","","","","","","","","","","","","","","","","",""
"","","","","","","","","","","","","","","","","","","","",""
"","","","","","","","","","","","","","","","","","","","",""
"","","","","","","","","","","","","","","","","","","","",""
"","","","","","","","","","","","","","","","","","","","",""
"","","","","","","","","","","","","","","","","","","","",""
"","","","","","","","","","","","","","","","","","","","",""
"","","","","","","","","","","","","","","","","","","","",""
"","","","","","","","","","","","","","","","","","","","",""
"","","","","","","","","","","","","","","","","","","","",""
"","","","","","","","","","","","","","","","","","","","",""
"","","","","","","","","","","","","","","","","","","","",""
"","","","","","","","","","","","","","","","","","","","",""
"","","","","","","","","","","","","","","","","","","","",""
"","","","","","","","","","","","","","","","","","","","",""
"","","","","","","","","","","","","","","","","","","","",""
"","","","","","","","","","","","","","","","","","","","",""
"","","","","","","","","","","","","","","","","","","","",""
"","","","","","","","","","","","","","","","","","","","",""
"","","","","","","","","","","","","","","","","","","","",""
"","","","","","","","","","","","","","","","","","","","",""
"","","","","","","","","","","","","","","","","","","","",""
"","","","","","","","","","","","","","","","","","","","",""
"","","","","","","","","","","","","","","","","","","","",""
"","","","","","","","","","","","","","","","","","","","",""
"","","","","","","","","","","","","","","","","","","","",""
"","","","","","","","","","","","","","","","","","","","",""
"","","","","","","","","","","","","","","","","","","","",""
"","","","","","","","","","","","","","","","","","","","",""
"","","","","","","","","","","","","","","","","","","","",""
"","","","","","","","","","","","","","","","","","","","",""
"","","","","","","","","","","","","","","","","","","","",""
"","","","","","","","","","","","","","","","","","","","",""
"","","","","","","","","","","","","","","","","","","","",""
"","","","","","","","","","","","","","","","","","","","",""
"","","","","","","","","","","","","","","","","","","","",""
"","","","","","","","","","","","","","","","","","","","",""
"","","","","","","","","","","","","","","","","","","","",""
"","","","","","","","","","","","","","","","","","","","",""
"","","","","","","","","","","","","","","","","","","","",""
"","","","","","","","","","","","","","","","","","","","",""
"","","","","","","","","","","","","","","","","","","","",""
"","","","","","","","","","","","","","","","","","","","",""
"","","","","","","","","","","","","","","","","","","","",""
"","","","","","","","","","","","","","","","","","","","",""
"","","","","","","","","","","","","","","","","","","","",""
"","","","","","","","","","","","","","","","","","","","",""
"","","","","","","","","","","","","","","","","","","","",""
"","","","","","","","","","","","","","","","","","","","",""
"","","","","","","","","","","","","","","","","","","","",""
"","","","","","","","","","","","","","","","","","","","",""
"","","","","","","","","","","","","","","","","","","","",""
"","","","","","","","","","","","","","","","","","","","",""
"","","","","","","","","","","","","","","","","","","","",""
"","","","","","","","","","","","","","","","","","","","",""
"","","","","","","","","","","","","","","","","","","","",""
"","","","","","","","","","","","","","","","","","","","",""
"","","","","","","","","","","","","","","","","","","","",""
"","","","","","","","","","","","","","","","","","","","",""
"","","","","","","","","","","","","","","","","","","","",""
"","","","","","","","","","","","","","","","","","","","",""
"","","","","","","","","","","","","","","","","","","","",""
"","","","","","","","","","","","","","","","","","","","",""
"","","","","","","","","","","","","","","","","","","","",""
"","","","","","","","","","","","","","","","","","","","",""
"","","","","","","","","","","","","","","","","","","","",""
"","","","","","","","","","","","","","","","","","","","",""
"","","","","","","","","","","","","","","","","","","","",""
"","","","","","","","","","","","","","","","","","","","",""
"","","","","","","","","","","","","","","","","","","","",""
"","","","","","","","","","","","","","","","","","","","",""
"","","","","","","","","","","","","","","","","","","","",""
"","","","","","","","","","","","","","","","","","","","",""
"","","","","","","","","","","","","","","","","","","","",""
"","","","","","","","","","","","","","","","","","","","",""
"","","","","","","","","","","","","","","","","","","","",""
"","","","","","","","","","","","","","","","","","","","",""
"","","","","","","","","","","","","","","","","","","","",""
"","","","","","","","","","","","","","","","","","","","",""
"","","","","","","","","","","","","","","","","","","","",""
"","","","","","","","","","","","","","","","","","","","",""
"","","","","","","","","","","","","","","","","","","","",""
"","","","","","","","","","","","","","","","","","","","",""
"","","","","","","","","","","","","","","","","","","","",""
"","","","","","","","","","","","","","","","","","","","",""
"","","","","","","","","","","","","","","","","","","","",""
"","","","","","","","","","","","","","","","","","","","",""
"","","","","","","","","","","","","","","","","","","","",""
"","","","","","","","","","","","","","","","","","","","",""
"","","","","","","","","","","","","","","","","","","","",""
"","","","","","","","","","","","","","","","","","","","",""
"","","","","","","","","","","","","","","","","","","","",""
"","","","","","","","","","","","","","","","","","","","",""
"","","","","","","","","","","","","","","","","","","","",""
"","","","","","","","","","","","","","","","","","","","",""
"","","","","","","","","","","","","","","","","","","","",""
"","","","","","","","","","","","","","","","","","","","",""
"","","","","","","","","","","","","","","","","","","","",""
"","","","","","","","","","","","","","","","","","","","",""
"","","","","","","","","","","","","","","","","","","","",""
"","","","","","","","","","","","","","","","","","","","",""
"","","","","","","","","","","","","","","","","","","","",""
"","","","","","","","","","","","","","","","","","","","",""
"","","","","","","","","","","","","","","","","","","","",""
"","","","","","","","","","","","","","","","","","","","",""
"","","","","","","","","","","","","","","","","","","","",""
"","","","","","","","","","","","","","","","","","","","",""
"","","","","","","","","","","","","","","","","","","","",""
"","","","","","","","","","","","","","","","","","","","",""
"","","","","","","","","","","","","","","","","","","","",""
"","","","","","","","","","","","","","","","","","","","",""
"","","","","","","","","","","","","","","","","","","","",""
"","","","","","","","","","","","","","","","","","","","",""
"","","","","","","","","","","","","","","","","","","","",""
"","","","","","","","","","","","","","","","","","","","",""
"","","","","","","","","","","","","","","","","","","","",""
"","","","","","","","","","","","","","","","","","","","",""
"","","","","","","","","","","","","","","","","","","","",""
"","","","","","","","","","","","","","","","","","","","",""
"","","","","","","","","","","","","","","","","","","","",""
"","","","","","","","","","","","","","","","","","","","",""
"","","","","","","","","","","","","","","","","","","","",""
"","","","","","","","","","","","","","","","","","","","",""
"","","","","","","","","","","","","","","","","","","","",""
"","","","","","","","","","","","","","","","","","","","",""
"","","","","","","","","","","","","","","","","","","","",""
"","","","","","","","","","","","","","","","","","","","",""
"","","","","","","","","","","","","","","","","","","","",""
"","","","","","","","","","","","","","","","","","","","",""
"","","","","","","","","","","","","","","","","","","","",""
"","","","","","","","","","","","","","","","","","","","",""
"","","","","","","","","","","","","","","","","","","","",""
"","","","","","","","","","","","","","","","","","","","",""
"","","","","","","","","","","","","","","","","","","","",""
"","","","","","","","","","","","","","","","","","","","",""
"","","","","","","","","","","","","","","","","","","","",""
"","","","","","","","","","","","","","","","","","","","",""
"","","","","","","","","","","","","","","","","","","","",""
"","","","","","","","","","","","","","","","","","","","",""
"","","","","","","","","","","","","","","","","","","","",""
"","","","","","","","","","","","","","","","","","","","",""
"","","","","","","","","","","","","","","","","","","","",""
"","","","","","","","","","","","","","","","","","","","",""
"","","","","","","","","","","","","","","","","","","","",""
"","","","","","","","","","","","","","","","","","","","",""
"","","","","","","","","","","","","","","","","","","","",""
"","","","","","","","","","","","","","","","","","","","",""
"","","","","","","","","","","","","","","","","","","","",""
"","","","","","","","","","","","","","","","","","","","",""
"","","","","","","","","","","","","","","","","","","","",""
"","","","","","","","","","","","","","","","","","","","",""
"","","","","","","","","","","","","","","","","","","","",""
"","","","","","","","","","","","","","","","","","","","",""
