"","Third Party","","","Associated Persons","","","",""
"Type (Organisation or Person)"," Subject Organization Full Name","Country of registration","First Name of  individual subject","Last Name of  
individual subject","Country of residence","","",""
"O","Lend Lease ","Australia","","","","","",""
"A","","","","","","","",""
"A","","","","","","","",""
"A","","","","","","","",""
"A","","","","","","","",""
"A","","","","","","","",""
"","","","","","","","",""
"O","Caterpillar ","Australia","","","","","",""
"A","","","Ashley","Goodfellow","","","",""
"A","","","","","","","",""
"A","","","","","","","",""
"A","","","","","","","",""
"","","","","","","","",""
"O","Fletcher International Exports Pty Ltd","Australia","","","","","",""
"A","","","Roger JAmes","Fletcher","Australia","","",""
"A","","","","","","","",""
"A","","","","","","","",""
"A","","","","","","","",""
"","","","","","","","",""
"O","","","","","","","",""
"A","","","","","","","",""
"A","","","","","","","",""
"A","","","","","","","",""
"A","","","","","","","",""
"","","","","","","","",""
"O","","","","","","","",""
"A","","","","","","","",""
"A","","","","","","","",""
"A","","","","","","","",""
"","","","","","","","",""
"O","","","","","","","",""
"A","","","","","","","",""
"A","","","","","","","",""
"A","","","","","","","",""
"","","","","","","","",""
"O","","","","","","","",""
"A","","","","","","","",""
"A","","","","","","","",""
"A","","","","","","","",""
"","","","","","","","",""
"O","","","","","","","",""
"A","","","","","","","",""
"A","","","","","","","",""
"A","","","","","","","",""
"","","","","","","","",""
"O","","","","","","","",""
"A","","","","","","","",""
"A","","","","","","","",""
"A","","","","","","","",""
"","","","","","","","",""
"O","","","","","","","",""
"A","","","","","","","",""
"A","","","","","","","",""
"A","","","","","","","",""
"","","","","","","","",""
"O","","","","","","","",""
"A","","","","","","","",""
"A","","","","","","","",""
"A","","","","","","","",""
"","","","","","","","",""
"O","","","","","","","",""
"A","","","","","","","",""
"A","","","","","","","",""
"A","","","","","","","",""
"","","","","","","","",""
"O","","","","","","","",""
"A","","","","","","","",""
"A","","","","","","","",""
"A","","","","","","","",""
"","","","","","","","",""
"O","","","","","","","",""
"A","","","","","","","",""
"A","","","","","","","",""
"A","","","","","","","",""
"","","","","","","","",""
"O","","","","","","","",""
"A","","","","","","","",""
"A","","","","","","","",""
"A","","","","","","","",""
"","","","","","","","",""
"O","","","","","","","",""
"A","","","","","","","",""
"A","","","","","","","",""
"A","","","","","","","",""
"","","","","","","","",""
"","","","","","","","",""
"","","","","","","","",""
"Definitions","","","","","","","",""
"Type - This field advises whether the screen is for an individaul or an organisation","","","","","","","",""
"Subject organisation name - The legal name of the organisation you wish to be screened. (This is required if the screen is for an organisation)","","","","","","","",""
"Name fields - for subject if it is an indiviudal being screened","","","","","","","",""
"Contact email address - this is the email addres for the contact at the screened organisaion who will receive communciatoins from Shield and be responsible for actions","","","","","","","",""
"Country - This is the country that the organisaiton or individual is located in.","","","","","","","",""
"","","","","","","","",""
"","Mandatory","","","","","","",""
"","Strongly Suggested - Some fuctions may not work without this information","","","","","","",""
"","Options","","","","","","",""
"","","","","","","","",""
"","","","","","","","",""
"","","","","","","","",""
"","","","","","","","",""
"","","","","","","","",""
"","","","","","","","",""
"","","","","","","","",""
"","","","","","","","",""
"","","","","","","","",""
"","","","","","","","",""
"","","","","","","","",""
