"Third Party","","","","","","Associated Persons","","","","","Point of Contact","","","","","Additional Info","","","","","","","","","","",""
"Type (Organisation or Person)"," Subject Organization Full Name","Alternative Org Names (Doing Business As)","Parent Name 
(if applicable)","Former Name
(if applicable)","Country of registration","First Name of  individual subject","Middle Name of  individual subject","Last Name of  individual subject","Job Title 
(i.e Director / Shareholder / CEO)","Country of residence","Contact First Name","Contact Middle Name","Contact Last Name"," Title / Role","Contact Email Address (Required for Communications) Not Screened unless re-entered below","Suffix 
(if applicable)","Legal / Street Address ","City","State Code","State","Postal Code","Country Code","DOB             (yyyymmdd)","Age","","","List of type"
"O","BAZINGA COMPANY LIMITED","","","","Thailand","","","","","","","","","","","","","","","","","","","","","","P"
"P","","","","","","","","","","","","","","","","","","","","","","","","","","","O"
"P","","","","","","","","","","","","","","","","","","","","","","","","","","",""
"P","","","","","","","","","","","","","","","","","","","","","","","","","","",""
"","","","","","","","","","","","","","","","","","","","","","","","","","","",""
"O","","","","","","","","","","","","","","","","","","","","","","","","","","",""
"P","","","","","","","","","","","","","","","","","","","","","","","","","","",""
"P","","","","","","","","","","","","","","","","","","","","","","","","","","",""
"P","","","","","","","","","","","","","","","","","","","","","","","","","","",""
"","","","","","","","","","","","","","","","","","","","","","","","","","","",""
"O","","","","","","","","","","","","","","","","","","","","","","","","","","",""
"P","","","","","","","","","","","","","","","","","","","","","","","","","","",""
"P","","","","","","","","","","","","","","","","","","","","","","","","","","",""
"P","","","","","","","","","","","","","","","","","","","","","","","","","","",""
"","","","","","","","","","","","","","","","","","","","","","","","","","","",""
"O","","","","","","","","","","","","","","","","","","","","","","","","","","",""
"P","","","","","","","","","","","","","","","","","","","","","","","","","","",""
"P","","","","","","","","","","","","","","","","","","","","","","","","","","",""
"P","","","","","","","","","","","","","","","","","","","","","","","","","","",""
"","","","","","","","","","","","","","","","","","","","","","","","","","","",""
"O","","","","","","","","","","","","","","","","","","","","","","","","","","",""
"P","","","","","","","","","","","","","","","","","","","","","","","","","","",""
"P","","","","","","","","","","","","","","","","","","","","","","","","","","",""
"P","","","","","","","","","","","","","","","","","","","","","","","","","","",""
"","","","","","","","","","","","","","","","","","","","","","","","","","","",""
"O","","","","","","","","","","","","","","","","","","","","","","","","","","",""
"P","","","","","","","","","","","","","","","","","","","","","","","","","","",""
"P","","","","","","","","","","","","","","","","","","","","","","","","","","",""
"P","","","","","","","","","","","","","","","","","","","","","","","","","","",""
"","","","","","","","","","","","","","","","","","","","","","","","","","","",""
"O","","","","","","","","","","","","","","","","","","","","","","","","","","",""
"P","","","","","","","","","","","","","","","","","","","","","","","","","","",""
"P","","","","","","","","","","","","","","","","","","","","","","","","","","",""
"P","","","","","","","","","","","","","","","","","","","","","","","","","","",""
"","","","","","","","","","","","","","","","","","","","","","","","","","","",""
"O","","","","","","","","","","","","","","","","","","","","","","","","","","",""
"P","","","","","","","","","","","","","","","","","","","","","","","","","","",""
"P","","","","","","","","","","","","","","","","","","","","","","","","","","",""
"P","","","","","","","","","","","","","","","","","","","","","","","","","","",""
"","","","","","","","","","","","","","","","","","","","","","","","","","","",""
"O","","","","","","","","","","","","","","","","","","","","","","","","","","",""
"P","","","","","","","","","","","","","","","","","","","","","","","","","","",""
"P","","","","","","","","","","","","","","","","","","","","","","","","","","",""
"P","","","","","","","","","","","","","","","","","","","","","","","","","","",""
"","","","","","","","","","","","","","","","","","","","","","","","","","","",""
"O","","","","","","","","","","","","","","","","","","","","","","","","","","",""
"P","","","","","","","","","","","","","","","","","","","","","","","","","","",""
"P","","","","","","","","","","","","","","","","","","","","","","","","","","",""
"P","","","","","","","","","","","","","","","","","","","","","","","","","","",""
"","","","","","","","","","","","","","","","","","","","","","","","","","","",""
"O","","","","","","","","","","","","","","","","","","","","","","","","","","",""
"P","","","","","","","","","","","","","","","","","","","","","","","","","","",""
"P","","","","","","","","","","","","","","","","","","","","","","","","","","",""
"P","","","","","","","","","","","","","","","","","","","","","","","","","","",""
"","","","","","","","","","","","","","","","","","","","","","","","","","","",""
"O","","","","","","","","","","","","","","","","","","","","","","","","","","",""
"P","","","","","","","","","","","","","","","","","","","","","","","","","","",""
"P","","","","","","","","","","","","","","","","","","","","","","","","","","",""
"P","","","","","","","","","","","","","","","","","","","","","","","","","","",""
"","","","","","","","","","","","","","","","","","","","","","","","","","","",""
"O","","","","","","","","","","","","","","","","","","","","","","","","","","",""
"P","","","","","","","","","","","","","","","","","","","","","","","","","","",""
"P","","","","","","","","","","","","","","","","","","","","","","","","","","",""
"P","","","","","","","","","","","","","","","","","","","","","","","","","","",""
"","","","","","","","","","","","","","","","","","","","","","","","","","","",""
"O","","","","","","","","","","","","","","","","","","","","","","","","","","",""
"P","","","","","","","","","","","","","","","","","","","","","","","","","","",""
"P","","","","","","","","","","","","","","","","","","","","","","","","","","",""
"P","","","","","","","","","","","","","","","","","","","","","","","","","","",""
"","","","","","","","","","","","","","","","","","","","","","","","","","","",""
"O","","","","","","","","","","","","","","","","","","","","","","","","","","",""
"P","","","","","","","","","","","","","","","","","","","","","","","","","","",""
"P","","","","","","","","","","","","","","","","","","","","","","","","","","",""
"P","","","","","","","","","","","","","","","","","","","","","","","","","","",""
"","","","","","","","","","","","","","","","","","","","","","","","","","","",""
"O","","","","","","","","","","","","","","","","","","","","","","","","","","",""
"P","","","","","","","","","","","","","","","","","","","","","","","","","","",""
"P","","","","","","","","","","","","","","","","","","","","","","","","","","",""
"P","","","","","","","","","","","","","","","","","","","","","","","","","","",""
"","","","","","","","","","","","","","","","","","","","","","","","","","","",""
"","","","","","","","","","","","","","","","","","","","","","","","","","","",""
"","","","","","","","","","","","","","","","","","","","","","","","","","","",""
"Definitions","","","","","","","","","","","","","","","","","","","","","","","","","","",""
"Type - This field advises whether the screen is for an individaul or an organisation","","","","","","","","","","","","","","","","","","","","","","","","","","",""
"Subject organisation name - The legal name of the organisation you wish to be screened. (This is required if the screen is for an organisation)","","","","","","","","","","","","","","","","","","","","","","","","","","",""
"Name fields - for subject if it is an indiviudal being screened","","","","","","","","","","","","","","","","","","","","","","","","","","",""
"Contact email address - this is the email addres for the contact at the screened organisaion who will receive communciatoins from Shield and be responsible for actions","","","","","","","","","","","","","","","","","","","","","","","","","","",""
"Country - This is the country that the organisaiton or individual is located in.","","","","","","","","","","","","","","","","","","","","","","","","","","",""
"","","","","","","","","","","","","","","","","","","","","","","","","","","",""
"","Mandatory","","","","","","","","","","","","","","","","","","","","","","","","","",""
"","Strongly Suggested - Some fuctions may not work without this information","","","","","","","","","","","","","","","","","","","","","","","","","",""
"","Options","","","","","","","","","","","","","","","","","","","","","","","","","",""
"","","","","","","","","","","","","","","","","","","","","","","","","","","",""
"","","","","","","","","","","","","","","","","","","","","","","","","","","",""
"","","","","","","","","","","","","","","","","","","","","","","","","","","",""
"","","","","","","","","","","","","","","","","","","","","","","","","","","",""
"","","","","","","","","","","","","","","","","","","","","","","","","","","",""
"","","","","","","","","","","","","","","","","","","","","","","","","","","",""
"","","","","","","","","","","","","","","","","","","","","","","","","","","",""
"","","","","","","","","","","","","","","","","","","","","","","","","","","",""
"","","","","","","","","","","","","","","","","","","","","","","","","","","",""
"","","","","","","","","","","","","","","","","","","","","","","","","","","",""
"","","","","","","","","","","","","","","","","","","","","","","","","","","",""
