"","Third Party (Company)","","","Associated Persons","","","","","","","","","","","","","","","",""
"Type (O Organisation or A Associated Individual)"," Subject Organisation Full Entity Name","Country of Registration","First Name of  Associated Individual","Last Name of  Associated Individual","Country of Residence","","","","","","","","","","","","","","","List of type"
"O","QED ENGINEERS","Singapore","","","","","","","","","","","","","","","","","",""
"O","Quality & Expediting Solutions","Malaysia","","","","","","","","","","","","","","","","","",""
"O","QUALITY HYDRAULICS LTD","United Kingdom","","","","","","","","","","","","","","","","","",""
"O","QAIS MARINE EQUIPMENT TRADING LLC","United Arab Emirates","","","","","","","","","","","","","","","","","",""
"O","Quantum Marineworks Singapore Pte Ltd","Singapore","","","","","","","","","","","","","","","","","",""
"O","CSSP Pty Ltd","Australia","","","","","","","","","","","","","","","","","",""
"O","QA SOFTWARE PTY LTD","Australia","","","","","","","","","","","","","","","","","",""
"O","QSS SAFETY PRODUCTS (S) PTE LTD","Singapore","","","","","","","","","","","","","","","","","",""
"O","QS SERVICES","Australia","","","","","","","","","","","","","","","","","",""
"O","RENT A COMP SERVICES (PVT) LTD","Sri Lanka","","","","","","","","","","","","","","","","","",""
"O","RELIANCE ALUMINUM & COPPER PRODUCT TR LLC","United Arab Emirates","","","","","","","","","","","","","","","","","",""
"O","Radio Holland Middle East","United Arab Emirates","","","","","","","","","","","","","","","","","",""
"O","ROXUL ASIA SDN BHD","Malaysia","","","","","","","","","","","","","","","","","",""
"O","RAYCER BUILDING SERVICES CONTRACTOR","Singapore","","","","","","","","","","","","","","","","","",""
"O","REAL COOL","India","","","","","","","","","","","","","","","","","",""
"O","ROTARY CLUB OF COLOMBO SOUTH","Sri Lanka","","","","","","","","","","","","","","","","","",""
"O","ROYAL COLOMBO GOLF CLUB","Sri Lanka","","","","","","","","","","","","","","","","","",""
"O","RADIOQUIP COMMUNICATIONS PTE LTD","Singapore","","","","","","","","","","","","","","","","","",""
"O","REVOSIS DRINKING WATER SDN BHD","Malaysia","","","","","","","","","","","","","","","","","",""
"O","Recovered Energy Engineering Sdn Bhd","Malaysia","","","","","","","","","","","","","","","","","",""
"O","Recovered Energy Engineering Sdn Bhd","Malaysia","","","","","","","","","","","","","","","","","",""
"O","REED ELSEVIER (SINGAPORE) 2008 PTE LTD","Singapore","","","","","","","","","","","","","","","","","",""
"O","RAMCO ENGINEERING PTE LTD","Singapore","","","","","","","","","","","","","","","","","",""
"O","ROTEX ENGINEERING & SERVICES PTE LTD","Singapore","","","","","","","","","","","","","","","","","",""
"O","RGS REPROGRAPHIC SOLUTIONS PTE LTD (previously known as Servicepoint)","Singapore","","","","","","","","","","","","","","","","","",""
"O","Radhakrishna Hospitality Services Pvt Ltd","India","","","","","","","","","","","","","","","","","",""
"O","Riassera Sdn Bhd","Malaysia","","","","","","","","","","","","","","","","","",""
"O","PT. Rentokil Indonesia","Indonesia","","","","","","","","","","","","","","","","","",""
"O","RIDER LEVETT BUCKNALL LLP","Singapore","","","","","","","","","","","","","","","","","",""
"O","Regional Institute Of Environmental Tech.","Singapore","","","","","","","","","","","","","","","","","",""
"O","RIK INDUSTRIES PTE LTD","Singapore","","","","","","","","","","","","","","","","","",""
"O","RAY INTERNATIONAL PROPERTY CONSULTANTS P L","Singapore","","","","","","","","","","","","","","","","","",""
"O","RICMAS International Pte. Ltd","Singapore","","","","","","","","","","","","","","","","","",""
"O","RENTOKIL INITIAL SINGAPORE PTE LTD","Singapore","","","","","","","","","","","","","","","","","",""
"O","ROM-MASTER INDUSTRIAL (INT'L) LIMITED","China","","","","","","","","","","","","","","","","","",""
"O","ROBERT ARMSTRONG","Spain","","","","","","","","","","","","","","","","","",""
"O","REGISTRE OF COMPANIES AND BUSINESSES","Singapore","","","","","","","","","","","","","","","","","",""
"O","REAL OFFSHORE MARINE ENGINEERING SDN BHD","Malaysia","","","","","","","","","","","","","","","","","",""
"O","REPUBLIC OF SINGAPORE YACHT CLUB","Singapore","","","","","","","","","","","","","","","","","",""
"O","ROY PAVAL CONTRACTING L.L.C.","United Arab Emirates","","","","","","","","","","","","","","","","","",""
"O","ROYAL PLAZA","Singapore","","","","","","","","","","","","","","","","","",""
"O","RUTHERFORD POWER ASIA PTE LTD","Singapore","","","","","","","","","","","","","","","","","",""
"O","REVIEW PUBLISHING COMPANY LTD","Hong Kong","","","","","","","","","","","","","","","","","",""
"O","ROB PARKER ENGINEERING PTY LTD","Australia","","","","","","","","","","","","","","","","","",""
"O","RPI Quantity Surveyors Pte Ltd","Singapore","","","","","","","","","","","","","","","","","",""
"O","RPI QS Pte Ltd","Singapore","","","","","","","","","","","","","","","","","",""
"O","PT. Rofenni Prima Jaya","Indonesia","","","","","","","","","","","","","","","","","",""
"O","RICOH (SINGAPORE) PTE LTD","Singapore","","","","","","","","","","","","","","","","","",""
"O","Regency Steel Asia","Singapore","","","","","","","","","","","","","","","","","",""
"O","RS Components Sdn Bhd","Malaysia","","","","","","","","","","","","","","","","","",""
"O","RIVER VIEW HOTEL SINGAPORE","Singapore","","","","","","","","","","","","","","","","","",""
"O","STAR 21 INTERNATIONAL PTE LTD","Singapore","","","","","","","","","","","","","","","","","",""
"O","SIMON & ASSOCIATES","Sri Lanka","","","","","","","","","","","","","","","","","",""
"O","SHRIJEE AGENCIES","India","","","","","","","","","","","","","","","","","",""
"O","SANPAC ENGINEERS (PVT) LTD","Sri Lanka","","","","","","","","","","","","","","","","","",""
"O","SANDAKAN AIR-CONDITIONING & ENGINEERING P/L","Singapore","","","","","","","","","","","","","","","","","",""
"O","Safetec Co","Malaysia","","","","","","","","","","","","","","","","","",""
"O","SAFA Telecom","United Arab Emirates","","","","","","","","","","","","","","","","","",""
"O","SANTARLI CONSTRUCTION PTE LTD","Singapore","","","","","","","","","","","","","","","","","",""
"O","D.L.& F.DE SARAM","Sri Lanka","","","","","","","","","","","","","","","","","",""
"O","SINTRANS ASIA SERVICES PTE LTD","Singapore","","","","","","","","","","","","","","","","","",""
"O","SAFETY & ADVISORY SERVICES PTE LTD","Singapore","","","","","","","","","","","","","","","","","",""
"O","SWEE BEE CO. LTE. LTD.","Singapore","","","","","","","","","","","","","","","","","",""
"O","SINGAPORE BUSINESS FEDERATION","Singapore","","","","","","","","","","","","","","","","","",""
"O","SOH BROTHERS GASES PTE LTD","Singapore","","","","","","","","","","","","","","","","","",""
"O","SBN Industries Sdn. Bhd.","Malaysia","","","","","","","","","","","","","","","","","",""
"O","SAIF AL BURHAN TRADERS","United Arab Emirates","","","","","","","","","","","","","","","","","",""
"O","THE SINGAPORE CONTRACTORS ASSOCIATION LTD","Singapore","","","","","","","","","","","","","","","","","",""
"O","SCAL ACADEMY PTE LTD","Singapore","","","","","","","","","","","","","","","","","",""
"O","SAMUDRA CEMENT COMPANY LANKA (PRIVATE) LTD","Sri Lanka","","","","","","","","","","","","","","","","","",""
"O","STAR CONSTRUCTION & ENGINEERING (PVT) LTD","Sri Lanka","","","","","","","","","","","","","","","","","",""
"O","Scott Lister Pte Ltd","Singapore","","","","","","","","","","","","","","","","","",""
"O","Scot and English (Malaysia) Sdn Bhd","Malaysia","","","","","","","","","","","","","","","","","",""
"O","Salestrade Corporation Pte Ltd","Singapore","","","","","","","","","","","","","","","","","",""
"O","SCE CONSULTANTS SDN BHD","Malaysia","","","","","","","","","","","","","","","","","",""
"O","SPRAYED CONCRETE SERVICES PTE LTD","Singapore","","","","","","","","","","","","","","","","","",""
"O","SCS ENTERPRISE SYSTEM PTE LTD","Singapore","","","","","","","","","","","","","","","","","",""
"O","SHEWDEN DESIGN & CONSTRUCTION PTE LTD","Singapore","","","","","","","","","","","","","","","","","",""
"O","SANGJIN DEHA INDUSTRIES (S) PTE LTD","Singapore","","","","","","","","","","","","","","","","","",""
"O","PT. SPECTRA DUTA KARYA","Indonesia","","","","","","","","","","","","","","","","","",""
"O","SEACON DACOTRANS PTE LTD","Singapore","","","","","","","","","","","","","","","","","",""
"O","Sealand Diesel Private Limited","India","","","","","","","","","","","","","","","","","",""
"O","SOIL DYNAMICS (S) PTE LTD","Singapore","","","","","","","","","","","","","","","","","",""
"O","SHANAKA ENTERPRISES","Sri Lanka","","","","","","","","","","","","","","","","","",""
"O","STEAD ENTERPRISES","Sri Lanka","","","","","","","","","","","","","","","","","",""
"O","SOUTH EAST ASIA METALWORK AND EQUIPMENT PL","Singapore","","","","","","","","","","","","","","","","","",""
"O","SWITER ENGINEERING (FE) PTE LTD","Singapore","","","","","","","","","","","","","","","","","",""
"O","SEKE Corporation","South Korea","","","","","","","","","","","","","","","","","",""
"O","Seng Kong Production Pte Ltd","Singapore","","","","","","","","","","","","","","","","","",""
"O","SHELL EASTERN PETROLEUM (PTE) LTD","Singapore","","","","","","","","","","","","","","","","","",""
"O","SAMCO ENGINEERING PTE LTD","Singapore","","","","","","","","","","","","","","","","","",""
"O","SCATECH ENGINEERING PTE LTD","Singapore","","","","","","","","","","","","","","","","","",""
"O","Stradford Engineering Sdn. Bhd.","Malaysia","","","","","","","","","","","","","","","","","",""
"O","SESAMI (SINGAPORE) PTE LTD","Singapore","","","","","","","","","","","","","","","","","",""
"O","Shore Flow Controls Pte Ltd","Singapore","","","","","","","","","","","","","","","","","",""
"O","SHEFFIELD OFFSHORE SERVICES PTE LTD","Singapore","","","","","","","","","","","","","","","","","",""
"O","Santa Fe Relocation Services (S) Pte Ltd","Singapore","","","","","","","","","","","","","","","","","",""
"O","SUNLONG FREIGHT SERVICES PTE LTD","Singapore","","","","","","","","","","","","","","","","","",""
"O","SGB ASIA PACIFIC (S) PTE LTD","Singapore","","","","","","","","","","","","","","","","","",""
"O","Sounthen Group Civil Construction (Pvt) Ltd","Sri Lanka","","","","","","","","","","","","","","","","","",""
"O","STEEL GLO ENGINEERING (S) PTE LTD","Singapore","","","","","","","","","","","","","","","","","",""
"O","S.G.JAYAWEERA ARACHCHI","Sri Lanka","","","","","","","","","","","","","","","","","",""
"O","SHANXI GOODWILL METAL CO. LTD","China","","","","","","","","","","","","","","","","","",""
"O","SUPER GALVANISING PTE LTD","Singapore","","","","","","","","","","","","","","","","","",""
"O","SAFA ITC GENERAL TRADING LLC","United Arab Emirates","","","","","","","","","","","","","","","","","",""
"O","SHC ENGINEERING PTE LTD","Singapore","","","","","","","","","","","","","","","","","",""
"O","Singapore Hokkien Huay Kuan","Singapore","","","","","","","","","","","","","","","","","",""
"O","Shin Press","Singapore","","","","","","","","","","","","","","","","","",""
"O","PT Suryasarana HidupJaya","Indonesia","","","","","","","","","","","","","","","","","",""
"O","STARHUB LTD","Singapore","","","","","","","","","","","","","","","","","",""
"O","SINGLAND HEAVY MACHINERY & CONSTRUCTION P/L","Singapore","","","","","","","","","","","","","","","","","",""
"O","SPX HYDRAULIC TECHNOLOGIES","Singapore","","","","","","","","","","","","","","","","","",""
"O","SAMMICON INTERNATIONAL","Singapore","","","","","","","","","","","","","","","","","",""
"O","SINGAPORE INSTITUTE OF ARCHITECTS","Singapore","","","","","","","","","","","","","","","","","",""
"O","SINGAPORE INTERNATIONAL CHAMBER OF COMMERCE","Singapore","","","","","","","","","","","","","","","","","",""
"O","SIGMA SOLUTIONS HRD CONSULTANTS PTE LTD","Singapore","","","","","","","","","","","","","","","","","",""
"O","SIKA (SINGAPORE) PTE. LTD.","Singapore","","","","","","","","","","","","","","","","","",""
"O","Sim Seng Hin Sawmill Co. Pte. Ltd.","Singapore","","","","","","","","","","","","","","","","","",""
"O","Singatac Engineering Pte Ltd","Singapore","","","","","","","","","","","","","","","","","",""
"O","Sin Loong Seng Engineering Works Pte Ltd","Singapore","","","","","","","","","","","","","","","","","",""
"O","SINGAPORE IT SERVICES","Singapore","","","","","","","","","","","","","","","","","",""
"O","SINGAPORE RUBBER STAMP MAKER","Singapore","","","","","","","","","","","","","","","","","",""
"O","Soufan International Services (FZE)","United Arab Emirates","","","","","","","","","","","","","","","","","",""
"O","SISO","Singapore","","","","","","","","","","","","","","","","","",""
"O","SITA PEST CONTROL & FUMIGATION SERVICES PTE LTD","Singapore","","","","","","","","","","","","","","","","","",""
"O","ST.JOHN AMBULANCE ASSOCIATION","Singapore","","","","","","","","","","","","","","","","","",""
"O","Seri Jubilee Engineering Sdn Bhd","Malaysia","","","","","","","","","","","","","","","","","",""
"O","Skill Creation","Singapore","","","","","","","","","","","","","","","","","",""
"O","Sri Kimpal Engineering Sdn Bhd","Malaysia","","","","","","","","","","","","","","","","","",""
"","","","","","","","","","","","","","","","","","","","",""
"","","","","","","","","","","","","","","","","","","","",""
"","","","","","","","","","","","","","","","","","","","",""
"","","","","","","","","","","","","","","","","","","","",""
"","","","","","","","","","","","","","","","","","","","",""
"","","","","","","","","","","","","","","","","","","","",""
"","","","","","","","","","","","","","","","","","","","",""
"","","","","","","","","","","","","","","","","","","","",""
"","","","","","","","","","","","","","","","","","","","",""
"","","","","","","","","","","","","","","","","","","","",""
"","","","","","","","","","","","","","","","","","","","",""
"","","","","","","","","","","","","","","","","","","","",""
"","","","","","","","","","","","","","","","","","","","",""
"","","","","","","","","","","","","","","","","","","","",""
"","","","","","","","","","","","","","","","","","","","",""
"","","","","","","","","","","","","","","","","","","","",""
"","","","","","","","","","","","","","","","","","","","",""
"","","","","","","","","","","","","","","","","","","","",""
"","","","","","","","","","","","","","","","","","","","",""
"","","","","","","","","","","","","","","","","","","","",""
"","","","","","","","","","","","","","","","","","","","",""
"","","","","","","","","","","","","","","","","","","","",""
"","","","","","","","","","","","","","","","","","","","",""
"","","","","","","","","","","","","","","","","","","","",""
"","","","","","","","","","","","","","","","","","","","",""
"","","","","","","","","","","","","","","","","","","","",""
"","","","","","","","","","","","","","","","","","","","",""
"","","","","","","","","","","","","","","","","","","","",""
"","","","","","","","","","","","","","","","","","","","",""
"","","","","","","","","","","","","","","","","","","","",""
"","","","","","","","","","","","","","","","","","","","",""
"","","","","","","","","","","","","","","","","","","","",""
"","","","","","","","","","","","","","","","","","","","",""
"","","","","","","","","","","","","","","","","","","","",""
"","","","","","","","","","","","","","","","","","","","",""
"","","","","","","","","","","","","","","","","","","","",""
"","","","","","","","","","","","","","","","","","","","",""
"","","","","","","","","","","","","","","","","","","","",""
"","","","","","","","","","","","","","","","","","","","",""
"","","","","","","","","","","","","","","","","","","","",""
"","","","","","","","","","","","","","","","","","","","",""
"","","","","","","","","","","","","","","","","","","","",""
"","","","","","","","","","","","","","","","","","","","",""
"","","","","","","","","","","","","","","","","","","","",""
"","","","","","","","","","","","","","","","","","","","",""
"","","","","","","","","","","","","","","","","","","","",""
"","","","","","","","","","","","","","","","","","","","",""
"","","","","","","","","","","","","","","","","","","","",""
"","","","","","","","","","","","","","","","","","","","",""
"","","","","","","","","","","","","","","","","","","","",""
"","","","","","","","","","","","","","","","","","","","",""
"","","","","","","","","","","","","","","","","","","","",""
"","","","","","","","","","","","","","","","","","","","",""
"","","","","","","","","","","","","","","","","","","","",""
"","","","","","","","","","","","","","","","","","","","",""
"","","","","","","","","","","","","","","","","","","","",""
"","","","","","","","","","","","","","","","","","","","",""
"","","","","","","","","","","","","","","","","","","","",""
"","","","","","","","","","","","","","","","","","","","",""
"","","","","","","","","","","","","","","","","","","","",""
"","","","","","","","","","","","","","","","","","","","",""
"","","","","","","","","","","","","","","","","","","","",""
"","","","","","","","","","","","","","","","","","","","",""
"","","","","","","","","","","","","","","","","","","","",""
"","","","","","","","","","","","","","","","","","","","",""
"","","","","","","","","","","","","","","","","","","","",""
"","","","","","","","","","","","","","","","","","","","",""
"","","","","","","","","","","","","","","","","","","","",""
"","","","","","","","","","","","","","","","","","","","",""
"","","","","","","","","","","","","","","","","","","","",""
"","","","","","","","","","","","","","","","","","","","",""
"","","","","","","","","","","","","","","","","","","","",""
"","","","","","","","","","","","","","","","","","","","",""
"","","","","","","","","","","","","","","","","","","","",""
"","","","","","","","","","","","","","","","","","","","",""
"","","","","","","","","","","","","","","","","","","","",""
"","","","","","","","","","","","","","","","","","","","",""
"","","","","","","","","","","","","","","","","","","","",""
"","","","","","","","","","","","","","","","","","","","",""
"","","","","","","","","","","","","","","","","","","","",""
"","","","","","","","","","","","","","","","","","","","",""
"","","","","","","","","","","","","","","","","","","","",""
"","","","","","","","","","","","","","","","","","","","",""
"","","","","","","","","","","","","","","","","","","","",""
"","","","","","","","","","","","","","","","","","","","",""
"","","","","","","","","","","","","","","","","","","","",""
"","","","","","","","","","","","","","","","","","","","",""
"","","","","","","","","","","","","","","","","","","","",""
"","","","","","","","","","","","","","","","","","","","",""
"","","","","","","","","","","","","","","","","","","","",""
"","","","","","","","","","","","","","","","","","","","",""
"","","","","","","","","","","","","","","","","","","","",""
"","","","","","","","","","","","","","","","","","","","",""
"","","","","","","","","","","","","","","","","","","","",""
"","","","","","","","","","","","","","","","","","","","",""
"","","","","","","","","","","","","","","","","","","","",""
"","","","","","","","","","","","","","","","","","","","",""
"","","","","","","","","","","","","","","","","","","","",""
"","","","","","","","","","","","","","","","","","","","",""
"","","","","","","","","","","","","","","","","","","","",""
"","","","","","","","","","","","","","","","","","","","",""
"","","","","","","","","","","","","","","","","","","","",""
"","","","","","","","","","","","","","","","","","","","",""
"","","","","","","","","","","","","","","","","","","","",""
"","","","","","","","","","","","","","","","","","","","",""
"","","","","","","","","","","","","","","","","","","","",""
"","","","","","","","","","","","","","","","","","","","",""
"","","","","","","","","","","","","","","","","","","","",""
"","","","","","","","","","","","","","","","","","","","",""
"","","","","","","","","","","","","","","","","","","","",""
"","","","","","","","","","","","","","","","","","","","",""
"","","","","","","","","","","","","","","","","","","","",""
"","","","","","","","","","","","","","","","","","","","",""
"","","","","","","","","","","","","","","","","","","","",""
"","","","","","","","","","","","","","","","","","","","",""
"","","","","","","","","","","","","","","","","","","","",""
"","","","","","","","","","","","","","","","","","","","",""
"","","","","","","","","","","","","","","","","","","","",""
"","","","","","","","","","","","","","","","","","","","",""
"","","","","","","","","","","","","","","","","","","","",""
"","","","","","","","","","","","","","","","","","","","",""
"","","","","","","","","","","","","","","","","","","","",""
"","","","","","","","","","","","","","","","","","","","",""
"","","","","","","","","","","","","","","","","","","","",""
"","","","","","","","","","","","","","","","","","","","",""
"","","","","","","","","","","","","","","","","","","","",""
"","","","","","","","","","","","","","","","","","","","",""
"","","","","","","","","","","","","","","","","","","","",""
"","","","","","","","","","","","","","","","","","","","",""
"","","","","","","","","","","","","","","","","","","","",""
"","","","","","","","","","","","","","","","","","","","",""
"","","","","","","","","","","","","","","","","","","","",""
"","","","","","","","","","","","","","","","","","","","",""
"","","","","","","","","","","","","","","","","","","","",""
"","","","","","","","","","","","","","","","","","","","",""
"","","","","","","","","","","","","","","","","","","","",""
"","","","","","","","","","","","","","","","","","","","",""
"","","","","","","","","","","","","","","","","","","","",""
"","","","","","","","","","","","","","","","","","","","",""
"","","","","","","","","","","","","","","","","","","","",""
"","","","","","","","","","","","","","","","","","","","",""
"","","","","","","","","","","","","","","","","","","","",""
"","","","","","","","","","","","","","","","","","","","",""
"","","","","","","","","","","","","","","","","","","","",""
"","","","","","","","","","","","","","","","","","","","",""
"","","","","","","","","","","","","","","","","","","","",""
"","","","","","","","","","","","","","","","","","","","",""
"","","","","","","","","","","","","","","","","","","","",""
"","","","","","","","","","","","","","","","","","","","",""
"","","","","","","","","","","","","","","","","","","","",""
"","","","","","","","","","","","","","","","","","","","",""
"","","","","","","","","","","","","","","","","","","","",""
"","","","","","","","","","","","","","","","","","","","",""
"","","","","","","","","","","","","","","","","","","","",""
"","","","","","","","","","","","","","","","","","","","",""
"","","","","","","","","","","","","","","","","","","","",""
"","","","","","","","","","","","","","","","","","","","",""
"","","","","","","","","","","","","","","","","","","","",""
"","","","","","","","","","","","","","","","","","","","",""
"","","","","","","","","","","","","","","","","","","","",""
"","","","","","","","","","","","","","","","","","","","",""
"","","","","","","","","","","","","","","","","","","","",""
"","","","","","","","","","","","","","","","","","","","",""
"","","","","","","","","","","","","","","","","","","","",""
"","","","","","","","","","","","","","","","","","","","",""
"","","","","","","","","","","","","","","","","","","","",""
"","","","","","","","","","","","","","","","","","","","",""
"","","","","","","","","","","","","","","","","","","","",""
"","","","","","","","","","","","","","","","","","","","",""
"","","","","","","","","","","","","","","","","","","","",""
"","","","","","","","","","","","","","","","","","","","",""
"","","","","","","","","","","","","","","","","","","","",""
"","","","","","","","","","","","","","","","","","","","",""
"","","","","","","","","","","","","","","","","","","","",""
"","","","","","","","","","","","","","","","","","","","",""
"","","","","","","","","","","","","","","","","","","","",""
"","","","","","","","","","","","","","","","","","","","",""
"","","","","","","","","","","","","","","","","","","","",""
"","","","","","","","","","","","","","","","","","","","",""
"","","","","","","","","","","","","","","","","","","","",""
"","","","","","","","","","","","","","","","","","","","",""
"","","","","","","","","","","","","","","","","","","","",""
"","","","","","","","","","","","","","","","","","","","",""
"","","","","","","","","","","","","","","","","","","","",""
"","","","","","","","","","","","","","","","","","","","",""
"","","","","","","","","","","","","","","","","","","","",""
"","","","","","","","","","","","","","","","","","","","",""
"","","","","","","","","","","","","","","","","","","","",""
"","","","","","","","","","","","","","","","","","","","",""
"","","","","","","","","","","","","","","","","","","","",""
"","","","","","","","","","","","","","","","","","","","",""
"","","","","","","","","","","","","","","","","","","","",""
"","","","","","","","","","","","","","","","","","","","",""
"","","","","","","","","","","","","","","","","","","","",""
"","","","","","","","","","","","","","","","","","","","",""
"","","","","","","","","","","","","","","","","","","","",""
"","","","","","","","","","","","","","","","","","","","",""
"","","","","","","","","","","","","","","","","","","","",""
"","","","","","","","","","","","","","","","","","","","",""
"","","","","","","","","","","","","","","","","","","","",""
"","","","","","","","","","","","","","","","","","","","",""
"","","","","","","","","","","","","","","","","","","","",""
"","","","","","","","","","","","","","","","","","","","",""
"","","","","","","","","","","","","","","","","","","","",""
"","","","","","","","","","","","","","","","","","","","",""
"","","","","","","","","","","","","","","","","","","","",""
"","","","","","","","","","","","","","","","","","","","",""
"","","","","","","","","","","","","","","","","","","","",""
"","","","","","","","","","","","","","","","","","","","",""
"","","","","","","","","","","","","","","","","","","","",""
"","","","","","","","","","","","","","","","","","","","",""
"","","","","","","","","","","","","","","","","","","","",""
"","","","","","","","","","","","","","","","","","","","",""
"","","","","","","","","","","","","","","","","","","","",""
"","","","","","","","","","","","","","","","","","","","",""
"","","","","","","","","","","","","","","","","","","","",""
"","","","","","","","","","","","","","","","","","","","",""
"","","","","","","","","","","","","","","","","","","","",""
"","","","","","","","","","","","","","","","","","","","",""
"","","","","","","","","","","","","","","","","","","","",""
"","","","","","","","","","","","","","","","","","","","",""
"","","","","","","","","","","","","","","","","","","","",""
"","","","","","","","","","","","","","","","","","","","",""
"","","","","","","","","","","","","","","","","","","","",""
"","","","","","","","","","","","","","","","","","","","",""
"","","","","","","","","","","","","","","","","","","","",""
"","","","","","","","","","","","","","","","","","","","",""
"","","","","","","","","","","","","","","","","","","","",""
"","","","","","","","","","","","","","","","","","","","",""
"","","","","","","","","","","","","","","","","","","","",""
"","","","","","","","","","","","","","","","","","","","",""
"","","","","","","","","","","","","","","","","","","","",""
"","","","","","","","","","","","","","","","","","","","",""
"","","","","","","","","","","","","","","","","","","","",""
"","","","","","","","","","","","","","","","","","","","",""
"","","","","","","","","","","","","","","","","","","","",""
"","","","","","","","","","","","","","","","","","","","",""
"","","","","","","","","","","","","","","","","","","","",""
"","","","","","","","","","","","","","","","","","","","",""
"","","","","","","","","","","","","","","","","","","","",""
"","","","","","","","","","","","","","","","","","","","",""
"","","","","","","","","","","","","","","","","","","","",""
"","","","","","","","","","","","","","","","","","","","",""
"","","","","","","","","","","","","","","","","","","","",""
"","","","","","","","","","","","","","","","","","","","",""
"","","","","","","","","","","","","","","","","","","","",""
"","","","","","","","","","","","","","","","","","","","",""
"","","","","","","","","","","","","","","","","","","","",""
"","","","","","","","","","","","","","","","","","","","",""
"","","","","","","","","","","","","","","","","","","","",""
"","","","","","","","","","","","","","","","","","","","",""
"","","","","","","","","","","","","","","","","","","","",""
"","","","","","","","","","","","","","","","","","","","",""
"","","","","","","","","","","","","","","","","","","","",""
"","","","","","","","","","","","","","","","","","","","",""
"","","","","","","","","","","","","","","","","","","","",""
"","","","","","","","","","","","","","","","","","","","",""
"","","","","","","","","","","","","","","","","","","","",""
"","","","","","","","","","","","","","","","","","","","",""
"","","","","","","","","","","","","","","","","","","","",""
"","","","","","","","","","","","","","","","","","","","",""
"","","","","","","","","","","","","","","","","","","","",""
"","","","","","","","","","","","","","","","","","","","",""
"","","","","","","","","","","","","","","","","","","","",""
"","","","","","","","","","","","","","","","","","","","",""
"","","","","","","","","","","","","","","","","","","","",""
"","","","","","","","","","","","","","","","","","","","",""
"","","","","","","","","","","","","","","","","","","","",""
"","","","","","","","","","","","","","","","","","","","",""
"","","","","","","","","","","","","","","","","","","","",""
"","","","","","","","","","","","","","","","","","","","",""
"","","","","","","","","","","","","","","","","","","","",""
"","","","","","","","","","","","","","","","","","","","",""
"","","","","","","","","","","","","","","","","","","","",""
"","","","","","","","","","","","","","","","","","","","",""
"","","","","","","","","","","","","","","","","","","","",""
"","","","","","","","","","","","","","","","","","","","",""
"","","","","","","","","","","","","","","","","","","","",""
"","","","","","","","","","","","","","","","","","","","",""
"","","","","","","","","","","","","","","","","","","","",""
"","","","","","","","","","","","","","","","","","","","",""
"","","","","","","","","","","","","","","","","","","","",""
"","","","","","","","","","","","","","","","","","","","",""
"","","","","","","","","","","","","","","","","","","","",""
"","","","","","","","","","","","","","","","","","","","",""
"","","","","","","","","","","","","","","","","","","","",""
"","","","","","","","","","","","","","","","","","","","",""
"","","","","","","","","","","","","","","","","","","","",""
"","","","","","","","","","","","","","","","","","","","",""
"","","","","","","","","","","","","","","","","","","","",""
"","","","","","","","","","","","","","","","","","","","",""
"","","","","","","","","","","","","","","","","","","","",""
"","","","","","","","","","","","","","","","","","","","",""
"","","","","","","","","","","","","","","","","","","","",""
"","","","","","","","","","","","","","","","","","","","",""
"","","","","","","","","","","","","","","","","","","","",""
"","","","","","","","","","","","","","","","","","","","",""
"","","","","","","","","","","","","","","","","","","","",""
"","","","","","","","","","","","","","","","","","","","",""
"","","","","","","","","","","","","","","","","","","","",""
"","","","","","","","","","","","","","","","","","","","",""
"","","","","","","","","","","","","","","","","","","","",""
"","","","","","","","","","","","","","","","","","","","",""
"","","","","","","","","","","","","","","","","","","","",""
"","","","","","","","","","","","","","","","","","","","",""
"","","","","","","","","","","","","","","","","","","","",""
"","","","","","","","","","","","","","","","","","","","",""
"","","","","","","","","","","","","","","","","","","","",""
"","","","","","","","","","","","","","","","","","","","",""
"","","","","","","","","","","","","","","","","","","","",""
"","","","","","","","","","","","","","","","","","","","",""
"","","","","","","","","","","","","","","","","","","","",""
"","","","","","","","","","","","","","","","","","","","",""
"","","","","","","","","","","","","","","","","","","","",""
"","","","","","","","","","","","","","","","","","","","",""
"","","","","","","","","","","","","","","","","","","","",""
"","","","","","","","","","","","","","","","","","","","",""
"","","","","","","","","","","","","","","","","","","","",""
"","","","","","","","","","","","","","","","","","","","",""
"","","","","","","","","","","","","","","","","","","","",""
"","","","","","","","","","","","","","","","","","","","",""
"","","","","","","","","","","","","","","","","","","","",""
"","","","","","","","","","","","","","","","","","","","",""
"","","","","","","","","","","","","","","","","","","","",""
"","","","","","","","","","","","","","","","","","","","",""
"","","","","","","","","","","","","","","","","","","","",""
"","","","","","","","","","","","","","","","","","","","",""
"","","","","","","","","","","","","","","","","","","","",""
"","","","","","","","","","","","","","","","","","","","",""
"","","","","","","","","","","","","","","","","","","","",""
"","","","","","","","","","","","","","","","","","","","",""
"","","","","","","","","","","","","","","","","","","","",""
"","","","","","","","","","","","","","","","","","","","",""
"","","","","","","","","","","","","","","","","","","","",""
"","","","","","","","","","","","","","","","","","","","",""
"","","","","","","","","","","","","","","","","","","","",""
"","","","","","","","","","","","","","","","","","","","",""
"","","","","","","","","","","","","","","","","","","","",""
"","","","","","","","","","","","","","","","","","","","",""
"","","","","","","","","","","","","","","","","","","","",""
"","","","","","","","","","","","","","","","","","","","",""
"","","","","","","","","","","","","","","","","","","","",""
"","","","","","","","","","","","","","","","","","","","",""
"","","","","","","","","","","","","","","","","","","","",""
"","","","","","","","","","","","","","","","","","","","",""
"","","","","","","","","","","","","","","","","","","","",""
"","","","","","","","","","","","","","","","","","","","",""
"","","","","","","","","","","","","","","","","","","","",""
"","","","","","","","","","","","","","","","","","","","",""
"","","","","","","","","","","","","","","","","","","","",""
"","","","","","","","","","","","","","","","","","","","",""
"","","","","","","","","","","","","","","","","","","","",""
"","","","","","","","","","","","","","","","","","","","",""
"","","","","","","","","","","","","","","","","","","","",""
"","","","","","","","","","","","","","","","","","","","",""
"","","","","","","","","","","","","","","","","","","","",""
"","","","","","","","","","","","","","","","","","","","",""
"","","","","","","","","","","","","","","","","","","","",""
"","","","","","","","","","","","","","","","","","","","",""
"","","","","","","","","","","","","","","","","","","","",""
"","","","","","","","","","","","","","","","","","","","",""
"","","","","","","","","","","","","","","","","","","","",""
"","","","","","","","","","","","","","","","","","","","",""
"","","","","","","","","","","","","","","","","","","","",""
"","","","","","","","","","","","","","","","","","","","",""
"","","","","","","","","","","","","","","","","","","","",""
"","","","","","","","","","","","","","","","","","","","",""
"","","","","","","","","","","","","","","","","","","","",""
"","","","","","","","","","","","","","","","","","","","",""
"","","","","","","","","","","","","","","","","","","","",""
"","","","","","","","","","","","","","","","","","","","",""
"","","","","","","","","","","","","","","","","","","","",""
"","","","","","","","","","","","","","","","","","","","",""
"","","","","","","","","","","","","","","","","","","","",""
"","","","","","","","","","","","","","","","","","","","",""
"","","","","","","","","","","","","","","","","","","","",""
"","","","","","","","","","","","","","","","","","","","",""
"","","","","","","","","","","","","","","","","","","","",""
"","","","","","","","","","","","","","","","","","","","",""
"","","","","","","","","","","","","","","","","","","","",""
"","","","","","","","","","","","","","","","","","","","",""
"","","","","","","","","","","","","","","","","","","","",""
"","","","","","","","","","","","","","","","","","","","",""
"","","","","","","","","","","","","","","","","","","","",""
"","","","","","","","","","","","","","","","","","","","",""
"","","","","","","","","","","","","","","","","","","","",""
"","","","","","","","","","","","","","","","","","","","",""
"","","","","","","","","","","","","","","","","","","","",""
"","","","","","","","","","","","","","","","","","","","",""
"","","","","","","","","","","","","","","","","","","","",""
"","","","","","","","","","","","","","","","","","","","",""
"","","","","","","","","","","","","","","","","","","","",""
"","","","","","","","","","","","","","","","","","","","",""
"","","","","","","","","","","","","","","","","","","","",""
"","","","","","","","","","","","","","","","","","","","",""
"","","","","","","","","","","","","","","","","","","","",""
"","","","","","","","","","","","","","","","","","","","",""
"","","","","","","","","","","","","","","","","","","","",""
"","","","","","","","","","","","","","","","","","","","",""
"","","","","","","","","","","","","","","","","","","","",""
"","","","","","","","","","","","","","","","","","","","",""
"","","","","","","","","","","","","","","","","","","","",""
"","","","","","","","","","","","","","","","","","","","",""
"","","","","","","","","","","","","","","","","","","","",""
"","","","","","","","","","","","","","","","","","","","",""
"","","","","","","","","","","","","","","","","","","","",""
"","","","","","","","","","","","","","","","","","","","",""
"","","","","","","","","","","","","","","","","","","","",""
"","","","","","","","","","","","","","","","","","","","",""
"","","","","","","","","","","","","","","","","","","","",""
"","","","","","","","","","","","","","","","","","","","",""
"","","","","","","","","","","","","","","","","","","","",""
"","","","","","","","","","","","","","","","","","","","",""
"","","","","","","","","","","","","","","","","","","","",""
"","","","","","","","","","","","","","","","","","","","",""
"","","","","","","","","","","","","","","","","","","","",""
"","","","","","","","","","","","","","","","","","","","",""
"","","","","","","","","","","","","","","","","","","","",""
"","","","","","","","","","","","","","","","","","","","",""
