"","Third Party (Company)","","","Associated Persons","","","","","","","","","","","","","","","",""
"Type (O Organisation or A Associated Individual)"," Subject Organisation Full Entity Name","Country of Registration","First Name of  Associated Individual","Last Name of  Associated Individual","Country of Residence","","","","","","","","","","","","","","","List of type"
"O","SENG KIM ENGINEERING CO.","Singapore","","","","","","","","","","","","","","","","","",""
"O","SOON KIANG MENG","Singapore","","","","","","","","","","","","","","","","","",""
"O","SKM (SINGAPORE) PTE LTD","Singapore","","","","","","","","","","","","","","","","","",""
"O","SHING KWAN REALTY (PTE) LTD","Singapore","","","","","","","","","","","","","","","","","",""
"O","SUNTEL LIMITED","Sri Lanka","","","","","","","","","","","","","","","","","",""
"O","SIEMENS LIMITED","India","","","","","","","","","","","","","","","","","",""
"O","Super Leo Cleaning Services","Singapore","","","","","","","","","","","","","","","","","",""
"O","Sin Leong Sieng Hardware & Machinery P/L","Singapore","","","","","","","","","","","","","","","","","",""
"O","SOON LEE HEAVY MACHINERY SERVICES","Brunei","","","","","","","","","","","","","","","","","",""
"O","Sea-Linkers Pvt Ltd","India","","","","","","","","","","","","","","","","","",""
"O","Sri Lanka Shipping Co. Ltd.","Sri Lanka","","","","","","","","","","","","","","","","","",""
"O","SRI LANKA TELECOM","Sri Lanka","","","","","","","","","","","","","","","","","",""
"O","Sea and Land Technologies Pte Ltd","Singapore","","","","","","","","","","","","","","","","","",""
"O","PT SANTOMIC MITRA BERSAMA","Indonesia","","","","","","","","","","","","","","","","","",""
"O","SMC MACHINERY PTE LTD","Singapore","","","","","","","","","","","","","","","","","",""
"O","SAMARASINGHE METEL CRUSHER","Sri Lanka","","","","","","","","","","","","","","","","","",""
"O","Merchant Court Pte Ltd","Singapore","","","","","","","","","","","","","","","","","",""
"O","SETIA MECH ENGINEERING SDN BHD","Malaysia","","","","","","","","","","","","","","","","","",""
"O","SMC MARINE SERVICES PTE LTD","Singapore","","","","","","","","","","","","","","","","","",""
"O","SCAFFOLD MASTER PTE LTD","Singapore","","","","","","","","","","","","","","","","","",""
"O","SM MOTOR PTE LTD","Singapore","","","","","","","","","","","","","","","","","",""
"O","SAFJET MARKETING SDN BHD","Malaysia","","","","","","","","","","","","","","","","","",""
"O","SMS CONSULTANCY PTE LTD","Singapore","","","","","","","","","","","","","","","","","",""
"O","RGS REPROGRAPHIC SOLUTIONS PTE LTD (previously known as Servicepoint)","Singapore","","","","","","","","","","","","","","","","","",""
"O","SRIBIMA MARITIME TRAINING CENTRE SDN BHD","Malaysia","","","","","","","","","","","","","","","","","",""
"O","SINGAPORE NETWORK INFORMATION CENTRE (SGNIC)","Singapore","","","","","","","","","","","","","","","","","",""
"O","SEA N LAND SURVEY ENGINEERS","Sri Lanka","","","","","","","","","","","","","","","","","",""
"O","Star 9 Mobilindo","Indonesia","","","","","","","","","","","","","","","","","",""
"O","SENBIN NOMINEES","Australia","","","","","","","","","","","","","","","","","",""
"O","SINGAPORE OXYGEN AIR LIQUIDE PTE LTD","Singapore","","","","","","","","","","","","","","","","","",""
"O","Space Deco","Singapore","","","","","","","","","","","","","","","","","",""
"O","Sarathchandra Paint and  hardware Stores","Sri Lanka","","","","","","","","","","","","","","","","","",""
"O","SPENCER SCOTT HILTON FZ-LLC","Singapore","","","","","","","","","","","","","","","","","",""
"O","SCAN PRODUCTS HOLDING CO. LTD","Sri Lanka","","","","","","","","","","","","","","","","","",""
"O","SINGAPORE PRESS HOLDINGS LIMITED","Singapore","","","","","","","","","","","","","","","","","",""
"O","SURVEYTECH PTE LTD","Singapore","","","","","","","","","","","","","","","","","",""
"O","SEMBWASTE PTE LTD","Singapore","","","","","","","","","","","","","","","","","",""
"O","Singalab Pte Ltd","Singapore","","","","","","","","","","","","","","","","","",""
"O","SUPERMEC PRIVATE LIMITED","Singapore","","","","","","","","","","","","","","","","","",""
"O","SP SERVICES LTD","Singapore","","","","","","","","","","","","","","","","","",""
"O","SOIL & ROCK ENGINEERING","Malaysia","","","","","","","","","","","","","","","","","",""
"O","SECRETARIES & REGISTRARS LIMITED","Sri Lanka","","","","","","","","","","","","","","","","","",""
"O","Sungei Rengit Sdn Bhd","Malaysia","","","","","","","","","","","","","","","","","",""
"O","PT. Samudra Rasaki Teknindo","Indonesia","","","","","","","","","","","","","","","","","",""
"O","Super Sunrise Sdn Bhd","Malaysia","","","","","","","","","","","","","","","","","",""
"O","SING SWEE BEE INDUSTRIAL PTE LTD","Singapore","","","","","","","","","","","","","","","","","",""
"O","Somerset Seri Bukit Ceylon Kuala Lumpur","Malaysia","","","","","","","","","","","","","","","","","",""
"O","SEASCAPE","Netherlands","","","","","","","","","","","","","","","","","",""
"O","STAR STEEL & EQUIPMENT FZE","United Arab Emirates","","","","","","","","","","","","","","","","","",""
"O","SIN SENG HUAT INTERNATIONAL PTE LTD","Singapore","","","","","","","","","","","","","","","","","",""
"O","SSH CORPORATION LTD SINGAPORE","Singapore","","","","","","","","","","","","","","","","","",""
"O","Safety Shield Industrial Supplies","Malaysia","","","","","","","","","","","","","","","","","",""
"O","SEVEN SEAS SHIPCHANDLERS LLC","United Arab Emirates","","","","","","","","","","","","","","","","","",""
"O","SYSTEMAIR (SEA) PTE LTD","Singapore","","","","","","","","","","","","","","","","","",""
"O","SINGLE SOURCE MATERIALS SOLUTIONS BV","Netherlands","","","","","","","","","","","","","","","","","",""
"O","SCHENKER SINGAPORE (PTE) LTD","Singapore","","","","","","","","","","","","","","","","","",""
"O","SETSCO SERVICES PTE LTD","Singapore","","","","","","","","","","","","","","","","","",""
"O","SPECIALIST STATIONERY PTE LTD","Singapore","","","","","","","","","","","","","","","","","",""
"O","SPIRAX SARCO PTE LTD","Singapore","","","","","","","","","","","","","","","","","",""
"O","SWIFT SURVEY PTE LTD","Singapore","","","","","","","","","","","","","","","","","",""
"O","Seven Star Packing Services Sdn Bhd","Malaysia","","","","","","","","","","","","","","","","","",""
"O","SSR ENGINEERING PTE LTD","Singapore","","","","","","","","","","","","","","","","","",""
"O","SEAHORSE SHIP SUPPLIERS (PVT) LTD","Sri Lanka","","","","","","","","","","","","","","","","","",""
"O","Sadrajeya Support Services Sdn Bhd","Malaysia","","","","","","","","","","","","","","","","","",""
"O","SYSTEMATIC SAFETY SERVICES","Singapore","","","","","","","","","","","","","","","","","",""
"O","SYSTEMATIC SAFETY SERVICES PTE LTD","Singapore","","","","","","","","","","","","","","","","","",""
"O","ANTHONY GERARD HARVEY ","Singapore","","","","","","","","","","","","","","","","","",""
"O","NORDIANA BINTE AMRAN","Singapore","","","","","","","","","","","","","","","","","",""
"O","Sathiya d/o Prakalathan","Singapore","","","","","","","","","","","","","","","","","",""
"O","Sheilane Torres Arellano","Singapore","","","","","","","","","","","","","","","","","",""
"O","Salters Boats","Australia","","","","","","","","","","","","","","","","","",""
"O","SENOK TRADE COMBINE LIMITED","Sri Lanka","","","","","","","","","","","","","","","","","",""
"O","Sritama Jetty Sdn Bhd","Malaysia","","","","","","","","","","","","","","","","","",""
"O","SINGTEL","Singapore","","","","","","","","","","","","","","","","","",""
"O","SAFE2TRAVEL PTE LTD","Singapore","","","","","","","","","","","","","","","","","",""
"O","SOLIDCAD TECHNOLOGIES PTE LTD","Singapore","","","","","","","","","","","","","","","","","",""
"O","STRAINSTALL MIDDLE EAST LLC","United Arab Emirates","","","","","","","","","","","","","","","","","",""
"O","SINGAPORE TEST SERVICES PTE LTD","Singapore","","","","","","","","","","","","","","","","","",""
"O","Safetech Supply Pte Ltd","Singapore","","","","","","","","","","","","","","","","","",""
"O","SEE TOW SOO LING","Singapore","","","","","","","","","","","","","","","","","",""
"O","Sealico Trading Pte Ltd","Singapore","","","","","","","","","","","","","","","","","",""
"O","STUDIO-8","Singapore","","","","","","","","","","","","","","","","","",""
"O","SUPERLUCK PROPERTIES PTE LTD","Singapore","","","","","","","","","","","","","","","","","",""
"O","Shree Venkatesh Engineering Works","India","","","","","","","","","","","","","","","","","",""
"O","Scott Vickers Pte. Ltd.","Singapore","","","","","","","","","","","","","","","","","",""
"O","SWG OPERATIONS PTE LTD","Australia","","","","","","","","","","","","","","","","","",""
"O","Software One Pte Ltd","Singapore","","","","","","","","","","","","","","","","","",""
"O","SCOTT WILSON RAILWAYS","United Kingdom","","","","","","","","","","","","","","","","","",""
"O","STATIONERY WORLD (S) PTE LTD","Singapore","","","","","","","","","","","","","","","","","",""
"O","SEE YONG & SON CONSTRUCTION","Malaysia","","","","","","","","","","","","","","","","","",""
"O","Trans Asia Hotel","Sri Lanka","","","","","","","","","","","","","","","","","",""
"O","Taiyoh Office Supplies Sdn Bhd","Malaysia","","","","","","","","","","","","","","","","","",""
"O","TIME ACCESS INTERNATIONAL","Singapore","","","","","","","","","","","","","","","","","",""
"O","TAJ SAMUDRA","Sri Lanka","","","","","","","","","","","","","","","","","",""
"O","TOOLS & MACHINERY PARTS SUPPLIES S/B","Malaysia","","","","","","","","","","","","","","","","","",""
"O","THE ADVERTISE (PVT) LTD","Sri Lanka","","","","","","","","","","","","","","","","","",""
"O","TABUNG AMANAH PEKERJA","Brunei","","","","","","","","","","","","","","","","","",""
"O","TRANS-ASIA PIPELINE SERVICES FZE","United Arab Emirates","","","","","","","","","","","","","","","","","",""
"O","PT TJOKRO BERSAUDARA BATAMINDO","Indonesia","","","","","","","","","","","","","","","","","",""
"O","THE BUSINESS CENTRE","Sri Lanka","","","","","","","","","","","","","","","","","",""
"O","Confluence Project Management Pte Ltd","Singapore","","","","","","","","","","","","","","","","","",""
"O","TBH GLOBAL SERVICES PTE LTD","Singapore","","","","","","","","","","","","","","","","","",""
"O","TIMES BUSINESS INFORMATION PTE LTD","Singapore","","","","","","","","","","","","","","","","","",""
"O","TBH INDUSTRIAL & MARINE PTE LTD","Singapore","","","","","","","","","","","","","","","","","",""
"O","TAN BAN YAU MACHINERY PTE LTD","Singapore","","","","","","","","","","","","","","","","","",""
"O","THOMSON CATERING & ENGINEERING PTE LTD","Singapore","","","","","","","","","","","","","","","","","",""
"O","TRANSERVE CABINS PTE LTD","Singapore","","","","","","","","","","","","","","","","","",""
"O","TESTING & CERTIFICATION PTE LTD","Singapore","","","","","","","","","","","","","","","","","",""
"O","TCS System","Malaysia","","","","","","","","","","","","","","","","","",""
"O","T S LEE CIVIL STRUCTURAL ASSOCIATES","Singapore","","","","","","","","","","","","","","","","","",""
"O","TEAMBUILD ENGINEERING & CONSTRUCTION PTE LTD","Singapore","","","","","","","","","","","","","","","","","",""
"O","Thinu engineering Enterprises","Sri Lanka","","","","","","","","","","","","","","","","","",""
"O","TENGAH ENGINEERING & HARDWARE PTE LTD","Singapore","","","","","","","","","","","","","","","","","",""
"O","TEO EE HUAT","Singapore","","","","","","","","","","","","","","","","","",""
"O","TECHNOMAK MARNE SERVICE & ENG. LLC","United Arab Emirates","","","","","","","","","","","","","","","","","",""
"O","Thilina Enterprises Pvt Ltd","Sri Lanka","","","","","","","","","","","","","","","","","",""
"O","TENDA EQUIPMENT & SERVICES PTE LTD","Singapore","","","","","","","","","","","","","","","","","",""
"O","TYCO EARTH TECH (THAILAND) LTD","Thailand","","","","","","","","","","","","","","","","","",""
"O","TRANSWORLD FREIGHT & LOGISTICS PTE LTD","Singapore","","","","","","","","","","","","","","","","","",""
"O","Techno Forms (Pvt) Ltd","Sri Lanka","","","","","","","","","","","","","","","","","",""
"O","Thomson Furniture Square Sdn BHd","Brunei","","","","","","","","","","","","","","","","","",""
"O","T.G AIRCON ENGINEERING PTE LTD","Singapore","","","","","","","","","","","","","","","","","",""
"O","TAN GEOK ENG IVY","Singapore","","","","","","","","","","","","","","","","","",""
"O","Toll Global Express (Singapore) Pte. Ltd","Singapore","","","","","","","","","","","","","","","","","",""
"O","TG MARINE SERVICES PTE LTD","Singapore","","","","","","","","","","","","","","","","","",""
"O","Trans Global Projects Ltd","United Kingdom","","","","","","","","","","","","","","","","","",""
"O","Tony Gee and Partners (Asia) Ltd","Hong Kong","","","","","","","","","","","","","","","","","",""
"O","TECH HARD BUILDING MATERIALS LLC","United Arab Emirates","","","","","","","","","","","","","","","","","",""
"O","THE SCARLET HOTEL PTE LTD","Singapore","","","","","","","","","","","","","","","","","",""
"O","THE EVENT COMPANY STAGING CONNECTIONS PTE LTD","Singapore","","","","","","","","","","","","","","","","","",""
"O","THE CHARTERED INSTITUTE OF BUILDING","Singapore","","","","","","","","","","","","","","","","","",""
"O","THE EXECUTIVE CENTRE SINGAPORE PTE LTD","Singapore","","","","","","","","","","","","","","","","","",""
"O","THE ROADMASTER COURIER","Singapore","","","","","","","","","","","","","","","","","",""
"O","TAT HONG HEAVYEQUIPMENT PTE LTD","Singapore","","","","","","","","","","","","","","","","","",""
"O","TAT HONG MACHINERY PTE LTD","Singapore","","","","","","","","","","","","","","","","","",""
"O","Tat Hong Plant Hire Sdn Bhd","Malaysia","","","","","","","","","","","","","","","","","",""
"O","TAT HONG PLANT LEASING PTE LTD","Singapore","","","","","","","","","","","","","","","","","",""
"O","THE HOLIDAYS SHOP LLC","United Arab Emirates","","","","","","","","","","","","","","","","","",""
"O","TOKO International Bearing","Indonesia","","","","","","","","","","","","","","","","","",""
"O","TECHNICAL INSPECTION BUREAU (TIB)","United Arab Emirates","","","","","","","","","","","","","","","","","",""
"O","THE INTEROCEAN MARITIME ENTERPRISES (PVT)LTD","Sri Lanka","","","","","","","","","","","","","","","","","",""
"O","Teo Jing Jing Priscilla","Singapore","","","","","","","","","","","","","","","","","",""
"","","","","","","","","","","","","","","","","","","","",""
"","","","","","","","","","","","","","","","","","","","",""
"","","","","","","","","","","","","","","","","","","","",""
"","","","","","","","","","","","","","","","","","","","",""
"","","","","","","","","","","","","","","","","","","","",""
"","","","","","","","","","","","","","","","","","","","",""
"","","","","","","","","","","","","","","","","","","","",""
"","","","","","","","","","","","","","","","","","","","",""
"","","","","","","","","","","","","","","","","","","","",""
"","","","","","","","","","","","","","","","","","","","",""
"","","","","","","","","","","","","","","","","","","","",""
"","","","","","","","","","","","","","","","","","","","",""
"","","","","","","","","","","","","","","","","","","","",""
"","","","","","","","","","","","","","","","","","","","",""
"","","","","","","","","","","","","","","","","","","","",""
"","","","","","","","","","","","","","","","","","","","",""
"","","","","","","","","","","","","","","","","","","","",""
"","","","","","","","","","","","","","","","","","","","",""
"","","","","","","","","","","","","","","","","","","","",""
"","","","","","","","","","","","","","","","","","","","",""
"","","","","","","","","","","","","","","","","","","","",""
"","","","","","","","","","","","","","","","","","","","",""
"","","","","","","","","","","","","","","","","","","","",""
"","","","","","","","","","","","","","","","","","","","",""
"","","","","","","","","","","","","","","","","","","","",""
"","","","","","","","","","","","","","","","","","","","",""
"","","","","","","","","","","","","","","","","","","","",""
"","","","","","","","","","","","","","","","","","","","",""
"","","","","","","","","","","","","","","","","","","","",""
"","","","","","","","","","","","","","","","","","","","",""
"","","","","","","","","","","","","","","","","","","","",""
"","","","","","","","","","","","","","","","","","","","",""
"","","","","","","","","","","","","","","","","","","","",""
"","","","","","","","","","","","","","","","","","","","",""
"","","","","","","","","","","","","","","","","","","","",""
"","","","","","","","","","","","","","","","","","","","",""
"","","","","","","","","","","","","","","","","","","","",""
"","","","","","","","","","","","","","","","","","","","",""
"","","","","","","","","","","","","","","","","","","","",""
"","","","","","","","","","","","","","","","","","","","",""
"","","","","","","","","","","","","","","","","","","","",""
"","","","","","","","","","","","","","","","","","","","",""
"","","","","","","","","","","","","","","","","","","","",""
"","","","","","","","","","","","","","","","","","","","",""
"","","","","","","","","","","","","","","","","","","","",""
"","","","","","","","","","","","","","","","","","","","",""
"","","","","","","","","","","","","","","","","","","","",""
"","","","","","","","","","","","","","","","","","","","",""
"","","","","","","","","","","","","","","","","","","","",""
"","","","","","","","","","","","","","","","","","","","",""
"","","","","","","","","","","","","","","","","","","","",""
"","","","","","","","","","","","","","","","","","","","",""
"","","","","","","","","","","","","","","","","","","","",""
"","","","","","","","","","","","","","","","","","","","",""
"","","","","","","","","","","","","","","","","","","","",""
"","","","","","","","","","","","","","","","","","","","",""
"","","","","","","","","","","","","","","","","","","","",""
"","","","","","","","","","","","","","","","","","","","",""
"","","","","","","","","","","","","","","","","","","","",""
"","","","","","","","","","","","","","","","","","","","",""
"","","","","","","","","","","","","","","","","","","","",""
"","","","","","","","","","","","","","","","","","","","",""
"","","","","","","","","","","","","","","","","","","","",""
"","","","","","","","","","","","","","","","","","","","",""
"","","","","","","","","","","","","","","","","","","","",""
"","","","","","","","","","","","","","","","","","","","",""
"","","","","","","","","","","","","","","","","","","","",""
"","","","","","","","","","","","","","","","","","","","",""
"","","","","","","","","","","","","","","","","","","","",""
"","","","","","","","","","","","","","","","","","","","",""
"","","","","","","","","","","","","","","","","","","","",""
"","","","","","","","","","","","","","","","","","","","",""
"","","","","","","","","","","","","","","","","","","","",""
"","","","","","","","","","","","","","","","","","","","",""
"","","","","","","","","","","","","","","","","","","","",""
"","","","","","","","","","","","","","","","","","","","",""
"","","","","","","","","","","","","","","","","","","","",""
"","","","","","","","","","","","","","","","","","","","",""
"","","","","","","","","","","","","","","","","","","","",""
"","","","","","","","","","","","","","","","","","","","",""
"","","","","","","","","","","","","","","","","","","","",""
"","","","","","","","","","","","","","","","","","","","",""
"","","","","","","","","","","","","","","","","","","","",""
"","","","","","","","","","","","","","","","","","","","",""
"","","","","","","","","","","","","","","","","","","","",""
"","","","","","","","","","","","","","","","","","","","",""
"","","","","","","","","","","","","","","","","","","","",""
"","","","","","","","","","","","","","","","","","","","",""
"","","","","","","","","","","","","","","","","","","","",""
"","","","","","","","","","","","","","","","","","","","",""
"","","","","","","","","","","","","","","","","","","","",""
"","","","","","","","","","","","","","","","","","","","",""
"","","","","","","","","","","","","","","","","","","","",""
"","","","","","","","","","","","","","","","","","","","",""
"","","","","","","","","","","","","","","","","","","","",""
"","","","","","","","","","","","","","","","","","","","",""
"","","","","","","","","","","","","","","","","","","","",""
"","","","","","","","","","","","","","","","","","","","",""
"","","","","","","","","","","","","","","","","","","","",""
"","","","","","","","","","","","","","","","","","","","",""
"","","","","","","","","","","","","","","","","","","","",""
"","","","","","","","","","","","","","","","","","","","",""
"","","","","","","","","","","","","","","","","","","","",""
"","","","","","","","","","","","","","","","","","","","",""
"","","","","","","","","","","","","","","","","","","","",""
"","","","","","","","","","","","","","","","","","","","",""
"","","","","","","","","","","","","","","","","","","","",""
"","","","","","","","","","","","","","","","","","","","",""
"","","","","","","","","","","","","","","","","","","","",""
"","","","","","","","","","","","","","","","","","","","",""
"","","","","","","","","","","","","","","","","","","","",""
"","","","","","","","","","","","","","","","","","","","",""
"","","","","","","","","","","","","","","","","","","","",""
"","","","","","","","","","","","","","","","","","","","",""
"","","","","","","","","","","","","","","","","","","","",""
"","","","","","","","","","","","","","","","","","","","",""
"","","","","","","","","","","","","","","","","","","","",""
"","","","","","","","","","","","","","","","","","","","",""
"","","","","","","","","","","","","","","","","","","","",""
"","","","","","","","","","","","","","","","","","","","",""
"","","","","","","","","","","","","","","","","","","","",""
"","","","","","","","","","","","","","","","","","","","",""
"","","","","","","","","","","","","","","","","","","","",""
"","","","","","","","","","","","","","","","","","","","",""
"","","","","","","","","","","","","","","","","","","","",""
"","","","","","","","","","","","","","","","","","","","",""
"","","","","","","","","","","","","","","","","","","","",""
"","","","","","","","","","","","","","","","","","","","",""
"","","","","","","","","","","","","","","","","","","","",""
"","","","","","","","","","","","","","","","","","","","",""
"","","","","","","","","","","","","","","","","","","","",""
"","","","","","","","","","","","","","","","","","","","",""
"","","","","","","","","","","","","","","","","","","","",""
"","","","","","","","","","","","","","","","","","","","",""
"","","","","","","","","","","","","","","","","","","","",""
"","","","","","","","","","","","","","","","","","","","",""
"","","","","","","","","","","","","","","","","","","","",""
"","","","","","","","","","","","","","","","","","","","",""
"","","","","","","","","","","","","","","","","","","","",""
"","","","","","","","","","","","","","","","","","","","",""
"","","","","","","","","","","","","","","","","","","","",""
"","","","","","","","","","","","","","","","","","","","",""
"","","","","","","","","","","","","","","","","","","","",""
"","","","","","","","","","","","","","","","","","","","",""
"","","","","","","","","","","","","","","","","","","","",""
"","","","","","","","","","","","","","","","","","","","",""
"","","","","","","","","","","","","","","","","","","","",""
"","","","","","","","","","","","","","","","","","","","",""
"","","","","","","","","","","","","","","","","","","","",""
"","","","","","","","","","","","","","","","","","","","",""
"","","","","","","","","","","","","","","","","","","","",""
"","","","","","","","","","","","","","","","","","","","",""
"","","","","","","","","","","","","","","","","","","","",""
"","","","","","","","","","","","","","","","","","","","",""
"","","","","","","","","","","","","","","","","","","","",""
"","","","","","","","","","","","","","","","","","","","",""
"","","","","","","","","","","","","","","","","","","","",""
"","","","","","","","","","","","","","","","","","","","",""
"","","","","","","","","","","","","","","","","","","","",""
"","","","","","","","","","","","","","","","","","","","",""
"","","","","","","","","","","","","","","","","","","","",""
"","","","","","","","","","","","","","","","","","","","",""
"","","","","","","","","","","","","","","","","","","","",""
"","","","","","","","","","","","","","","","","","","","",""
"","","","","","","","","","","","","","","","","","","","",""
"","","","","","","","","","","","","","","","","","","","",""
"","","","","","","","","","","","","","","","","","","","",""
"","","","","","","","","","","","","","","","","","","","",""
"","","","","","","","","","","","","","","","","","","","",""
"","","","","","","","","","","","","","","","","","","","",""
"","","","","","","","","","","","","","","","","","","","",""
"","","","","","","","","","","","","","","","","","","","",""
"","","","","","","","","","","","","","","","","","","","",""
"","","","","","","","","","","","","","","","","","","","",""
"","","","","","","","","","","","","","","","","","","","",""
"","","","","","","","","","","","","","","","","","","","",""
"","","","","","","","","","","","","","","","","","","","",""
"","","","","","","","","","","","","","","","","","","","",""
"","","","","","","","","","","","","","","","","","","","",""
"","","","","","","","","","","","","","","","","","","","",""
"","","","","","","","","","","","","","","","","","","","",""
"","","","","","","","","","","","","","","","","","","","",""
"","","","","","","","","","","","","","","","","","","","",""
"","","","","","","","","","","","","","","","","","","","",""
"","","","","","","","","","","","","","","","","","","","",""
"","","","","","","","","","","","","","","","","","","","",""
"","","","","","","","","","","","","","","","","","","","",""
"","","","","","","","","","","","","","","","","","","","",""
"","","","","","","","","","","","","","","","","","","","",""
"","","","","","","","","","","","","","","","","","","","",""
"","","","","","","","","","","","","","","","","","","","",""
"","","","","","","","","","","","","","","","","","","","",""
"","","","","","","","","","","","","","","","","","","","",""
"","","","","","","","","","","","","","","","","","","","",""
"","","","","","","","","","","","","","","","","","","","",""
"","","","","","","","","","","","","","","","","","","","",""
"","","","","","","","","","","","","","","","","","","","",""
"","","","","","","","","","","","","","","","","","","","",""
"","","","","","","","","","","","","","","","","","","","",""
"","","","","","","","","","","","","","","","","","","","",""
"","","","","","","","","","","","","","","","","","","","",""
"","","","","","","","","","","","","","","","","","","","",""
"","","","","","","","","","","","","","","","","","","","",""
"","","","","","","","","","","","","","","","","","","","",""
"","","","","","","","","","","","","","","","","","","","",""
"","","","","","","","","","","","","","","","","","","","",""
"","","","","","","","","","","","","","","","","","","","",""
"","","","","","","","","","","","","","","","","","","","",""
"","","","","","","","","","","","","","","","","","","","",""
"","","","","","","","","","","","","","","","","","","","",""
"","","","","","","","","","","","","","","","","","","","",""
"","","","","","","","","","","","","","","","","","","","",""
"","","","","","","","","","","","","","","","","","","","",""
"","","","","","","","","","","","","","","","","","","","",""
"","","","","","","","","","","","","","","","","","","","",""
"","","","","","","","","","","","","","","","","","","","",""
"","","","","","","","","","","","","","","","","","","","",""
"","","","","","","","","","","","","","","","","","","","",""
"","","","","","","","","","","","","","","","","","","","",""
"","","","","","","","","","","","","","","","","","","","",""
"","","","","","","","","","","","","","","","","","","","",""
"","","","","","","","","","","","","","","","","","","","",""
"","","","","","","","","","","","","","","","","","","","",""
"","","","","","","","","","","","","","","","","","","","",""
"","","","","","","","","","","","","","","","","","","","",""
"","","","","","","","","","","","","","","","","","","","",""
"","","","","","","","","","","","","","","","","","","","",""
"","","","","","","","","","","","","","","","","","","","",""
"","","","","","","","","","","","","","","","","","","","",""
"","","","","","","","","","","","","","","","","","","","",""
"","","","","","","","","","","","","","","","","","","","",""
"","","","","","","","","","","","","","","","","","","","",""
"","","","","","","","","","","","","","","","","","","","",""
"","","","","","","","","","","","","","","","","","","","",""
"","","","","","","","","","","","","","","","","","","","",""
"","","","","","","","","","","","","","","","","","","","",""
"","","","","","","","","","","","","","","","","","","","",""
"","","","","","","","","","","","","","","","","","","","",""
"","","","","","","","","","","","","","","","","","","","",""
"","","","","","","","","","","","","","","","","","","","",""
"","","","","","","","","","","","","","","","","","","","",""
"","","","","","","","","","","","","","","","","","","","",""
"","","","","","","","","","","","","","","","","","","","",""
"","","","","","","","","","","","","","","","","","","","",""
"","","","","","","","","","","","","","","","","","","","",""
"","","","","","","","","","","","","","","","","","","","",""
"","","","","","","","","","","","","","","","","","","","",""
"","","","","","","","","","","","","","","","","","","","",""
"","","","","","","","","","","","","","","","","","","","",""
"","","","","","","","","","","","","","","","","","","","",""
"","","","","","","","","","","","","","","","","","","","",""
"","","","","","","","","","","","","","","","","","","","",""
"","","","","","","","","","","","","","","","","","","","",""
"","","","","","","","","","","","","","","","","","","","",""
"","","","","","","","","","","","","","","","","","","","",""
"","","","","","","","","","","","","","","","","","","","",""
"","","","","","","","","","","","","","","","","","","","",""
"","","","","","","","","","","","","","","","","","","","",""
"","","","","","","","","","","","","","","","","","","","",""
"","","","","","","","","","","","","","","","","","","","",""
"","","","","","","","","","","","","","","","","","","","",""
"","","","","","","","","","","","","","","","","","","","",""
"","","","","","","","","","","","","","","","","","","","",""
"","","","","","","","","","","","","","","","","","","","",""
"","","","","","","","","","","","","","","","","","","","",""
"","","","","","","","","","","","","","","","","","","","",""
"","","","","","","","","","","","","","","","","","","","",""
"","","","","","","","","","","","","","","","","","","","",""
"","","","","","","","","","","","","","","","","","","","",""
"","","","","","","","","","","","","","","","","","","","",""
"","","","","","","","","","","","","","","","","","","","",""
"","","","","","","","","","","","","","","","","","","","",""
"","","","","","","","","","","","","","","","","","","","",""
"","","","","","","","","","","","","","","","","","","","",""
"","","","","","","","","","","","","","","","","","","","",""
"","","","","","","","","","","","","","","","","","","","",""
"","","","","","","","","","","","","","","","","","","","",""
"","","","","","","","","","","","","","","","","","","","",""
"","","","","","","","","","","","","","","","","","","","",""
"","","","","","","","","","","","","","","","","","","","",""
"","","","","","","","","","","","","","","","","","","","",""
"","","","","","","","","","","","","","","","","","","","",""
"","","","","","","","","","","","","","","","","","","","",""
"","","","","","","","","","","","","","","","","","","","",""
"","","","","","","","","","","","","","","","","","","","",""
"","","","","","","","","","","","","","","","","","","","",""
"","","","","","","","","","","","","","","","","","","","",""
"","","","","","","","","","","","","","","","","","","","",""
"","","","","","","","","","","","","","","","","","","","",""
"","","","","","","","","","","","","","","","","","","","",""
"","","","","","","","","","","","","","","","","","","","",""
"","","","","","","","","","","","","","","","","","","","",""
"","","","","","","","","","","","","","","","","","","","",""
"","","","","","","","","","","","","","","","","","","","",""
"","","","","","","","","","","","","","","","","","","","",""
"","","","","","","","","","","","","","","","","","","","",""
"","","","","","","","","","","","","","","","","","","","",""
"","","","","","","","","","","","","","","","","","","","",""
"","","","","","","","","","","","","","","","","","","","",""
"","","","","","","","","","","","","","","","","","","","",""
"","","","","","","","","","","","","","","","","","","","",""
"","","","","","","","","","","","","","","","","","","","",""
"","","","","","","","","","","","","","","","","","","","",""
"","","","","","","","","","","","","","","","","","","","",""
"","","","","","","","","","","","","","","","","","","","",""
"","","","","","","","","","","","","","","","","","","","",""
"","","","","","","","","","","","","","","","","","","","",""
"","","","","","","","","","","","","","","","","","","","",""
"","","","","","","","","","","","","","","","","","","","",""
"","","","","","","","","","","","","","","","","","","","",""
"","","","","","","","","","","","","","","","","","","","",""
"","","","","","","","","","","","","","","","","","","","",""
"","","","","","","","","","","","","","","","","","","","",""
"","","","","","","","","","","","","","","","","","","","",""
"","","","","","","","","","","","","","","","","","","","",""
"","","","","","","","","","","","","","","","","","","","",""
"","","","","","","","","","","","","","","","","","","","",""
"","","","","","","","","","","","","","","","","","","","",""
"","","","","","","","","","","","","","","","","","","","",""
"","","","","","","","","","","","","","","","","","","","",""
"","","","","","","","","","","","","","","","","","","","",""
"","","","","","","","","","","","","","","","","","","","",""
"","","","","","","","","","","","","","","","","","","","",""
"","","","","","","","","","","","","","","","","","","","",""
"","","","","","","","","","","","","","","","","","","","",""
"","","","","","","","","","","","","","","","","","","","",""
"","","","","","","","","","","","","","","","","","","","",""
"","","","","","","","","","","","","","","","","","","","",""
"","","","","","","","","","","","","","","","","","","","",""
"","","","","","","","","","","","","","","","","","","","",""
"","","","","","","","","","","","","","","","","","","","",""
"","","","","","","","","","","","","","","","","","","","",""
"","","","","","","","","","","","","","","","","","","","",""
"","","","","","","","","","","","","","","","","","","","",""
"","","","","","","","","","","","","","","","","","","","",""
"","","","","","","","","","","","","","","","","","","","",""
"","","","","","","","","","","","","","","","","","","","",""
"","","","","","","","","","","","","","","","","","","","",""
"","","","","","","","","","","","","","","","","","","","",""
"","","","","","","","","","","","","","","","","","","","",""
"","","","","","","","","","","","","","","","","","","","",""
"","","","","","","","","","","","","","","","","","","","",""
"","","","","","","","","","","","","","","","","","","","",""
"","","","","","","","","","","","","","","","","","","","",""
"","","","","","","","","","","","","","","","","","","","",""
"","","","","","","","","","","","","","","","","","","","",""
"","","","","","","","","","","","","","","","","","","","",""
"","","","","","","","","","","","","","","","","","","","",""
"","","","","","","","","","","","","","","","","","","","",""
"","","","","","","","","","","","","","","","","","","","",""
"","","","","","","","","","","","","","","","","","","","",""
"","","","","","","","","","","","","","","","","","","","",""
"","","","","","","","","","","","","","","","","","","","",""
"","","","","","","","","","","","","","","","","","","","",""
"","","","","","","","","","","","","","","","","","","","",""
"","","","","","","","","","","","","","","","","","","","",""
"","","","","","","","","","","","","","","","","","","","",""
"","","","","","","","","","","","","","","","","","","","",""
"","","","","","","","","","","","","","","","","","","","",""
"","","","","","","","","","","","","","","","","","","","",""
"","","","","","","","","","","","","","","","","","","","",""
"","","","","","","","","","","","","","","","","","","","",""
"","","","","","","","","","","","","","","","","","","","",""
"","","","","","","","","","","","","","","","","","","","",""
"","","","","","","","","","","","","","","","","","","","",""
"","","","","","","","","","","","","","","","","","","","",""
"","","","","","","","","","","","","","","","","","","","",""
"","","","","","","","","","","","","","","","","","","","",""
"","","","","","","","","","","","","","","","","","","","",""
"","","","","","","","","","","","","","","","","","","","",""
"","","","","","","","","","","","","","","","","","","","",""
"","","","","","","","","","","","","","","","","","","","",""
"","","","","","","","","","","","","","","","","","","","",""
"","","","","","","","","","","","","","","","","","","","",""
"","","","","","","","","","","","","","","","","","","","",""
"","","","","","","","","","","","","","","","","","","","",""
"","","","","","","","","","","","","","","","","","","","",""
"","","","","","","","","","","","","","","","","","","","",""
"","","","","","","","","","","","","","","","","","","","",""
"","","","","","","","","","","","","","","","","","","","",""
"","","","","","","","","","","","","","","","","","","","",""
"","","","","","","","","","","","","","","","","","","","",""
"","","","","","","","","","","","","","","","","","","","",""
"","","","","","","","","","","","","","","","","","","","",""
"","","","","","","","","","","","","","","","","","","","",""
"","","","","","","","","","","","","","","","","","","","",""
"","","","","","","","","","","","","","","","","","","","",""
"","","","","","","","","","","","","","","","","","","","",""
"","","","","","","","","","","","","","","","","","","","",""
"","","","","","","","","","","","","","","","","","","","",""
"","","","","","","","","","","","","","","","","","","","",""
"","","","","","","","","","","","","","","","","","","","",""
"","","","","","","","","","","","","","","","","","","","",""
"","","","","","","","","","","","","","","","","","","","",""
"","","","","","","","","","","","","","","","","","","","",""
"","","","","","","","","","","","","","","","","","","","",""
"","","","","","","","","","","","","","","","","","","","",""
"","","","","","","","","","","","","","","","","","","","",""
"","","","","","","","","","","","","","","","","","","","",""
"","","","","","","","","","","","","","","","","","","","",""
"","","","","","","","","","","","","","","","","","","","",""
"","","","","","","","","","","","","","","","","","","","",""
"","","","","","","","","","","","","","","","","","","","",""
"","","","","","","","","","","","","","","","","","","","",""
"","","","","","","","","","","","","","","","","","","","",""
"","","","","","","","","","","","","","","","","","","","",""
"","","","","","","","","","","","","","","","","","","","",""
"","","","","","","","","","","","","","","","","","","","",""
"","","","","","","","","","","","","","","","","","","","",""
"","","","","","","","","","","","","","","","","","","","",""
"","","","","","","","","","","","","","","","","","","","",""
"","","","","","","","","","","","","","","","","","","","",""
"","","","","","","","","","","","","","","","","","","","",""
"","","","","","","","","","","","","","","","","","","","",""
"","","","","","","","","","","","","","","","","","","","",""
"","","","","","","","","","","","","","","","","","","","",""
"","","","","","","","","","","","","","","","","","","","",""
"","","","","","","","","","","","","","","","","","","","",""
"","","","","","","","","","","","","","","","","","","","",""
