"","Third Party (Company)","","","Associated Persons","","","","","","","","","","","","","","","",""
"Type (O Organisation or A Associated Individual)"," Subject Organisation Full Entity Name","Country of Registration","First Name of  Associated Individual","Last Name of  Associated Individual","Country of Residence","","","","","","","","","","","","","","","List of type"
"O","TK GONDOLA (S) PTE LTD","Singapore","","","","","","","","","","","","","","","","","",""
"O","THE KANOO GROUP","United Arab Emirates","","","","","","","","","","","","","","","","","",""
"O","THAN LWIN","Singapore","","","","","","","","","","","","","","","","","",""
"O","TAPER-LOK CORP.","USA","","","","","","","","","","","","","","","","","",""
"O","TSMP LAW CORPORATION","Singapore","","","","","","","","","","","","","","","","","",""
"O","TRANS-LINK EXPRESS PTE LTD","Singapore","","","","","","","","","","","","","","","","","",""
"O","TAT LEE ENGINEERING PTE LTD","Singapore","","","","","","","","","","","","","","","","","",""
"O","TAH-LI ENGINEERING PTE LTD","Singapore","","","","","","","","","","","","","","","","","",""
"O","Tatlian Hardware Pte Ltd","Singapore","","","","","","","","","","","","","","","","","",""
"O","TANMAR COMMUNICATIONS, L.L.C.","USA","","","","","","","","","","","","","","","","","",""
"O","TMC CONCRETE PUMPING SERVICES PTE LTD","Singapore","","","","","","","","","","","","","","","","","",""
"O","TRANSIT-MIXED CONCRETE LTD","Singapore","","","","","","","","","","","","","","","","","",""
"O","Thilak Machinary & Equipment","Sri Lanka","","","","","","","","","","","","","","","","","",""
"O","TOWER MARK ENGINEERING LIMITED","Hong Kong","","","","","","","","","","","","","","","","","",""
"O","TRANSPO MOVERS (M) SDN BHD","Malaysia","","","","","","","","","","","","","","","","","",""
"O","TOTAL MARSERV","Romania","","","","","","","","","","","","","","","","","",""
"O","TEAM MOBILE SOLUTIONS","Sri Lanka","","","","","","","","","","","","","","","","","",""
"O","Team Marine Shipyard (M) Sdn Bhd","Malaysia","","","","","","","","","","","","","","","","","",""
"O","TECHNOMAK MARINE SERVICE & ENG. LLC","United Arab Emirates","","","","","","","","","","","","","","","","","",""
"O","T.NIRMALALINGAM","Sri Lanka","","","","","","","","","","","","","","","","","",""
"O","Tools & Machinery Parts (JB) Sdn Bhd","Malaysia","","","","","","","","","","","","","","","","","",""
"O","Thilna Enterprise Pvt Ltd","Sri Lanka","","","","","","","","","","","","","","","","","",""
"O","TNT EXPRESS WORLDWIDE (SINGAPORE) PTE LTD","Singapore","","","","","","","","","","","","","","","","","",""
"O","TOI TOI SERVICES SDN BHD","Malaysia","","","","","","","","","","","","","","","","","",""
"O","Tramp Oil & Marine","Singapore","","","","","","","","","","","","","","","","","",""
"O","Tramp Oil & Marine Ltd","United Kingdom","","","","","","","","","","","","","","","","","",""
"O","TOP-ONE MACHINERY CO., LTD","Taiwan","","","","","","","","","","","","","","","","","",""
"O","TUAS OFFICE PRODUCTS PTE LTD","Singapore","","","","","","","","","","","","","","","","","",""
"O","Teo Poh Hwa Caroline","Singapore","","","","","","","","","","","","","","","","","",""
"O","TAURUS CONTRACTORS PVT. LTD.","India","","","","","","","","","","","","","","","","","",""
"O","TAISON PTE LTD","Singapore","","","","","","","","","","","","","","","","","",""
"O","THE PTA OF THE TANGLIN TRUST SCHOOL","Singapore","","","","","","","","","","","","","","","","","",""
"O","3G Engineering Trading & Consultancy","Singapore","","","","","","","","","","","","","","","","","",""
"O","THE REAL ESTATE SPECIALIST","United Arab Emirates","","","","","","","","","","","","","","","","","",""
"O","PT Trisun Techniques Mandiri","Indonesia","","","","","","","","","","","","","","","","","",""
"O","THE RECTOR MOUNT CARMEL CHURCH","Sri Lanka","","","","","","","","","","","","","","","","","",""
"O","CV. TRANS WAHANA","Indonesia","","","","","","","","","","","","","","","","","",""
"O","Transoceanic Shipping Company Pte Ltd","Singapore","","","","","","","","","","","","","","","","","",""
"O","Tong Sim Marine & electric co","Singapore","","","","","","","","","","","","","","","","","",""
"O","TECHNILINK (S) PTE LTD","Singapore","","","","","","","","","","","","","","","","","",""
"O","T.S.SUBASINHA","Sri Lanka","","","","","","","","","","","","","","","","","",""
"O","Tudawe Trading Company Limited","Sri Lanka","","","","","","","","","","","","","","","","","",""
"O","Tyco Thermal Controls NV","Belgium","","","","","","","","","","","","","","","","","",""
"O","TEOH TEE HOOI & SHARIFA MIMI MOOSDEEN","Singapore","","","","","","","","","","","","","","","","","",""
"O","TTN MAINTENANCE SERVICE","Singapore","","","","","","","","","","","","","","","","","",""
"O","Tomas Technology Pte Ltd","Singapore","","","","","","","","","","","","","","","","","",""
"O","TURNER & TOWNSEND SINGAPORE PTE LTD","Singapore","","","","","","","","","","","","","","","","","",""
"O","Turner & Townsend Sdn Bhd","Malaysia","","","","","","","","","","","","","","","","","",""
"O","TANGLIN TRUST SCHOOL LTD","Singapore","","","","","","","","","","","","","","","","","",""
"O","Tunnelling and Underground Construction Society (Singapore)","Singapore","","","","","","","","","","","","","","","","","",""
"O","Tip Valve","China","","","","","","","","","","","","","","","","","",""
"O","TIONG WOON CRANE & TRANSPORT PTE LTD","Singapore","","","","","","","","","","","","","","","","","",""
"O","The West Group Pte Ltd","Singapore","","","","","","","","","","","","","","","","","",""
"O","Trans World Movers (Pte) Ltd.","Sri Lanka","","","","","","","","","","","","","","","","","",""
"O","TWO ROCKS SHIP CHANDLERS","Australia","","","","","","","","","","","","","","","","","",""
"O","UMW ADVANTECH SDN BHD","Malaysia","","","","","","","","","","","","","","","","","",""
"O","UNIMAX BUSINESS CENTRE PTE LTD","Singapore","","","","","","","","","","","","","","","","","",""
"O","PT. USAHA BARU JAYA","Indonesia","","","","","","","","","","","","","","","","","",""
"O","Uni-Bulk Offshore Services Pte Ltd","Singapore","","","","","","","","","","","","","","","","","",""
"O","U Bread U Coffee","Singapore","","","","","","","","","","","","","","","","","",""
"O","UNIMAX COPY CENTRE PTE LTD","Singapore","","","","","","","","","","","","","","","","","",""
"O","UNITED CEMENT PTE LTD","Singapore","","","","","","","","","","","","","","","","","",""
"O","Ultimate Circle Sdn Bhd","Malaysia","","","","","","","","","","","","","","","","","",""
"O","United Drawing Survey Equipment Sdn Bhd","Malaysia","","","","","","","","","","","","","","","","","",""
"O","UE-TRADETEC (S) PTE LTD","Singapore","","","","","","","","","","","","","","","","","",""
"O","Ulink Assist Pte Ltd","Singapore","","","","","","","","","","","","","","","","","",""
"O","Ulfat Corner Elect Rep & AC Mech","United Arab Emirates","","","","","","","","","","","","","","","","","",""
"O","PT. UNI-MARINE PACIFIC","Indonesia","","","","","","","","","","","","","","","","","",""
"O","UNAMIT MARKETING SDN BHD","Malaysia","","","","","","","","","","","","","","","","","",""
"O","UNITED NATIONS OFFICE FOR PROJECT SERVICE","Sri Lanka","","","","","","","","","","","","","","","","","",""
"O","Unu Automation Engineering","Singapore","","","","","","","","","","","","","","","","","",""
"O","UNITED OVERSEAS BANK LTD","Singapore","","","","","","","","","","","","","","","","","",""
"O","UNITED PARCEL SERVICE (S) PTE LTD","Singapore","","","","","","","","","","","","","","","","","",""
"O","THE ULTIMATE PRINTER WORKSHOP","Singapore","","","","","","","","","","","","","","","","","",""
"O","URBAN REDEVELOPMENT AUTHORITY","Singapore","","","","","","","","","","","","","","","","","",""
"O","UNAMIT RESOURCES","Singapore","","","","","","","","","","","","","","","","","",""
"O","ULTRA SUPPLIES","Singapore","","","","","","","","","","","","","","","","","",""
"O","UNITED STATIONERY COMPANY","Singapore","","","","","","","","","","","","","","","","","",""
"O","U.S.ENTERPRISES","Sri Lanka","","","","","","","","","","","","","","","","","",""
"O","United Star Engineering & Hardware Sdn Bhd","Malaysia","","","","","","","","","","","","","","","","","",""
"O","UNIQUE SYSTEM FZE","United Arab Emirates","","","","","","","","","","","","","","","","","",""
"O","UPSTREAM","Norway","","","","","","","","","","","","","","","","","",""
"O","UNITED TESTING CO PTE LTD","Singapore","","","","","","","","","","","","","","","","","",""
"O","United Tractor & Equipment Ltd","Sri Lanka","","","","","","","","","","","","","","","","","",""
"O","Unik-Wire Rope & Cables (S) Pte Ltd","Singapore","","","","","","","","","","","","","","","","","",""
"O","VAN OORD OFFSHORE","Romania","","","","","","","","","","","","","","","","","",""
"O","VCOM Heavy Engineers(Pvt)Ltd","Sri Lanka","","","","","","","","","","","","","","","","","",""
"O","V.C.RATNAYAKA","United Kingdom","","","","","","","","","","","","","","","","","",""
"O","VERGER ET DELPORTE UAE LTD","United Arab Emirates","","","","","","","","","","","","","","","","","",""
"O","VINCENT KOK CHI MENG","Singapore","","","","","","","","","","","","","","","","","",""
"O","VAN LEEUWEN PIPE AND TUBE (S) PTE LTD","Singapore","","","","","","","","","","","","","","","","","",""
"O","Valentine Marine (Gulf) LLC","United Arab Emirates","","","","","","","","","","","","","","","","","",""
"O","VENTURE MACHINERY MOVERS PTE LTD","Singapore","","","","","","","","","","","","","","","","","",""
"O","Vizcom Sdn Bhd","Malaysia","","","","","","","","","","","","","","","","","",""
"O","Viking Life Saving Equipment (Middle East)","Denmark","","","","","","","","","","","","","","","","","",""
"O","VIBRACO SERVICES (S0 PTE LTD","Singapore","","","","","","","","","","","","","","","","","",""
"O","V.V.KARUNARATNE & COMPANY","Sri Lanka","","","","","","","","","","","","","","","","","",""
"O","WINE CULTURE PTE LTD","Singapore","","","","","","","","","","","","","","","","","",""
"O","WATERMAC ENGINEERING PTE LTD","Singapore","","","","","","","","","","","","","","","","","",""
"O","WELMECH ENTERPRISES","India","","","","","","","","","","","","","","","","","",""
"O","GEA Westfalia Separator (SEA) Pte Ltd","Singapore","","","","","","","","","","","","","","","","","",""
"O","WORLD FUEL SERVICES","United Arab Emirates","","","","","","","","","","","","","","","","","",""
"O","WILHELMSEN SHIPS EQUIPMENT","Poland","","","","","","","","","","","","","","","","","",""
"O","Walson International Energy","Singapore","","","","","","","","","","","","","","","","","",""
"O","wijitha Stores","Sri Lanka","","","","","","","","","","","","","","","","","",""
"O","WINSHINE INVESTMENT PTE LTD","Singapore","","","","","","","","","","","","","","","","","",""
"O","WINDALE INTERNATIONAL PTE LTD","Singapore","","","","","","","","","","","","","","","","","",""
"O","WIDONO SALIM","Singapore","","","","","","","","","","","","","","","","","",""
"O","PT. WIDI JASA EKSPRESS","Indonesia","","","","","","","","","","","","","","","","","",""
"O","Wijepala Industries","Sri Lanka","","","","","","","","","","","","","","","","","",""
"O","WAN'S KEE YIP ENGINEERING & METAL WORKS LTD","Hong Kong","","","","","","","","","","","","","","","","","",""
"O","WITHARANAGE LEELAWATHIE","Sri Lanka","","","","","","","","","","","","","","","","","",""
"O","WENZEL LOGISTICS (M) SDN BHD","Malaysia","","","","","","","","","","","","","","","","","",""
"O","WELLCOME MOTOR AGENCIES","Singapore","","","","","","","","","","","","","","","","","",""
"O","WATER MART SYSTEMS (PRIVATE) LIMITED","Sri Lanka","","","","","","","","","","","","","","","","","",""
"O","WACKER MACHINERY SINGAPORE (PTE) LTD","Singapore","","","","","","","","","","","","","","","","","",""
"O","WILLIAMSON MARINE SERVICE LTD","Hong Kong","","","","","","","","","","","","","","","","","",""
"O","WAWASAN NAZZ HOLDINGS SDN BHD","Malaysia","","","","","","","","","","","","","","","","","",""
"O","WONG PARTNERSHIP","Singapore","","","","","","","","","","","","","","","","","",""
"O","WELDING PRODUCTS GROUP FZE","United Arab Emirates","","","","","","","","","","","","","","","","","",""
"O","WORLEY PTE LTD","Singapore","","","","","","","","","","","","","","","","","",""
"O","Wakili Pte Ltd","Singapore","","","","","","","","","","","","","","","","","",""
"O","WORLDWIDE PIPING PRODUCTS (M) SDN BHD","Malaysia","","","","","","","","","","","","","","","","","",""
"O","WONG SOON KENG","Singapore","","","","","","","","","","","","","","","","","",""
"O","WEBFORGE (SINGAPORE) PTE LTD","Singapore","","","","","","","","","","","","","","","","","",""
"O","WILHELM (SEA) PTE LTD","Singapore","","","","","","","","","","","","","","","","","",""
"O","WILSON TAYLOR ASIA PACIFIC PTE LTD","Singapore","","","","","","","","","","","","","","","","","",""
"O","Weldteck Sdn Bhd","Malaysia","","","","","","","","","","","","","","","","","",""
"O","WT Partnership (S) Pte Ltd","Singapore","","","","","","","","","","","","","","","","","",""
"O","PT World Wide Equipment South East Asia","Indonesia","","","","","","","","","","","","","","","","","",""
"O","XELL CHEMICALS","India","","","","","","","","","","","","","","","","","",""
"O","XEROX EMIRATES LLC","United Arab Emirates","","","","","","","","","","","","","","","","","",""
"O","XPRESS PRINT PTE LTD","Singapore","","","","","","","","","","","","","","","","","",""
"O","Y.D.N. RAJAPAKSE","Sri Lanka","","","","","","","","","","","","","","","","","",""
"O","YEOW HWA ENGINEERING PTE LTD","Singapore","","","","","","","","","","","","","","","","","",""
"O","YONG HENG LEE PROVISION","Singapore","","","","","","","","","","","","","","","","","",""
"O","YEOW KEE LOCKSMITH","Malaysia","","","","","","","","","","","","","","","","","",""
"O","YEE LOONG ENGINEERING SDN BHD","Malaysia","","","","","","","","","","","","","","","","","",""
"O","YEW LI WIRE MESH CONSTRACTOR PTE LTD","Singapore","","","","","","","","","","","","","","","","","",""
"O","Yentak Software Solutions","Malaysia","","","","","","","","","","","","","","","","","",""
"O","YAMUKNI TRANSPORT PTE LTD","Singapore","","","","","","","","","","","","","","","","","",""
"O","ZAKER TRADING LLC","United Arab Emirates","","","","","","","","","","","","","","","","","",""
"O","Z-Car Rental & Travel Service Pte Ltd","Singapore","","","","","","","","","","","","","","","","","",""
"O","ZHANG HUI BUILDING CONSTRUCTION (1999)","Singapore","","","","","","","","","","","","","","","","","",""
"O","ZIETSMAN LLOYD & HEMSTED (PTY) LTD","South Africa","","","","","","","","","","","","","","","","","",""
"O","ZAKHER MARINE INTERNATIONAL INC","United Arab Emirates","","","","","","","","","","","","","","","","","",""
"O","PT. ZinkPower Batam Indo","Indonesia","","","","","","","","","","","","","","","","","",""
"O","ZUHAL SHIPPING & LOGISTICS (L.L.C.)","United Arab Emirates","","","","","","","","","","","","","","","","","",""
"","","","","","","","","","","","","","","","","","","","",""
"","","","","","","","","","","","","","","","","","","","",""
"","","","","","","","","","","","","","","","","","","","",""
"","","","","","","","","","","","","","","","","","","","",""
"","","","","","","","","","","","","","","","","","","","",""
"","","","","","","","","","","","","","","","","","","","",""
"","","","","","","","","","","","","","","","","","","","",""
"","","","","","","","","","","","","","","","","","","","",""
"","","","","","","","","","","","","","","","","","","","",""
"","","","","","","","","","","","","","","","","","","","",""
"","","","","","","","","","","","","","","","","","","","",""
"","","","","","","","","","","","","","","","","","","","",""
"","","","","","","","","","","","","","","","","","","","",""
"","","","","","","","","","","","","","","","","","","","",""
"","","","","","","","","","","","","","","","","","","","",""
"","","","","","","","","","","","","","","","","","","","",""
"","","","","","","","","","","","","","","","","","","","",""
"","","","","","","","","","","","","","","","","","","","",""
"","","","","","","","","","","","","","","","","","","","",""
"","","","","","","","","","","","","","","","","","","","",""
"","","","","","","","","","","","","","","","","","","","",""
"","","","","","","","","","","","","","","","","","","","",""
"","","","","","","","","","","","","","","","","","","","",""
"","","","","","","","","","","","","","","","","","","","",""
"","","","","","","","","","","","","","","","","","","","",""
"","","","","","","","","","","","","","","","","","","","",""
"","","","","","","","","","","","","","","","","","","","",""
"","","","","","","","","","","","","","","","","","","","",""
"","","","","","","","","","","","","","","","","","","","",""
"","","","","","","","","","","","","","","","","","","","",""
"","","","","","","","","","","","","","","","","","","","",""
"","","","","","","","","","","","","","","","","","","","",""
"","","","","","","","","","","","","","","","","","","","",""
"","","","","","","","","","","","","","","","","","","","",""
"","","","","","","","","","","","","","","","","","","","",""
"","","","","","","","","","","","","","","","","","","","",""
"","","","","","","","","","","","","","","","","","","","",""
"","","","","","","","","","","","","","","","","","","","",""
"","","","","","","","","","","","","","","","","","","","",""
"","","","","","","","","","","","","","","","","","","","",""
"","","","","","","","","","","","","","","","","","","","",""
"","","","","","","","","","","","","","","","","","","","",""
"","","","","","","","","","","","","","","","","","","","",""
"","","","","","","","","","","","","","","","","","","","",""
"","","","","","","","","","","","","","","","","","","","",""
"","","","","","","","","","","","","","","","","","","","",""
"","","","","","","","","","","","","","","","","","","","",""
"","","","","","","","","","","","","","","","","","","","",""
"","","","","","","","","","","","","","","","","","","","",""
"","","","","","","","","","","","","","","","","","","","",""
"","","","","","","","","","","","","","","","","","","","",""
"","","","","","","","","","","","","","","","","","","","",""
"","","","","","","","","","","","","","","","","","","","",""
"","","","","","","","","","","","","","","","","","","","",""
"","","","","","","","","","","","","","","","","","","","",""
"","","","","","","","","","","","","","","","","","","","",""
"","","","","","","","","","","","","","","","","","","","",""
"","","","","","","","","","","","","","","","","","","","",""
"","","","","","","","","","","","","","","","","","","","",""
"","","","","","","","","","","","","","","","","","","","",""
"","","","","","","","","","","","","","","","","","","","",""
"","","","","","","","","","","","","","","","","","","","",""
"","","","","","","","","","","","","","","","","","","","",""
"","","","","","","","","","","","","","","","","","","","",""
"","","","","","","","","","","","","","","","","","","","",""
"","","","","","","","","","","","","","","","","","","","",""
"","","","","","","","","","","","","","","","","","","","",""
"","","","","","","","","","","","","","","","","","","","",""
"","","","","","","","","","","","","","","","","","","","",""
"","","","","","","","","","","","","","","","","","","","",""
"","","","","","","","","","","","","","","","","","","","",""
"","","","","","","","","","","","","","","","","","","","",""
"","","","","","","","","","","","","","","","","","","","",""
"","","","","","","","","","","","","","","","","","","","",""
"","","","","","","","","","","","","","","","","","","","",""
"","","","","","","","","","","","","","","","","","","","",""
"","","","","","","","","","","","","","","","","","","","",""
"","","","","","","","","","","","","","","","","","","","",""
"","","","","","","","","","","","","","","","","","","","",""
"","","","","","","","","","","","","","","","","","","","",""
"","","","","","","","","","","","","","","","","","","","",""
"","","","","","","","","","","","","","","","","","","","",""
"","","","","","","","","","","","","","","","","","","","",""
"","","","","","","","","","","","","","","","","","","","",""
"","","","","","","","","","","","","","","","","","","","",""
"","","","","","","","","","","","","","","","","","","","",""
"","","","","","","","","","","","","","","","","","","","",""
"","","","","","","","","","","","","","","","","","","","",""
"","","","","","","","","","","","","","","","","","","","",""
"","","","","","","","","","","","","","","","","","","","",""
"","","","","","","","","","","","","","","","","","","","",""
"","","","","","","","","","","","","","","","","","","","",""
"","","","","","","","","","","","","","","","","","","","",""
"","","","","","","","","","","","","","","","","","","","",""
"","","","","","","","","","","","","","","","","","","","",""
"","","","","","","","","","","","","","","","","","","","",""
"","","","","","","","","","","","","","","","","","","","",""
"","","","","","","","","","","","","","","","","","","","",""
"","","","","","","","","","","","","","","","","","","","",""
"","","","","","","","","","","","","","","","","","","","",""
"","","","","","","","","","","","","","","","","","","","",""
"","","","","","","","","","","","","","","","","","","","",""
"","","","","","","","","","","","","","","","","","","","",""
"","","","","","","","","","","","","","","","","","","","",""
"","","","","","","","","","","","","","","","","","","","",""
"","","","","","","","","","","","","","","","","","","","",""
"","","","","","","","","","","","","","","","","","","","",""
"","","","","","","","","","","","","","","","","","","","",""
"","","","","","","","","","","","","","","","","","","","",""
"","","","","","","","","","","","","","","","","","","","",""
"","","","","","","","","","","","","","","","","","","","",""
"","","","","","","","","","","","","","","","","","","","",""
"","","","","","","","","","","","","","","","","","","","",""
"","","","","","","","","","","","","","","","","","","","",""
"","","","","","","","","","","","","","","","","","","","",""
"","","","","","","","","","","","","","","","","","","","",""
"","","","","","","","","","","","","","","","","","","","",""
"","","","","","","","","","","","","","","","","","","","",""
"","","","","","","","","","","","","","","","","","","","",""
"","","","","","","","","","","","","","","","","","","","",""
"","","","","","","","","","","","","","","","","","","","",""
"","","","","","","","","","","","","","","","","","","","",""
"","","","","","","","","","","","","","","","","","","","",""
"","","","","","","","","","","","","","","","","","","","",""
"","","","","","","","","","","","","","","","","","","","",""
"","","","","","","","","","","","","","","","","","","","",""
"","","","","","","","","","","","","","","","","","","","",""
"","","","","","","","","","","","","","","","","","","","",""
"","","","","","","","","","","","","","","","","","","","",""
"","","","","","","","","","","","","","","","","","","","",""
"","","","","","","","","","","","","","","","","","","","",""
"","","","","","","","","","","","","","","","","","","","",""
"","","","","","","","","","","","","","","","","","","","",""
"","","","","","","","","","","","","","","","","","","","",""
"","","","","","","","","","","","","","","","","","","","",""
"","","","","","","","","","","","","","","","","","","","",""
"","","","","","","","","","","","","","","","","","","","",""
"","","","","","","","","","","","","","","","","","","","",""
"","","","","","","","","","","","","","","","","","","","",""
"","","","","","","","","","","","","","","","","","","","",""
"","","","","","","","","","","","","","","","","","","","",""
"","","","","","","","","","","","","","","","","","","","",""
"","","","","","","","","","","","","","","","","","","","",""
"","","","","","","","","","","","","","","","","","","","",""
"","","","","","","","","","","","","","","","","","","","",""
"","","","","","","","","","","","","","","","","","","","",""
"","","","","","","","","","","","","","","","","","","","",""
"","","","","","","","","","","","","","","","","","","","",""
"","","","","","","","","","","","","","","","","","","","",""
"","","","","","","","","","","","","","","","","","","","",""
"","","","","","","","","","","","","","","","","","","","",""
"","","","","","","","","","","","","","","","","","","","",""
"","","","","","","","","","","","","","","","","","","","",""
"","","","","","","","","","","","","","","","","","","","",""
"","","","","","","","","","","","","","","","","","","","",""
"","","","","","","","","","","","","","","","","","","","",""
"","","","","","","","","","","","","","","","","","","","",""
"","","","","","","","","","","","","","","","","","","","",""
"","","","","","","","","","","","","","","","","","","","",""
"","","","","","","","","","","","","","","","","","","","",""
"","","","","","","","","","","","","","","","","","","","",""
"","","","","","","","","","","","","","","","","","","","",""
"","","","","","","","","","","","","","","","","","","","",""
"","","","","","","","","","","","","","","","","","","","",""
"","","","","","","","","","","","","","","","","","","","",""
"","","","","","","","","","","","","","","","","","","","",""
"","","","","","","","","","","","","","","","","","","","",""
"","","","","","","","","","","","","","","","","","","","",""
"","","","","","","","","","","","","","","","","","","","",""
"","","","","","","","","","","","","","","","","","","","",""
"","","","","","","","","","","","","","","","","","","","",""
"","","","","","","","","","","","","","","","","","","","",""
"","","","","","","","","","","","","","","","","","","","",""
"","","","","","","","","","","","","","","","","","","","",""
"","","","","","","","","","","","","","","","","","","","",""
"","","","","","","","","","","","","","","","","","","","",""
"","","","","","","","","","","","","","","","","","","","",""
"","","","","","","","","","","","","","","","","","","","",""
"","","","","","","","","","","","","","","","","","","","",""
"","","","","","","","","","","","","","","","","","","","",""
"","","","","","","","","","","","","","","","","","","","",""
"","","","","","","","","","","","","","","","","","","","",""
"","","","","","","","","","","","","","","","","","","","",""
"","","","","","","","","","","","","","","","","","","","",""
"","","","","","","","","","","","","","","","","","","","",""
"","","","","","","","","","","","","","","","","","","","",""
"","","","","","","","","","","","","","","","","","","","",""
"","","","","","","","","","","","","","","","","","","","",""
"","","","","","","","","","","","","","","","","","","","",""
"","","","","","","","","","","","","","","","","","","","",""
"","","","","","","","","","","","","","","","","","","","",""
"","","","","","","","","","","","","","","","","","","","",""
"","","","","","","","","","","","","","","","","","","","",""
"","","","","","","","","","","","","","","","","","","","",""
"","","","","","","","","","","","","","","","","","","","",""
"","","","","","","","","","","","","","","","","","","","",""
"","","","","","","","","","","","","","","","","","","","",""
"","","","","","","","","","","","","","","","","","","","",""
"","","","","","","","","","","","","","","","","","","","",""
"","","","","","","","","","","","","","","","","","","","",""
"","","","","","","","","","","","","","","","","","","","",""
"","","","","","","","","","","","","","","","","","","","",""
"","","","","","","","","","","","","","","","","","","","",""
"","","","","","","","","","","","","","","","","","","","",""
"","","","","","","","","","","","","","","","","","","","",""
"","","","","","","","","","","","","","","","","","","","",""
"","","","","","","","","","","","","","","","","","","","",""
"","","","","","","","","","","","","","","","","","","","",""
"","","","","","","","","","","","","","","","","","","","",""
"","","","","","","","","","","","","","","","","","","","",""
"","","","","","","","","","","","","","","","","","","","",""
"","","","","","","","","","","","","","","","","","","","",""
"","","","","","","","","","","","","","","","","","","","",""
"","","","","","","","","","","","","","","","","","","","",""
"","","","","","","","","","","","","","","","","","","","",""
"","","","","","","","","","","","","","","","","","","","",""
"","","","","","","","","","","","","","","","","","","","",""
"","","","","","","","","","","","","","","","","","","","",""
"","","","","","","","","","","","","","","","","","","","",""
"","","","","","","","","","","","","","","","","","","","",""
"","","","","","","","","","","","","","","","","","","","",""
"","","","","","","","","","","","","","","","","","","","",""
"","","","","","","","","","","","","","","","","","","","",""
"","","","","","","","","","","","","","","","","","","","",""
"","","","","","","","","","","","","","","","","","","","",""
"","","","","","","","","","","","","","","","","","","","",""
"","","","","","","","","","","","","","","","","","","","",""
"","","","","","","","","","","","","","","","","","","","",""
"","","","","","","","","","","","","","","","","","","","",""
"","","","","","","","","","","","","","","","","","","","",""
"","","","","","","","","","","","","","","","","","","","",""
"","","","","","","","","","","","","","","","","","","","",""
"","","","","","","","","","","","","","","","","","","","",""
"","","","","","","","","","","","","","","","","","","","",""
"","","","","","","","","","","","","","","","","","","","",""
"","","","","","","","","","","","","","","","","","","","",""
"","","","","","","","","","","","","","","","","","","","",""
"","","","","","","","","","","","","","","","","","","","",""
"","","","","","","","","","","","","","","","","","","","",""
"","","","","","","","","","","","","","","","","","","","",""
"","","","","","","","","","","","","","","","","","","","",""
"","","","","","","","","","","","","","","","","","","","",""
"","","","","","","","","","","","","","","","","","","","",""
"","","","","","","","","","","","","","","","","","","","",""
"","","","","","","","","","","","","","","","","","","","",""
"","","","","","","","","","","","","","","","","","","","",""
"","","","","","","","","","","","","","","","","","","","",""
"","","","","","","","","","","","","","","","","","","","",""
"","","","","","","","","","","","","","","","","","","","",""
"","","","","","","","","","","","","","","","","","","","",""
"","","","","","","","","","","","","","","","","","","","",""
"","","","","","","","","","","","","","","","","","","","",""
"","","","","","","","","","","","","","","","","","","","",""
"","","","","","","","","","","","","","","","","","","","",""
"","","","","","","","","","","","","","","","","","","","",""
"","","","","","","","","","","","","","","","","","","","",""
"","","","","","","","","","","","","","","","","","","","",""
"","","","","","","","","","","","","","","","","","","","",""
"","","","","","","","","","","","","","","","","","","","",""
"","","","","","","","","","","","","","","","","","","","",""
"","","","","","","","","","","","","","","","","","","","",""
"","","","","","","","","","","","","","","","","","","","",""
"","","","","","","","","","","","","","","","","","","","",""
"","","","","","","","","","","","","","","","","","","","",""
"","","","","","","","","","","","","","","","","","","","",""
"","","","","","","","","","","","","","","","","","","","",""
"","","","","","","","","","","","","","","","","","","","",""
"","","","","","","","","","","","","","","","","","","","",""
"","","","","","","","","","","","","","","","","","","","",""
"","","","","","","","","","","","","","","","","","","","",""
"","","","","","","","","","","","","","","","","","","","",""
