"","Third Party (Company)","","","Associated Persons","","","","","","","","","","","","","","","",""
"Type (O Organisation or A Associated Individual)"," Subject Organisation Full Entity Name","Country of Registration","First Name of  Associated Individual","Last Name of  Associated Individual","Country of Residence","","","","","","","","","","","","","","","List of type"
"O","DUNCAN PRODUCTS PTE LTD","Singapore","","","","","","","","","","","","","","","","","",""
"O","D'PERCEPTION PTE LTD","Singapore","","","","","","","","","","","","","","","","","",""
"O","DPX WORLDWIDE SDN BHD","Malaysia","","","","","","","","","","","","","","","","","",""
"O","DIVERS SUPPLY INC","United States","","","","","","","","","","","","","","","","","",""
"O","De Silva & De Vos (Private) Limited","Srilanka","","","","","","","","","","","","","","","","","",""
"O","DEACONS SINGAPORE LIMITED","Singapore","","","","","","","","","","","","","","","","","",""
"O","DR. S. NALLAYARASU","India","","","","","","","","","","","","","","","","","",""
"O","Downtown Travel Services Pte Ltd","Singapore","","","","","","","","","","","","","","","","","",""
"O","DOWN TOWN TRAVEL SERVICES PTE LTD","Singapore","","","","","","","","","","","","","","","","","",""
"O","Dasa Timber Works & Furnitures","Srilanka","","","","","","","","","","","","","","","","","",""
"O","Delcol United Marketing (M) Sdn Bhd","Malaysia","","","","","","","","","","","","","","","","","",""
"O","DUN & BRADSTREET (SINGAPORE) PTE LTD","Singapore","","","","","","","","","","","","","","","","","",""
"O","Duncan Products Pte Ltd","Singapore","","","","","","","","","","","","","","","","","",""
"O","DPEX WORLDWIDE EXPRESS PTE LTD","Singapore","","","","","","","","","","","","","","","","","",""
"O","Ernst & Young","Singapore","","","","","","","","","","","","","","","","","",""
"O","East Asia Energy Pte Ltd","Singapore","","","","","","","","","","","","","","","","","",""
"O","EXXONMOBILE ASIA PACIFIC PTE LTD-FLEET CARD","Singapore","","","","","","","","","","","","","","","","","",""
"O","East Asia Power Pte Ltd","Singapore","","","","","","","","","","","","","","","","","",""
"O","EASY ACCESS SCAFFOLDING","United Arab Emirates","","","","","","","","","","","","","","","","","",""
"O","ENTERPRISE BUSINESS SOLUTIONS S/B","Malaysia","","","","","","","","","","","","","","","","","",""
"O","EC HARRIS SINGAPORE PTE LTD","Singapore","","","","","","","","","","","","","","","","","",""
"O","7/24 EHS CONSULTING PTE LTD","Singapore","","","","","","","","","","","","","","","","","",""
"O","EDMY CORPORATION (S) PTE LTD.","Singapore","","","","","","","","","","","","","","","","","",""
"O","ELITE C&T RESOURCES","Srilanka","","","","","","","","","","","","","","","","","",""
"O","Eric Dharmadasa","Srilanka","","","","","","","","","","","","","","","","","",""
"O","EDMY CORPORATION (S) PTE LTD","Singapore","","","","","","","","","","","","","","","","","",""
"O","ELECTROMECH ELECTRICAL ENTERPRISE CO PTE LTD","Singapore","","","","","","","","","","","","","","","","","",""
"O","EXCEL EXPRESS & SERVICES","Singapore","","","","","","","","","","","","","","","","","",""
"O","ENGINEERING EDGE (SINGAPORE) PTE LTD","Singapore","","","","","","","","","","","","","","","","","",""
"O","EXPERT ENGINEERING & SHIPBUILDING PTE LTD","Singapore","","","","","","","","","","","","","","","","","",""
"O","ENG GUAN HARDWARE PTE LTD","Singapore","","","","","","","","","","","","","","","","","",""
"O","EXPRESS BY HOLIDAY INN","United Arab Emirates","","","","","","","","","","","","","","","","","",""
"O","EVERMARCH HOLDINGS PTE LTD","Singapore","","","","","","","","","","","","","","","","","",""
"O","ELITE INFOTECH PTE LTD","Singapore","","","","","","","","","","","","","","","","","",""
"O","ELCOME INTERNATIONAL","United Arab Emirates","","","","","","","","","","","","","","","","","",""
"O","Engineering Innovators (Pvt) ltd","Srilanka","","","","","","","","","","","","","","","","","",""
"O","EXOTIC INVESTMENT REAL ESTATE","United Arab Emirates","","","","","","","","","","","","","","","","","",""
"O","EDWARD JOSEPH LANKA IRUGALBANDARA","Srilanka","","","","","","","","","","","","","","","","","",""
"O","EAST LINK CONSULTING PTE LTD","Singapore","","","","","","","","","","","","","","","","","",""
"O","East Link Consulting  (M) Sdn Bhd","Malaysia","","","","","","","","","","","","","","","","","",""
"O","East Link Consulting Limited - HK","Hong Kong","","","","","","","","","","","","","","","","","",""
"O","ELITE TRANSLATIONS ASIA (M) SDN BHD","Malaysia","","","","","","","","","","","","","","","","","",""
"O","ELKEN (SINGAPORE) PTE LTD","Singapore","","","","","","","","","","","","","","","","","",""
"O","ELS CONSTRUCTION (PVT) LTD","Srilanka","","","","","","","","","","","","","","","","","",""
"O","EXPERTISE MANAGEMENT CONSULTANTS PTE LTD","Singapore","","","","","","","","","","","","","","","","","",""
"O","EURO MECHANICAL & ELECTRICAL CONTRACTING CO","United Arab Emirates","","","","","","","","","","","","","","","","","",""
"O","EMIRATES MECHANICAL & ELECTRICAL ENGINEERING","united Arab Emirates","","","","","","","","","","","","","","","","","",""
"","","","","","","","","","","","","","","","","","","","",""
"","","","","","","","","","","","","","","","","","","","",""
"","","","","","","","","","","","","","","","","","","","",""
"","","","","","","","","","","","","","","","","","","","",""
"","","","","","","","","","","","","","","","","","","","",""
"","","","","","","","","","","","","","","","","","","","",""
"","","","","","","","","","","","","","","","","","","","",""
"","","","","","","","","","","","","","","","","","","","",""
"","","","","","","","","","","","","","","","","","","","",""
"","","","","","","","","","","","","","","","","","","","",""
"","","","","","","","","","","","","","","","","","","","",""
"","","","","","","","","","","","","","","","","","","","",""
"","","","","","","","","","","","","","","","","","","","",""
"","","","","","","","","","","","","","","","","","","","",""
"","","","","","","","","","","","","","","","","","","","",""
"","","","","","","","","","","","","","","","","","","","",""
"","","","","","","","","","","","","","","","","","","","",""
"","","","","","","","","","","","","","","","","","","","",""
"","","","","","","","","","","","","","","","","","","","",""
"","","","","","","","","","","","","","","","","","","","",""
"","","","","","","","","","","","","","","","","","","","",""
"","","","","","","","","","","","","","","","","","","","",""
"","","","","","","","","","","","","","","","","","","","",""
"","","","","","","","","","","","","","","","","","","","",""
"","","","","","","","","","","","","","","","","","","","",""
"","","","","","","","","","","","","","","","","","","","",""
"","","","","","","","","","","","","","","","","","","","",""
"","","","","","","","","","","","","","","","","","","","",""
"","","","","","","","","","","","","","","","","","","","",""
"","","","","","","","","","","","","","","","","","","","",""
"","","","","","","","","","","","","","","","","","","","",""
"","","","","","","","","","","","","","","","","","","","",""
"","","","","","","","","","","","","","","","","","","","",""
"","","","","","","","","","","","","","","","","","","","",""
"","","","","","","","","","","","","","","","","","","","",""
"","","","","","","","","","","","","","","","","","","","",""
"","","","","","","","","","","","","","","","","","","","",""
"","","","","","","","","","","","","","","","","","","","",""
"","","","","","","","","","","","","","","","","","","","",""
"","","","","","","","","","","","","","","","","","","","",""
"","","","","","","","","","","","","","","","","","","","",""
"","","","","","","","","","","","","","","","","","","","",""
"","","","","","","","","","","","","","","","","","","","",""
"","","","","","","","","","","","","","","","","","","","",""
"","","","","","","","","","","","","","","","","","","","",""
"","","","","","","","","","","","","","","","","","","","",""
"","","","","","","","","","","","","","","","","","","","",""
"","","","","","","","","","","","","","","","","","","","",""
"","","","","","","","","","","","","","","","","","","","",""
"","","","","","","","","","","","","","","","","","","","",""
"","","","","","","","","","","","","","","","","","","","",""
"","","","","","","","","","","","","","","","","","","","",""
"","","","","","","","","","","","","","","","","","","","",""
"","","","","","","","","","","","","","","","","","","","",""
"","","","","","","","","","","","","","","","","","","","",""
"","","","","","","","","","","","","","","","","","","","",""
"","","","","","","","","","","","","","","","","","","","",""
"","","","","","","","","","","","","","","","","","","","",""
"","","","","","","","","","","","","","","","","","","","",""
"","","","","","","","","","","","","","","","","","","","",""
"","","","","","","","","","","","","","","","","","","","",""
"","","","","","","","","","","","","","","","","","","","",""
"","","","","","","","","","","","","","","","","","","","",""
"","","","","","","","","","","","","","","","","","","","",""
"","","","","","","","","","","","","","","","","","","","",""
"","","","","","","","","","","","","","","","","","","","",""
"","","","","","","","","","","","","","","","","","","","",""
"","","","","","","","","","","","","","","","","","","","",""
"","","","","","","","","","","","","","","","","","","","",""
"","","","","","","","","","","","","","","","","","","","",""
"","","","","","","","","","","","","","","","","","","","",""
"","","","","","","","","","","","","","","","","","","","",""
"","","","","","","","","","","","","","","","","","","","",""
"","","","","","","","","","","","","","","","","","","","",""
"","","","","","","","","","","","","","","","","","","","",""
"","","","","","","","","","","","","","","","","","","","",""
"","","","","","","","","","","","","","","","","","","","",""
"","","","","","","","","","","","","","","","","","","","",""
"","","","","","","","","","","","","","","","","","","","",""
"","","","","","","","","","","","","","","","","","","","",""
"","","","","","","","","","","","","","","","","","","","",""
"","","","","","","","","","","","","","","","","","","","",""
"","","","","","","","","","","","","","","","","","","","",""
"","","","","","","","","","","","","","","","","","","","",""
"","","","","","","","","","","","","","","","","","","","",""
"","","","","","","","","","","","","","","","","","","","",""
"","","","","","","","","","","","","","","","","","","","",""
"","","","","","","","","","","","","","","","","","","","",""
"","","","","","","","","","","","","","","","","","","","",""
"","","","","","","","","","","","","","","","","","","","",""
"","","","","","","","","","","","","","","","","","","","",""
"","","","","","","","","","","","","","","","","","","","",""
"","","","","","","","","","","","","","","","","","","","",""
"","","","","","","","","","","","","","","","","","","","",""
"","","","","","","","","","","","","","","","","","","","",""
"","","","","","","","","","","","","","","","","","","","",""
"","","","","","","","","","","","","","","","","","","","",""
"","","","","","","","","","","","","","","","","","","","",""
"","","","","","","","","","","","","","","","","","","","",""
"","","","","","","","","","","","","","","","","","","","",""
"","","","","","","","","","","","","","","","","","","","",""
