"","Third Party (Company)","","","Associated Persons","","","","","","","","","","","","","","","",""
"Type (O Organisation or A Associated Individual)"," Subject Organisation Full Entity Name","Country of Registration","First Name of  Associated Individual","Last Name of  Associated Individual","Country of Residence","","","","","","","","","","","","","","","List of type"
"O","A&G FREIGHT SERVICES SDN BHD   (1134793H)","Malaysia","","","","","","","","","","","","","","","","","",""
"O","AALBORG PORTLAND MALAYSIA SDN BHD   (0275155P)","Malaysia","","","","","","","","","","","","","","","","","",""
"O","ABLE DAIRIES SDN BHD   (0765074D)","Malaysia","","","","","","","","","","","","","","","","","",""
"O","ABLE FOOD SDN BHD   (1033584V)","Malaysia","","","","","","","","","","","","","","","","","",""
"O","ABLE PERFECT SDN BHD   (0629266V)","Malaysia","","","","","","","","","","","","","","","","","",""
"O","ACCEL GRAPHIC SYSTEM SDN BHD   (0280044V)","Malaysia","","","","","","","","","","","","","","","","","",""
"O","ACE RECYCLING CORPORATION SDN BHD   (0248827A)","Malaysia","","","","","","","","","","","","","","","","","",""
"O","ACS LOGISTICS (M) SDN BHD   (0613915M)","Malaysia","","","","","","","","","","","","","","","","","",""
"O","ADDED MAGENTA (M) SDN BHD   (0241422U)","Malaysia","","","","","","","","","","","","","","","","","",""
"O","ADVANCE MARITIME SDN BHD   (0292085M)","Malaysia","","","","","","","","","","","","","","","","","",""
"O","AGIH TINTA SDN BHD   (0540018K)","Malaysia","","","","","","","","","","","","","","","","","",""
"O","AGILITY NETWORK SERVICES   (0370264H)","Malaysia","","","","","","","","","","","","","","","","","",""
"O","AGRI ASIA GROUP SDN BHD   (1086472T)","Malaysia","","","","","","","","","","","","","","","","","",""
"O","AGRI ASIA REFINERY SDN BHD   ","Malaysia","","","","","","","","","","","","","","","","","",""
"O","AGS MOVERS MALAYSIA SDN BHD   ","Malaysia","","","","","","","","","","","","","","","","","",""
"O","AHB TECHNOLOGY SDN BHD   (0166474X)","Malaysia","","","","","","","","","","","","","","","","","",""
"O","AL KAWTHAR GLOBAL SDN BHD   (0979117T)","Malaysia","","","","","","","","","","","","","","","","","",""
"O","AL SAKR EVOLUTION RESOURCES   (KT0317524D)","Malaysia","","","","","","","","","","","","","","","","","",""
"O","ALLIANCE INTERNATIONAL SHIPPING SDN BHD   (1064377K)","Malaysia","","","","","","","","","","","","","","","","","",""
"O","ALMAZ SHIPPING (M) SDN BHD   (1059514H)","Malaysia","","","","","","","","","","","","","","","","","",""
"O","ALTITUDE (M) SDN BHD   (0771499U)","Malaysia","","","","","","","","","","","","","","","","","",""
"O","AMZ BIZLINK (M) SDN BHD   (0791910H)","Malaysia","","","","","","","","","","","","","","","","","",""
"O","ANC GLOBAL (M) SDN BHD   (0462565K)","Malaysia","","","","","","","","","","","","","","","","","",""
"O","ANGGERIK MASYHUR SDN BHD   (0738424V)","Malaysia","","","","","","","","","","","","","","","","","",""
"O","ANGLO DUTCH LOGISTICS & SHIPPING (M) SDN BHD   (0591761W)","Malaysia","","","","","","","","","","","","","","","","","",""
"O","ANJAHAN SDN BHD   (0451852H","Malaysia","","","","","","","","","","","","","","","","","",""
"O","ANL MALAYSIA SDN BHD   (0905497M)","Malaysia","","","","","","","","","","","","","","","","","",""
"O","ANR SDN BHD   (0736052T)","Malaysia","","","","","","","","","","","","","","","","","",""
"O","APEX COMPETENT SDN BHD   (0753474D)","Malaysia","","","","","","","","","","","","","","","","","",""
"O","AHB TECHNOLOGY SDN BHD   (0166474X)","Malaysia","","","","","","","","","","","","","","","","","",""
"O","AL KAWTHAR GLOBAL SDN BHD   (0979117T)","Malaysia","","","","","","","","","","","","","","","","","",""
"O","AL SAKR EVOLUTION RESOURCES   (KT0317524D)","Malaysia","","","","","","","","","","","","","","","","","",""
"O","ALLIANCE INTERNATIONAL SHIPPING SDN BHD   (1064377K)","Malaysia","","","","","","","","","","","","","","","","","",""
"O","ALMAZ SHIPPING (M) SDN BHD   (1059514H)","Malaysia","","","","","","","","","","","","","","","","","",""
"O","ALTITUDE (M) SDN BHD   (0771499U)","Malaysia","","","","","","","","","","","","","","","","","",""
"O","AMZ BIZLINK (M) SDN BHD   (0791910H)","Malaysia","","","","","","","","","","","","","","","","","",""
"O","ANC GLOBAL (M) SDN BHD   (0462565K)","Malaysia","","","","","","","","","","","","","","","","","",""
"O","ANGGERIK MASYHUR SDN BHD   (0738424V)","Malaysia","","","","","","","","","","","","","","","","","",""
"O","ANGLO DUTCH LOGISTICS & SHIPPING (M) SDN BHD   (0591761W)","Malaysia","","","","","","","","","","","","","","","","","",""
"O","ANJAHAN SDN BHD   (0451852H","Malaysia","","","","","","","","","","","","","","","","","",""
"O","ANL MALAYSIA SDN BHD   (0905497M)","Malaysia","","","","","","","","","","","","","","","","","",""
"O","ANR SDN BHD   (0736052T)","Malaysia","","","","","","","","","","","","","","","","","",""
"O","APEX COMPETENT SDN BHD   (0753474D)","Malaysia","","","","","","","","","","","","","","","","","",""
"O","AHB TECHNOLOGY SDN BHD   (0166474X)","Malaysia","","","","","","","","","","","","","","","","","",""
"O","AL KAWTHAR GLOBAL SDN BHD   (0979117T)","Malaysia","","","","","","","","","","","","","","","","","",""
"O","AL SAKR EVOLUTION RESOURCES   (KT0317524D)","Malaysia","","","","","","","","","","","","","","","","","",""
"O","ALLIANCE INTERNATIONAL SHIPPING SDN BHD   (1064377K)","Malaysia","","","","","","","","","","","","","","","","","",""
"O","ALMAZ SHIPPING (M) SDN BHD   (1059514H)","Malaysia","","","","","","","","","","","","","","","","","",""
"O","ALTITUDE (M) SDN BHD   (0771499U)","Malaysia","","","","","","","","","","","","","","","","","",""
"O","AMZ BIZLINK (M) SDN BHD   (0791910H)","Malaysia","","","","","","","","","","","","","","","","","",""
"O","ANC GLOBAL (M) SDN BHD   (0462565K)","Malaysia","","","","","","","","","","","","","","","","","",""
"O","ANGGERIK MASYHUR SDN BHD   (0738424V)","Malaysia","","","","","","","","","","","","","","","","","",""
"O","ANGLO DUTCH LOGISTICS & SHIPPING (M) SDN BHD   (0591761W)","Malaysia","","","","","","","","","","","","","","","","","",""
"O","ANJAHAN SDN BHD   (0451852H","Malaysia","","","","","","","","","","","","","","","","","",""
"O","ANL MALAYSIA SDN BHD   (0905497M)","Malaysia","","","","","","","","","","","","","","","","","",""
"O","ANR SDN BHD   (0736052T)","Malaysia","","","","","","","","","","","","","","","","","",""
"O","APEX COMPETENT SDN BHD   (0753474D)","Malaysia","","","","","","","","","","","","","","","","","",""
"O","ASIAN FOOD INGREDIENTS SDN BHD   (0704406A)","Malaysia","","","","","","","","","","","","","","","","","",""
"O","ASIAN OILS AND DERIVATIVES SDN BHD   (0689827P)","Malaysia","","","","","","","","","","","","","","","","","",""
"O","ASPAC LUBRICANTS (MALAYSIA) SDN BHD   (0016586H)","Malaysia","","","","","","","","","","","","","","","","","",""
"O","ATHENAS SHIPPING & LOGISTICS (M) SDN BHD   (1079789P)","Malaysia","","","","","","","","","","","","","","","","","",""
"O","ATTRACTIVE HARBOUR SDN BHD   (0778972V)","Malaysia","","","","","","","","","","","","","","","","","",""
"O","AUTO GLOBAL PARTS INDUSTRIES SDN BHD   (0890662M)","Malaysia","","","","","","","","","","","","","","","","","",""
"O","AVEON GLOBAL TRANSPORTS SDN BHD   (0891139U)","Malaysia","","","","","","","","","","","","","","","","","",""
"O","AWATAC SHIPPING   (SA0261229H)","Malaysia","","","","","","","","","","","","","","","","","",""
"O","B SYNERGY ENGINEERING SDN BHD   (1120279X)","Malaysia","","","","","","","","","","","","","","","","","",""
"O","BECERCLE SDN BHD   (0972398V)","Malaysia","","","","","","","","","","","","","","","","","",""
"O","BEN LINE AGENCIES (MALAYSIA) SDN BHD   (0261487W)","Malaysia","","","","","","","","","","","","","","","","","",""
"O","BENDERA SHIPPING AGENCIES SDN BHD   (0098684D)","Malaysia","","","","","","","","","","","","","","","","","",""
"O","BENOUF QUALITY ALLIANCE SDN BHD   (1149137K)","Malaysia","","","","","","","","","","","","","","","","","",""
"O","BEYOND LOGISTICS SDN BHD   (0702658H)","Malaysia","","","","","","","","","","","","","","","","","",""
"O","BH FREIGHT SDN BHD   (0569435X)","Malaysia","","","","","","","","","","","","","","","","","",""
"O","BH FREIGHT SERVICES SDN BHD   (0933349T)","Malaysia","","","","","","","","","","","","","","","","","",""
"O","BI LOGISTICS SDN BHD   (1078553W)","Malaysia","","","","","","","","","","","","","","","","","",""
"O","BINAKON SDN BHD   (0023444X)","Malaysia","","","","","","","","","","","","","","","","","",""
"O","BINAKON SERVICES SDN BHD   (0088025V)","Malaysia","","","","","","","","","","","","","","","","","",""
"O","BINTANG JAYA FORWARDING SDN BHD   (0490575K)","Malaysia","","","","","","","","","","","","","","","","","",""
"O","BIO GREEN COMMODITY SDN BHD   (0954120M)","Malaysia","","","","","","","","","","","","","","","","","",""
"O","BIO-ANGLE VACS SDN BHD   (1063320P)","Malaysia","","","","","","","","","","","","","","","","","",""
"O","BMW ASIA TECHNOLOGY CENTRE SDN BHD   (0612932X)","Malaysia","","","","","","","","","","","","","","","","","",""
"O","BOBOX (MALAYSIA) SDN BHD   (1097820U)","Malaysia","","","","","","","","","","","","","","","","","",""
"O","BOLLARD SOLUTION SDN BHD   (0973151A","Malaysia","","","","","","","","","","","","","","","","","",""
"O","BORAL PLASTERBOARD (MALAYSIA) SDN BHD   (0147816U)","Malaysia","","","","","","","","","","","","","","","","","",""
"O","BRIDGE ASSOCIATES SDN BHD   (0370598V)","Malaysia","","","","","","","","","","","","","","","","","",""
"O","BRIGHTEN TRADING   (001494294H)","Malaysia","","","","","","","","","","","","","","","","","",""
"O","BROTHER INDUSTRIES TECHNOLOGY (M) SDN BHD   (0179229V)","Malaysia","","","","","","","","","","","","","","","","","",""
"O","BSH HOME APPLIANCES SDN BHD   (0711053H)","Malaysia","","","","","","","","","","","","","","","","","",""
"O","BY CONWAY PRODUCTS SDN BHD   (0893214K)","Malaysia","","","","","","","","","","","","","","","","","",""
"O","BYO MARINE SDN BHD   (0845271H)","Malaysia","","","","","","","","","","","","","","","","","",""
"O","CAMPBELL CHEONG CHAN (MALAYSIA) SDN BHD   (0343295T)","Malaysia","","","","","","","","","","","","","","","","","",""
"O","CARGILL PALM PRODUCTS SDN BHD   (0045493W)","Malaysia","","","","","","","","","","","","","","","","","",""
"O","CARL RONNOW (MALAYSIA) SDN BHD   (0184068W)","Malaysia","","","","","","","","","","","","","","","","","",""
"O","CCL (PACIFIC) SDN BHD   (0863628W)","Malaysia","","","","","","","","","","","","","","","","","",""
"O","CENSOF HOLDINGS BHD   (0828269A)","Malaysia","","","","","","","","","","","","","","","","","",""
"O","CENTRAL DISTRIBUTION & AGENCY SDN BHD   (0030889H)","Malaysia","","","","","","","","","","","","","","","","","",""
"O","CENTRAL SUGARS REFINERY SDN BHD   (0099042V)","Malaysia","","","","","","","","","","","","","","","","","",""
"O","CENTROLINK LOGISTICS (M) SDN BHD   (0921778M)","Malaysia","","","","","","","","","","","","","","","","","",""
"O","CEREAL PARTNERS (MALAYSIA) SDN BHD   (0581276X)","Malaysia","","","","","","","","","","","","","","","","","",""
"O","CH INDUSTRY   (0146912W)","Malaysia","","","","","","","","","","","","","","","","","",""
"O","CHARLIE MARKETING INTERNATIONAL SDN BHD   (0931604X)","Malaysia","","","","","","","","","","","","","","","","","",""
"O","CHENG FONG CRANE SERVICES SDN BHD   (0668450T)","Malaysia","","","","","","","","","","","","","","","","","",""
"O","CJR GLOBAL LOGISTICS SDN BHD   (0925901T)","Malaysia","","","","","","","","","","","","","","","","","",""
"O","CLICK LOGISTIC SDN BHD   (0555615T)","Malaysia","","","","","","","","","","","","","","","","","",""
"O","CMCL SHIPPING AGENCY   (UT0003757M)","Malaysia","","","","","","","","","","","","","","","","","",""
"O","COMMERCE CONTINENT SDN BHD   (0981499K)","Malaysia","","","","","","","","","","","","","","","","","",""
"O","COMPOSITES TECHNOLOGY RESEARCH MALAYSIA SDN BHD   (0208125X)","Malaysia","","","","","","","","","","","","","","","","","",""
"O","CONCENTRIC LOGISTICS (M) SDN BHD   (0570082T)","Malaysia","","","","","","","","","","","","","","","","","",""
"O","CONCEPTS ECOTECH SDN BHD   (0962949W)","Malaysia","","","","","","","","","","","","","","","","","",""
"O","CORDOVA IMPORTERS & EXPORTERS (M) SDN BHD   (0971519X)","Malaysia","","","","","","","","","","","","","","","","","",""
"O","COVENANT LOGISTICS SDN BHD   (0865837D)","Malaysia","","","","","","","","","","","","","","","","","",""
"O","COZZO FOOD INDUSTRIES SDN BHD   (0913562V)","Malaysia","","","","","","","","","","","","","","","","","",""
"O","CTRM AERO COMPOSITES SDN BHD   (0311703P)","Malaysia","","","","","","","","","","","","","","","","","",""
"O","CYRENE SDN BHD   (0839354P)","Malaysia","","","","","","","","","","","","","","","","","",""
"O","DAMCO LOGISTICS SERVICES SDN BHD   (0134604P)","Malaysia","","","","","","","","","","","","","","","","","",""
"O","DEFRANS ENTERPRISE SDN BHD   (0611056U)","Malaysia","","","","","","","","","","","","","","","","","",""
"O","DELTA HAULAGE TRANSPORT (M) SDN BHD   (0544210M)","Malaysia","","","","","","","","","","","","","","","","","",""
"O","DENZ GLOBE LOGISTICS   (SA0332486D)","Malaysia","","","","","","","","","","","","","","","","","",""
"O","DENZ GLOBE LOGISTICS SDN BHD   (1161725K)","Malaysia","","","","","","","","","","","","","","","","","",""
"O","DESTINY INTEGRATED LOGISTICS SERVICES SDN BHD   (0719128V)","Malaysia","","","","","","","","","","","","","","","","","",""
"O","DHL GLOBAL FORWARDING (MALAYSIA) SDN BHD   (0247550A)","Malaysia","","","","","","","","","","","","","","","","","",""
"O","DHL SUPPLY CHAIN (MALAYSIA) SDN BHD   (0007908W)","Malaysia","","","","","","","","","","","","","","","","","",""
"O","DIALOG GROUP BERHAD   (0178694V)","Malaysia","","","","","","","","","","","","","","","","","",""
"O","DIC COMPOUNDS (MALAYSIA) SDN BHD   (0171369U)","Malaysia","","","","","","","","","","","","","","","","","",""
"O","DINAMIK IMBANGAN SDN BHD   (0572847M)","Malaysia","","","","","","","","","","","","","","","","","",""
"O","DIVOR CHANNEL RESOURCES   (KT0209379W)","Malaysia","","","","","","","","","","","","","","","","","",""
"O","DONGWHA GLOBAL SALES SDN BHD   (0210228T)","Malaysia","","","","","","","","","","","","","","","","","",""
"O","DONGWHA MALAYSIA SDN BHD   (0188056K)","Malaysia","","","","","","","","","","","","","","","","","",""
"O","DORIS SHIPPING AGENCY SDN BHD   (0845626H)","Malaysia","","","","","","","","","","","","","","","","","",""
"O","DRAZ SDN BHD   (0778672H)","Malaysia","","","","","","","","","","","","","","","","","",""
"O","DYNAMIC ENVIRON SDN BHD   (0926014T)","Malaysia","","","","","","","","","","","","","","","","","",""
"O","DYNAMIC LOGISTICS SOLUTIONS SDN BHD   (0874892V)","Malaysia","","","","","","","","","","","","","","","","","",""
"O","EARTH MOVE INTERNATIONAL SDN BHD   (1113932X)","Malaysia","","","","","","","","","","","","","","","","","",""
"O","EASIBEST SDN BHD   (0959820P)","Malaysia","","","","","","","","","","","","","","","","","",""
"O","EASTERN LOGISTICS SYSTEM SDN BHD   (0224372T)","Malaysia","","","","","","","","","","","","","","","","","",""
"O","ECOLEX SDN BHD   (0648365U)","Malaysia","","","","","","","","","","","","","","","","","",""
"O","EMINENCE WORLDWIDE GROUP SDN BHD   (1027229W)","Malaysia","","","","","","","","","","","","","","","","","",""
"O","EMINENT LOGISTICS SDN BHD   (0586912M)","Malaysia","","","","","","","","","","","","","","","","","",""
"O","ENFINIO RESOURCES (M) SDN BHD   (1033749P)","Malaysia","","","","","","","","","","","","","","","","","",""
"O","ESRON PETROLEUM SDN BHD   (0912534T)","Malaysia","","","","","","","","","","","","","","","","","",""
"O","EURO ASIA FREIGHT & FORWARDING SDN BHD   (0522897A)","Malaysia","","","","","","","","","","","","","","","","","",""
"O","EURO NATURE GREEN SDN BHD   (0883396V)","Malaysia","","","","","","","","","","","","","","","","","",""
"O","EURONOOVA LOGISTICS SDN BHD   (0725852V)","Malaysia","","","","","","","","","","","","","","","","","",""
"O","EVER WANT (M) SDN BHD   (0183747U)","Malaysia","","","","","","","","","","","","","","","","","",""
"O","EXCELLENT WORLD LOGISTIC SDN BHD   (0913694P)","Malaysia","","","","","","","","","","","","","","","","","",""
"O","FACILIPACK INDUSTRIES SDN BHD   (0937749A)","Malaysia","","","","","","","","","","","","","","","","","",""
"O","FAST SPEED SERVICE   (PG0100919U)","Malaysia","","","","","","","","","","","","","","","","","",""
"O","FBG GLOBAL SDN BHD   (1104784D)","Malaysia","","","","","","","","","","","","","","","","","",""
"O","FELDA IFFCO OIL PRODUCTS SDN BHD   (0024499V)","Malaysia","","","","","","","","","","","","","","","","","",""
"O","FELDA IFFCO SDN BHD   (0756204H)","Malaysia","","","","","","","","","","","","","","","","","",""
"O","FIRST SOLAR MALAYSIA SDN BHD   (0758827T)","Malaysia","","","","","","","","","","","","","","","","","",""
"O","FLEXITECH SDN BHD   (0165532M)","Malaysia","","","","","","","","","","","","","","","","","",""
"O","FM GLOBAL LOGISTICS (KUL) SDN BHD   (0199558U)","Malaysia","","","","","","","","","","","","","","","","","",""
"O","FM GLOBAL LOGISTICS (M) SDN BHD   (0085740U)","Malaysia","","","","","","","","","","","","","","","","","",""
"O","FREIGHT MARK (M) SDN BHD   (0159467A)","Malaysia","","","","","","","","","","","","","","","","","",""
"O","FREIGHT MARK LOGISTICS (M) SDN BHD   (0322750A)","Malaysia","","","","","","","","","","","","","","","","","",""
"O","FRENCH FRIES (MALAYSIA) SDN BHD   (0751979V)","Malaysia","","","","","","","","","","","","","","","","","",""
"O","FS SHIPPING (M) SDN BHD   (0458752M)","Malaysia","","","","","","","","","","","","","","","","","",""
"O","G SOFTWARE SOLUTION SDN BHD   (0883328W)","Malaysia","","","","","","","","","","","","","","","","","",""
"O","GAC CARGO SYSTEMS (MALAYSIA) SDN BHD   (0317873P)","Malaysia","","","","","","","","","","","","","","","","","",""
"O","GC LIGHTING SDN BHD   (0184599X)","Malaysia","","","","","","","","","","","","","","","","","",""
"O","GD FIT INTERNATIONAL (M) SDN BHD   (0925608X)","Malaysia","","","","","","","","","","","","","","","","","",""
"O","GEODIS WILSON FREIGHT MANAGEMENT SDN BHD   (0057615U)","Malaysia","","","","","","","","","","","","","","","","","",""
"O","GLE INTERNATIONAL (M) SDN BHD   (1049837P)","Malaysia","","","","","","","","","","","","","","","","","",""
"O","GLENMARIE PROPERTIES SDN BHD   (0097360A)","Malaysia","","","","","","","","","","","","","","","","","",""
"O","GLOBAL MARKETING VENTURES SDN BHD   (0622597H)","Malaysia","","","","","","","","","","","","","","","","","",""
"O","GMP MEDICARE SDN BHD   (0116271X)","Malaysia","","","","","","","","","","","","","","","","","",""
"O","GN BERSATU SDN BHD   (0929043T)","Malaysia","","","","","","","","","","","","","","","","","",""
"O","GREENJADE TECHNOLOGY SDN BHD   (0974570K)","Malaysia","","","","","","","","","","","","","","","","","",""
"O","GREENLINK BIOTECH SDN BHD   (1054856D","Malaysia","","","","","","","","","","","","","","","","","",""
"O","GUAN CHONG COCOA MANUFACTURER SDN BHD   (0133057U)","Malaysia","","","","","","","","","","","","","","","","","",""
"O","GUIF ENTERPRISE   (SA0086438U)","Malaysia","","","","","","","","","","","","","","","","","",""
"O","GULFSHIP AGENCIES SDN BHD   (0220889K)","Malaysia","","","","","","","","","","","","","","","","","",""
"O","HANSOL LOGISTICS MALAYSIA SDN BHD   (1013094A)","Malaysia","","","","","","","","","","","","","","","","","",""
"O","GEODIS WILSON FREIGHT MANAGEMENT SDN BHD   (0057615U)","Malaysia","","","","","","","","","","","","","","","","","",""
"O","GLE INTERNATIONAL (M) SDN BHD   (1049837P)","Malaysia","","","","","","","","","","","","","","","","","",""
"O","GLENMARIE PROPERTIES SDN BHD   (0097360A)","Malaysia","","","","","","","","","","","","","","","","","",""
"O","GLOBAL MARKETING VENTURES SDN BHD   (0622597H)","Malaysia","","","","","","","","","","","","","","","","","",""
"O","GMP MEDICARE SDN BHD   (0116271X)","Malaysia","","","","","","","","","","","","","","","","","",""
"O","GN BERSATU SDN BHD   (0929043T)","Malaysia","","","","","","","","","","","","","","","","","",""
"O","GREENJADE TECHNOLOGY SDN BHD   (0974570K)","Malaysia","","","","","","","","","","","","","","","","","",""
"O","GREENLINK BIOTECH SDN BHD   (1054856D","Malaysia","","","","","","","","","","","","","","","","","",""
"O","GUAN CHONG COCOA MANUFACTURER SDN BHD   (0133057U)","Malaysia","","","","","","","","","","","","","","","","","",""
"O","GUIF ENTERPRISE   (SA0086438U)","Malaysia","","","","","","","","","","","","","","","","","",""
"O","GULFSHIP AGENCIES SDN BHD   (0220889K)","Malaysia","","","","","","","","","","","","","","","","","",""
"O","HANSOL LOGISTICS MALAYSIA SDN BHD   (1013094A)","Malaysia","","","","","","","","","","","","","","","","","",""
"O","HARPER WIRA AIR FREIGHT SDN BHD   (0181214M)","Malaysia","","","","","","","","","","","","","","","","","",""
"O","HAY GROUP SDN BHD   (0057598D)","Malaysia","","","","","","","","","","","","","","","","","",""
"O","HEALTHSON CORPORATION SDN BHD   (0385857K)","Malaysia","","","","","","","","","","","","","","","","","",""
"O","HECNY TRANSPORTATION (M) SDN BHD   (0014614T)","Malaysia","","","","","","","","","","","","","","","","","",""
"O","HENG HUP METAL SDN BHD   (0823970X)","Malaysia","","","","","","","","","","","","","","","","","",""
"O","HEVEAFIL SDN BHD   (0014798A)","Malaysia","","","","","","","","","","","","","","","","","",""
"O","HICOM BUILDERS SDN BHD   (0006687H)","Malaysia","","","","","","","","","","","","","","","","","",""
"O","HIGH PEAK SHIPPING SDN BHD   (1037544M)","Malaysia","","","","","","","","","","","","","","","","","",""
"O","HIKMAH LOGISTICS & FORWARDING   (NS0090186X)","Malaysia","","","","","","","","","","","","","","","","","",""
"O","HL SUPER SDN BHD   (0757502T)","Malaysia","","","","","","","","","","","","","","","","","",""
"O","HONOUR LANE LOGISTICS SDN BHD   (0786039P)","Malaysia","","","","","","","","","","","","","","","","","",""
"O","HWA SEN VENEER & PLYWOOD INDUSTRIES SDN BHD   (0152748H)","Malaysia","","","","","","","","","","","","","","","","","",""
"O","I GLOBAL EQUIPMENT SDN BHD   (0924635T)","Malaysia","","","","","","","","","","","","","","","","","",""
"","","","","","","","","","","","","","","","","","","","",""
"","","","","","","","","","","","","","","","","","","","",""
"","","","","","","","","","","","","","","","","","","","",""
"","","","","","","","","","","","","","","","","","","","",""
"","","","","","","","","","","","","","","","","","","","",""
"","","","","","","","","","","","","","","","","","","","",""
"","","","","","","","","","","","","","","","","","","","",""
"","","","","","","","","","","","","","","","","","","","",""
"","","","","","","","","","","","","","","","","","","","",""
"","","","","","","","","","","","","","","","","","","","",""
"","","","","","","","","","","","","","","","","","","","",""
"","","","","","","","","","","","","","","","","","","","",""
"","","","","","","","","","","","","","","","","","","","",""
"","","","","","","","","","","","","","","","","","","","",""
"","","","","","","","","","","","","","","","","","","","",""
"","","","","","","","","","","","","","","","","","","","",""
"","","","","","","","","","","","","","","","","","","","",""
"","","","","","","","","","","","","","","","","","","","",""
"","","","","","","","","","","","","","","","","","","","",""
"","","","","","","","","","","","","","","","","","","","",""
"","","","","","","","","","","","","","","","","","","","",""
"","","","","","","","","","","","","","","","","","","","",""
"","","","","","","","","","","","","","","","","","","","",""
"","","","","","","","","","","","","","","","","","","","",""
"","","","","","","","","","","","","","","","","","","","",""
"","","","","","","","","","","","","","","","","","","","",""
"","","","","","","","","","","","","","","","","","","","",""
"","","","","","","","","","","","","","","","","","","","",""
"","","","","","","","","","","","","","","","","","","","",""
"","","","","","","","","","","","","","","","","","","","",""
"","","","","","","","","","","","","","","","","","","","",""
"","","","","","","","","","","","","","","","","","","","",""
"","","","","","","","","","","","","","","","","","","","",""
"","","","","","","","","","","","","","","","","","","","",""
"","","","","","","","","","","","","","","","","","","","",""
"","","","","","","","","","","","","","","","","","","","",""
"","","","","","","","","","","","","","","","","","","","",""
"","","","","","","","","","","","","","","","","","","","",""
"","","","","","","","","","","","","","","","","","","","",""
"","","","","","","","","","","","","","","","","","","","",""
"","","","","","","","","","","","","","","","","","","","",""
"","","","","","","","","","","","","","","","","","","","",""
"","","","","","","","","","","","","","","","","","","","",""
"","","","","","","","","","","","","","","","","","","","",""
"","","","","","","","","","","","","","","","","","","","",""
"","","","","","","","","","","","","","","","","","","","",""
"","","","","","","","","","","","","","","","","","","","",""
"","","","","","","","","","","","","","","","","","","","",""
"","","","","","","","","","","","","","","","","","","","",""
"","","","","","","","","","","","","","","","","","","","",""
"","","","","","","","","","","","","","","","","","","","",""
"","","","","","","","","","","","","","","","","","","","",""
"","","","","","","","","","","","","","","","","","","","",""
"","","","","","","","","","","","","","","","","","","","",""
"","","","","","","","","","","","","","","","","","","","",""
"","","","","","","","","","","","","","","","","","","","",""
"","","","","","","","","","","","","","","","","","","","",""
"","","","","","","","","","","","","","","","","","","","",""
"","","","","","","","","","","","","","","","","","","","",""
"","","","","","","","","","","","","","","","","","","","",""
"","","","","","","","","","","","","","","","","","","","",""
"","","","","","","","","","","","","","","","","","","","",""
"","","","","","","","","","","","","","","","","","","","",""
"","","","","","","","","","","","","","","","","","","","",""
"","","","","","","","","","","","","","","","","","","","",""
"","","","","","","","","","","","","","","","","","","","",""
"","","","","","","","","","","","","","","","","","","","",""
"","","","","","","","","","","","","","","","","","","","",""
"","","","","","","","","","","","","","","","","","","","",""
"","","","","","","","","","","","","","","","","","","","",""
"","","","","","","","","","","","","","","","","","","","",""
"","","","","","","","","","","","","","","","","","","","",""
"","","","","","","","","","","","","","","","","","","","",""
"","","","","","","","","","","","","","","","","","","","",""
"","","","","","","","","","","","","","","","","","","","",""
"","","","","","","","","","","","","","","","","","","","",""
"","","","","","","","","","","","","","","","","","","","",""
"","","","","","","","","","","","","","","","","","","","",""
"","","","","","","","","","","","","","","","","","","","",""
"","","","","","","","","","","","","","","","","","","","",""
"","","","","","","","","","","","","","","","","","","","",""
"","","","","","","","","","","","","","","","","","","","",""
"","","","","","","","","","","","","","","","","","","","",""
"","","","","","","","","","","","","","","","","","","","",""
"","","","","","","","","","","","","","","","","","","","",""
"","","","","","","","","","","","","","","","","","","","",""
"","","","","","","","","","","","","","","","","","","","",""
"","","","","","","","","","","","","","","","","","","","",""
"","","","","","","","","","","","","","","","","","","","",""
"","","","","","","","","","","","","","","","","","","","",""
"","","","","","","","","","","","","","","","","","","","",""
"","","","","","","","","","","","","","","","","","","","",""
"","","","","","","","","","","","","","","","","","","","",""
"","","","","","","","","","","","","","","","","","","","",""
"","","","","","","","","","","","","","","","","","","","",""
"","","","","","","","","","","","","","","","","","","","",""
"","","","","","","","","","","","","","","","","","","","",""
"","","","","","","","","","","","","","","","","","","","",""
"","","","","","","","","","","","","","","","","","","","",""
"","","","","","","","","","","","","","","","","","","","",""
"","","","","","","","","","","","","","","","","","","","",""
"","","","","","","","","","","","","","","","","","","","",""
"","","","","","","","","","","","","","","","","","","","",""
"","","","","","","","","","","","","","","","","","","","",""
"","","","","","","","","","","","","","","","","","","","",""
"","","","","","","","","","","","","","","","","","","","",""
"","","","","","","","","","","","","","","","","","","","",""
"","","","","","","","","","","","","","","","","","","","",""
"","","","","","","","","","","","","","","","","","","","",""
"","","","","","","","","","","","","","","","","","","","",""
"","","","","","","","","","","","","","","","","","","","",""
"","","","","","","","","","","","","","","","","","","","",""
"","","","","","","","","","","","","","","","","","","","",""
"","","","","","","","","","","","","","","","","","","","",""
"","","","","","","","","","","","","","","","","","","","",""
"","","","","","","","","","","","","","","","","","","","",""
"","","","","","","","","","","","","","","","","","","","",""
"","","","","","","","","","","","","","","","","","","","",""
"","","","","","","","","","","","","","","","","","","","",""
"","","","","","","","","","","","","","","","","","","","",""
"","","","","","","","","","","","","","","","","","","","",""
"","","","","","","","","","","","","","","","","","","","",""
"","","","","","","","","","","","","","","","","","","","",""
"","","","","","","","","","","","","","","","","","","","",""
"","","","","","","","","","","","","","","","","","","","",""
"","","","","","","","","","","","","","","","","","","","",""
"","","","","","","","","","","","","","","","","","","","",""
"","","","","","","","","","","","","","","","","","","","",""
"","","","","","","","","","","","","","","","","","","","",""
"","","","","","","","","","","","","","","","","","","","",""
"","","","","","","","","","","","","","","","","","","","",""
"","","","","","","","","","","","","","","","","","","","",""
"","","","","","","","","","","","","","","","","","","","",""
"","","","","","","","","","","","","","","","","","","","",""
"","","","","","","","","","","","","","","","","","","","",""
"","","","","","","","","","","","","","","","","","","","",""
"","","","","","","","","","","","","","","","","","","","",""
"","","","","","","","","","","","","","","","","","","","",""
"","","","","","","","","","","","","","","","","","","","",""
"","","","","","","","","","","","","","","","","","","","",""
"","","","","","","","","","","","","","","","","","","","",""
"","","","","","","","","","","","","","","","","","","","",""
"","","","","","","","","","","","","","","","","","","","",""
"","","","","","","","","","","","","","","","","","","","",""
"","","","","","","","","","","","","","","","","","","","",""
"","","","","","","","","","","","","","","","","","","","",""
"","","","","","","","","","","","","","","","","","","","",""
"","","","","","","","","","","","","","","","","","","","",""
"","","","","","","","","","","","","","","","","","","","",""
"","","","","","","","","","","","","","","","","","","","",""
"","","","","","","","","","","","","","","","","","","","",""
"","","","","","","","","","","","","","","","","","","","",""
"","","","","","","","","","","","","","","","","","","","",""
"","","","","","","","","","","","","","","","","","","","",""
"","","","","","","","","","","","","","","","","","","","",""
"","","","","","","","","","","","","","","","","","","","",""
"","","","","","","","","","","","","","","","","","","","",""
"","","","","","","","","","","","","","","","","","","","",""
"","","","","","","","","","","","","","","","","","","","",""
"","","","","","","","","","","","","","","","","","","","",""
"","","","","","","","","","","","","","","","","","","","",""
"","","","","","","","","","","","","","","","","","","","",""
"","","","","","","","","","","","","","","","","","","","",""
"","","","","","","","","","","","","","","","","","","","",""
"","","","","","","","","","","","","","","","","","","","",""
"","","","","","","","","","","","","","","","","","","","",""
"","","","","","","","","","","","","","","","","","","","",""
"","","","","","","","","","","","","","","","","","","","",""
"","","","","","","","","","","","","","","","","","","","",""
"","","","","","","","","","","","","","","","","","","","",""
"","","","","","","","","","","","","","","","","","","","",""
"","","","","","","","","","","","","","","","","","","","",""
"","","","","","","","","","","","","","","","","","","","",""
"","","","","","","","","","","","","","","","","","","","",""
"","","","","","","","","","","","","","","","","","","","",""
"","","","","","","","","","","","","","","","","","","","",""
"","","","","","","","","","","","","","","","","","","","",""
"","","","","","","","","","","","","","","","","","","","",""
"","","","","","","","","","","","","","","","","","","","",""
"","","","","","","","","","","","","","","","","","","","",""
"","","","","","","","","","","","","","","","","","","","",""
"","","","","","","","","","","","","","","","","","","","",""
"","","","","","","","","","","","","","","","","","","","",""
"","","","","","","","","","","","","","","","","","","","",""
"","","","","","","","","","","","","","","","","","","","",""
"","","","","","","","","","","","","","","","","","","","",""
"","","","","","","","","","","","","","","","","","","","",""
"","","","","","","","","","","","","","","","","","","","",""
"","","","","","","","","","","","","","","","","","","","",""
"","","","","","","","","","","","","","","","","","","","",""
"","","","","","","","","","","","","","","","","","","","",""
"","","","","","","","","","","","","","","","","","","","",""
"","","","","","","","","","","","","","","","","","","","",""
"","","","","","","","","","","","","","","","","","","","",""
"","","","","","","","","","","","","","","","","","","","",""
"","","","","","","","","","","","","","","","","","","","",""
"","","","","","","","","","","","","","","","","","","","",""
"","","","","","","","","","","","","","","","","","","","",""
"","","","","","","","","","","","","","","","","","","","",""
"","","","","","","","","","","","","","","","","","","","",""
"","","","","","","","","","","","","","","","","","","","",""
"","","","","","","","","","","","","","","","","","","","",""
"","","","","","","","","","","","","","","","","","","","",""
"","","","","","","","","","","","","","","","","","","","",""
"","","","","","","","","","","","","","","","","","","","",""
"","","","","","","","","","","","","","","","","","","","",""
"","","","","","","","","","","","","","","","","","","","",""
"","","","","","","","","","","","","","","","","","","","",""
"","","","","","","","","","","","","","","","","","","","",""
"","","","","","","","","","","","","","","","","","","","",""
"","","","","","","","","","","","","","","","","","","","",""
"","","","","","","","","","","","","","","","","","","","",""
"","","","","","","","","","","","","","","","","","","","",""
"","","","","","","","","","","","","","","","","","","","",""
"","","","","","","","","","","","","","","","","","","","",""
"","","","","","","","","","","","","","","","","","","","",""
"","","","","","","","","","","","","","","","","","","","",""
"","","","","","","","","","","","","","","","","","","","",""
"","","","","","","","","","","","","","","","","","","","",""
"","","","","","","","","","","","","","","","","","","","",""
"","","","","","","","","","","","","","","","","","","","",""
"","","","","","","","","","","","","","","","","","","","",""
"","","","","","","","","","","","","","","","","","","","",""
"","","","","","","","","","","","","","","","","","","","",""
"","","","","","","","","","","","","","","","","","","","",""
"","","","","","","","","","","","","","","","","","","","",""
"","","","","","","","","","","","","","","","","","","","",""
"","","","","","","","","","","","","","","","","","","","",""
"","","","","","","","","","","","","","","","","","","","",""
"","","","","","","","","","","","","","","","","","","","",""
"","","","","","","","","","","","","","","","","","","","",""
"","","","","","","","","","","","","","","","","","","","",""
"","","","","","","","","","","","","","","","","","","","",""
"","","","","","","","","","","","","","","","","","","","",""
"","","","","","","","","","","","","","","","","","","","",""
"","","","","","","","","","","","","","","","","","","","",""
"","","","","","","","","","","","","","","","","","","","",""
"","","","","","","","","","","","","","","","","","","","",""
"","","","","","","","","","","","","","","","","","","","",""
"","","","","","","","","","","","","","","","","","","","",""
"","","","","","","","","","","","","","","","","","","","",""
"","","","","","","","","","","","","","","","","","","","",""
"","","","","","","","","","","","","","","","","","","","",""
"","","","","","","","","","","","","","","","","","","","",""
"","","","","","","","","","","","","","","","","","","","",""
"","","","","","","","","","","","","","","","","","","","",""
"","","","","","","","","","","","","","","","","","","","",""
"","","","","","","","","","","","","","","","","","","","",""
"","","","","","","","","","","","","","","","","","","","",""
"","","","","","","","","","","","","","","","","","","","",""
"","","","","","","","","","","","","","","","","","","","",""
"","","","","","","","","","","","","","","","","","","","",""
"","","","","","","","","","","","","","","","","","","","",""
"","","","","","","","","","","","","","","","","","","","",""
"","","","","","","","","","","","","","","","","","","","",""
"","","","","","","","","","","","","","","","","","","","",""
"","","","","","","","","","","","","","","","","","","","",""
"","","","","","","","","","","","","","","","","","","","",""
"","","","","","","","","","","","","","","","","","","","",""
"","","","","","","","","","","","","","","","","","","","",""
"","","","","","","","","","","","","","","","","","","","",""
"","","","","","","","","","","","","","","","","","","","",""
"","","","","","","","","","","","","","","","","","","","",""
"","","","","","","","","","","","","","","","","","","","",""
"","","","","","","","","","","","","","","","","","","","",""
"","","","","","","","","","","","","","","","","","","","",""
"","","","","","","","","","","","","","","","","","","","",""
"","","","","","","","","","","","","","","","","","","","",""
"","","","","","","","","","","","","","","","","","","","",""
"","","","","","","","","","","","","","","","","","","","",""
"","","","","","","","","","","","","","","","","","","","",""
"","","","","","","","","","","","","","","","","","","","",""
"","","","","","","","","","","","","","","","","","","","",""
"","","","","","","","","","","","","","","","","","","","",""
"","","","","","","","","","","","","","","","","","","","",""
"","","","","","","","","","","","","","","","","","","","",""
"","","","","","","","","","","","","","","","","","","","",""
"","","","","","","","","","","","","","","","","","","","",""
"","","","","","","","","","","","","","","","","","","","",""
"","","","","","","","","","","","","","","","","","","","",""
"","","","","","","","","","","","","","","","","","","","",""
"","","","","","","","","","","","","","","","","","","","",""
"","","","","","","","","","","","","","","","","","","","",""
"","","","","","","","","","","","","","","","","","","","",""
"","","","","","","","","","","","","","","","","","","","",""
"","","","","","","","","","","","","","","","","","","","",""
"","","","","","","","","","","","","","","","","","","","",""
"","","","","","","","","","","","","","","","","","","","",""
"","","","","","","","","","","","","","","","","","","","",""
"","","","","","","","","","","","","","","","","","","","",""
"","","","","","","","","","","","","","","","","","","","",""
"","","","","","","","","","","","","","","","","","","","",""
"","","","","","","","","","","","","","","","","","","","",""
"","","","","","","","","","","","","","","","","","","","",""
"","","","","","","","","","","","","","","","","","","","",""
"","","","","","","","","","","","","","","","","","","","",""
"","","","","","","","","","","","","","","","","","","","",""
"","","","","","","","","","","","","","","","","","","","",""
"","","","","","","","","","","","","","","","","","","","",""
"","","","","","","","","","","","","","","","","","","","",""
"","","","","","","","","","","","","","","","","","","","",""
"","","","","","","","","","","","","","","","","","","","",""
"","","","","","","","","","","","","","","","","","","","",""
"","","","","","","","","","","","","","","","","","","","",""
"","","","","","","","","","","","","","","","","","","","",""
"","","","","","","","","","","","","","","","","","","","",""
"","","","","","","","","","","","","","","","","","","","",""
"","","","","","","","","","","","","","","","","","","","",""
"","","","","","","","","","","","","","","","","","","","",""
"","","","","","","","","","","","","","","","","","","","",""
"","","","","","","","","","","","","","","","","","","","",""
"","","","","","","","","","","","","","","","","","","","",""
"","","","","","","","","","","","","","","","","","","","",""
"","","","","","","","","","","","","","","","","","","","",""
"","","","","","","","","","","","","","","","","","","","",""
"","","","","","","","","","","","","","","","","","","","",""
"","","","","","","","","","","","","","","","","","","","",""
"","","","","","","","","","","","","","","","","","","","",""
"","","","","","","","","","","","","","","","","","","","",""
"","","","","","","","","","","","","","","","","","","","",""
"","","","","","","","","","","","","","","","","","","","",""
"","","","","","","","","","","","","","","","","","","","",""
"","","","","","","","","","","","","","","","","","","","",""
"","","","","","","","","","","","","","","","","","","","",""
"","","","","","","","","","","","","","","","","","","","",""
"","","","","","","","","","","","","","","","","","","","",""
"","","","","","","","","","","","","","","","","","","","",""
"","","","","","","","","","","","","","","","","","","","",""
"","","","","","","","","","","","","","","","","","","","",""
"","","","","","","","","","","","","","","","","","","","",""
"","","","","","","","","","","","","","","","","","","","",""
"","","","","","","","","","","","","","","","","","","","",""
"","","","","","","","","","","","","","","","","","","","",""
"","","","","","","","","","","","","","","","","","","","",""
"","","","","","","","","","","","","","","","","","","","",""
"","","","","","","","","","","","","","","","","","","","",""
"","","","","","","","","","","","","","","","","","","","",""
"","","","","","","","","","","","","","","","","","","","",""
"","","","","","","","","","","","","","","","","","","","",""
"","","","","","","","","","","","","","","","","","","","",""
"","","","","","","","","","","","","","","","","","","","",""
"","","","","","","","","","","","","","","","","","","","",""
"","","","","","","","","","","","","","","","","","","","",""
"","","","","","","","","","","","","","","","","","","","",""
"","","","","","","","","","","","","","","","","","","","",""
"","","","","","","","","","","","","","","","","","","","",""
"","","","","","","","","","","","","","","","","","","","",""
"","","","","","","","","","","","","","","","","","","","",""
"","","","","","","","","","","","","","","","","","","","",""
