"","Third Party (Company)","","","Associated Persons","","","","","","","","","","","","","","","",""
"Type (O Organisation or A Associated Individual)"," Subject Organisation Full Entity Name","Country of Registration","First Name of  Associated Individual","Last Name of  Associated Individual","Country of Residence","","","","","","","","","","","","","","","List of type"
"O","CHRIS EDWARDS & ASSOCIATES PTY LTD","Australia","","","","","","","","","","","","","","","","","",""
"O","PT CHUCK ENGINEERING BATAM","Indonesia","","","","","","","","","","","","","","","","","",""
"O","CYCLECT ELECTRICAL ENGINEERING PTE LTD","Singapore","","","","","","","","","","","","","","","","","",""
"O","CITY ELECTRICAL FACTORS","United Arab Emirates","","","","","","","","","","","","","","","","","",""
"O","CHUAN EU INTERNATIONAL PTE LTD","Singapore","","","","","","","","","","","","","","","","","",""
"O","CHASE ELECTRONICS (PVT) LTD","Srilanka","","","","","","","","","","","","","","","","","",""
"O","Crafs Equipment Malaysia Sdn Bhd","Malaysia","","","","","","","","","","","","","","","","","",""
"O","CATTEL ENGINEERING (PTE) LTD","Singapore","","","","","","","","","","","","","","","","","",""
"O","CLEAN-ENVIRON PEST MANAGEMENT PTE LTD","Singapore","","","","","","","","","","","","","","","","","",""
"O","CAPTAIN ELECTRICAL REPAIRS","United Arab Emirates","","","","","","","","","","","","","","","","","",""
"O","CUMMINS EMIRATES SALES & SERVICE","United Arab Emirates","","","","","","","","","","","","","","","","","",""
"O","Crown Equipment (Singapore) Pte Ltd","Singapore","","","","","","","","","","","","","","","","","",""
"O","CALTECH ENGINEERING SERVICES","India","","","","","","","","","","","","","","","","","",""
"O","CompAir Far East Pte Ltd","Singapore","","","","","","","","","","","","","","","","","",""
"O","CAK & FG SURVEY PTE LTD","Singapore","","","","","","","","","","","","","","","","","",""
"O","CRIMSON (S) PTE LTD","Singapore","","","","","","","","","","","","","","","","","",""
"O","C'ana Gestion Marketing","Malaysia","","","","","","","","","","","","","","","","","",""
"O","CHINA HUANQIU CHEMICAL ENGINEERING CORPORATI","China","","","","","","","","","","","","","","","","","",""
"O","CHERRIT INTERNATIONAL (FAR EAST) PTE LTD","Singapore","","","","","","","","","","","","","","","","","",""
"O","CHEE FATT CO (PTE) LTD.","Singapore","","","","","","","","","","","","","","","","","",""
"O","CHOON HUAT ENGINEERING PTE LTD","Singapore","","","","","","","","","","","","","","","","","",""
"O","Chye Hin Hardware (Pte) Ltd","Singapore","","","","","","","","","","","","","","","","","",""
"O","GAMINI B DODANWELA ASSOCIATE","Srilanka","","","","","","","","","","","","","","","","","",""
"O","CONCORDE HOTEL KUALA LUMPUR","Malaysia","","","","","","","","","","","","","","","","","",""
"O","CHIN WAH METAL WORKS PTE LTD","Singapore","","","","","","","","","","","","","","","","","",""
"O","Colonial Hardware Stores","Srilanka","","","","","","","","","","","","","","","","","",""
"O","CHUBB SINGAPORE PTE LTD","Singapore","","","","","","","","","","","","","","","","","",""
"O","CommIT CONSULTANTS","Singapore","","","","","","","","","","","","","","","","","",""
"O","CHIEF INSPECTOR OF FACTORIES","Singapore","","","","","","","","","","","","","","","","","",""
"O","Concordia International Forwarding Pte Ltd","Singapore","","","","","","","","","","","","","","","","","",""
"O","CIPD (CHARTERED INSTITUTE OF PERSONNEL AND DEVELOPMENT)","United Kingdom","","","","","","","","","","","","","","","","","",""
"O","Cisco OpenDNS LLC (OpenDNS)","United States","","","","","","","","","","","","","","","","","",""
"O","CITI-LUX PTE LTD","Singapore","","","","","","","","","","","","","","","","","",""
"O","CKE marketing (Kajang) Sdn Bhd","Malaysia","","","","","","","","","","","","","","","","","",""
"O","CHIA KHIM LEE FOOD INDUSTRIES PTE LTD","Singapore","","","","","","","","","","","","","","","","","",""
"O","CHEE KHIANG RUBBER STAMP MAKER PTE LTD","Singapore","","","","","","","","","","","","","","","","","",""
"O","C.K.TOH CONSTRUCTION PTE LTD","Singapore","","","","","","","","","","","","","","","","","",""
"O","CORPORATE LAW CHAMBERS","Srilanka","","","","","","","","","","","","","","","","","",""
"O","CARL STAHL LIFTING EQUIPMENT LTD","United Arab Emirates","","","","","","","","","","","","","","","","","",""
"O","COMET LOGISTICS LLC","United Arab Emirates","","","","","","","","","","","","","","","","","",""
"O","CHANTAN LLC","United Arab Emirates","","","","","","","","","","","","","","","","","",""
"O","CLAYMORE","United Arab Emirates","","","","","","","","","","","","","","","","","",""
"O","CARLOS MIDDLE EAST FZE","United Arab Emirates","","","","","","","","","","","","","","","","","",""
"O","Consilium Middle East (FZC)","United Arab Emirates","","","","","","","","","","","","","","","","","",""
"O","Cabaco Marine Pte Ltd","Singapore","","","","","","","","","","","","","","","","","",""
"O","CAT Marine Services Pte Ltd","Singapore","","","","","","","","","","","","","","","","","",""
"O","CONTINENTAL MOVERS & TRANSPORT SDN BHD","Malaysia","","","","","","","","","","","","","","","","","",""
"O","C & N ELECTRONIC SERVICES","Singapore","","","","","","","","","","","","","","","","","",""
"O","COLIN NG & PARTNERS","Singapore","","","","","","","","","","","","","","","","","",""
"O","COMPLETE NET SDN BHD","Malaysia","","","","","","","","","","","","","","","","","",""
"O","CREATIVE O.A. SERVICES PTE LTD","Singapore","","","","","","","","","","","","","","","","","",""
"O","CODAN LIMITED","Australia","","","","","","","","","","","","","","","","","",""
"O","COMPTROLLER OF GOODS AND SERVICES TAX","Singapore","","","","","","","","","","","","","","","","","",""
"O","Colma (Pvt) Ltd","Srilanka","","","","","","","","","","","","","","","","","",""
"O","COMLINE SERVICES","Singapore","","","","","","","","","","","","","","","","","",""
"O","Crystal Offshore Pte Ltd","Singapore","","","","","","","","","","","","","","","","","",""
"O","Costech Solution Sdn Bhd","Malaysia","","","","","","","","","","","","","","","","","",""
"O","CV. Pasific Computer","Indonesia","","","","","","","","","","","","","","","","","",""
"O","CRIMSONLOGIC PTE LTD","Singapore","","","","","","","","","","","","","","","","","",""
"O","COMSTOR PTE LTD","Singapore","","","","","","","","","","","","","","","","","",""
"O","CORROM PTE LTD","Singapore","","","","","","","","","","","","","","","","","",""
"O","CHEN POH & SONS SDN BHD","Malaysia","","","","","","","","","","","","","","","","","",""
"O","Carlton Properties (Singapore) Pte Ltd","Singapore","","","","","","","","","","","","","","","","","",""
"O","CITYLIMO PTE LTD","Singapore","","","","","","","","","","","","","","","","","",""
"O","COMPUTERS RENTALS & CARES PTE LTD","Singapore","","","","","","","","","","","","","","","","","",""
"O","CRC-EVANS AUTOMATIC WELDING","Netherlands","","","","","","","","","","","","","","","","","",""
"O","CRP Industries Sdn Bhd","Malaysia","","","","","","","","","","","","","","","","","",""
"O","CHEN SING & ASSOCIATES","Singapore","","","","","","","","","","","","","","","","","",""
"O","CONPLANT SDN BHD","Malaysia","","","","","","","","","","","","","","","","","",""
"O","Cheng San Engineering and Trading C","Singapore","","","","","","","","","","","","","","","","","",""
"O","CAPE-SING LUN CONSTRUCTION (PTE) LTD","Singapore","","","","","","","","","","","","","","","","","",""
"O","CADSKILLS PTE LTD","Singapore","","","","","","","","","","","","","","","","","",""
"O","CITY SURVEYORS PTE LTD","Singapore","","","","","","","","","","","","","","","","","",""
"O","Container Specialist Pte Ltd","Singapore","","","","","","","","","","","","","","","","","",""
"O","CSR SOUTH EAST ASIA PTE LTD","Singapore","","","","","","","","","","","","","","","","","",""
"O","COLD STORAGE RETAIL","Singapore","","","","","","","","","","","","","","","","","",""
"O","CROWN SYSTEMS (S) PTE LTD","Singapore","","","","","","","","","","","","","","","","","",""
"O","Cummins Sales And Services Singapore Pte Ltd","Singapore","","","","","","","","","","","","","","","","","",""
"O","CLAYMORE SECURITY AND SAFETY CONSULTANTS","United Arab Emirates","","","","","","","","","","","","","","","","","",""
"O","Chan Sau Yan Associates","Singapore","","","","","","","","","","","","","","","","","",""
"O","CAMBRIDGE TRADERS","Srilanka","","","","","","","","","","","","","","","","","",""
"O","CHONG TAM FAH","Malaysia","","","","","","","","","","","","","","","","","",""
"O","CENTAURIA TOURIST HOTEL","Srilanka","","","","","","","","","","","","","","","","","",""
"O","CUMMINS MIDDLE EAST","United Arab Emirates","","","","","","","","","","","","","","","","","",""
"O","CV BUILDING SERVICES","Singapore","","","","","","","","","","","","","","","","","",""
"O","CONNELL WAGNER (PTY) LTD","Australia","","","","","","","","","","","","","","","","","",""
"O","CROWN WORLDWIDE PTE LTD","Singapore","","","","","","","","","","","","","","","","","",""
"O","CHAN WENG WAH ENGINEERING PTE LTD","Singapore","","","","","","","","","","","","","","","","","",""
"O","CYBER X'PRESS COURIER SERVICE","Singapore","","","","","","","","","","","","","","","","","",""
"O","CHENG YAP EQUIPMENT","Singapore","","","","","","","","","","","","","","","","","",""
"O","Dynamic AD Industries Sdn Bhd","Malaysia","","","","","","","","","","","","","","","","","",""
"O","DAR AL DHAYAFA ENG. TURNING W.SHOP","United Arab Emirates","","","","","","","","","","","","","","","","","",""
"O","DAMRO COMPANY (PVT) LTD","Srilanka","","","","","","","","","","","","","","","","","",""
"O","DANWAY LLC","United Arab Emirates","","","","","","","","","","","","","","","","","",""
"O","DP ARCHITECTS PTE LTD","Singapore","","","","","","","","","","","","","","","","","",""
"O","DELL COMPUTER ASIA PTE LTD","Singapore","","","","","","","","","","","","","","","","","",""
"O","DHARMADASA CONSTRUCTION & ENTERPRISES","Srilanka","","","","","","","","","","","","","","","","","",""
"O","DESIGN CONSORTIUM LIMITED","Srilanka","","","","","","","","","","","","","","","","","",""
"O","DAVCO CONSTRUCTION MATERIALS PTE LTD","Singapore","","","","","","","","","","","","","","","","","",""
"O","DAVEY CONSTRUCTORS PTE LTD","Singapore","","","","","","","","","","","","","","","","","",""
"O","David Hutchinson Fm Leighton HK","Hong Kong","","","","","","","","","","","","","","","","","",""
"O","DIESEL DYNAMICS PTE LTD","Singapore","","","","","","","","","","","","","","","","","",""
"O","DEXTER ENTERPRISES","Srilanka","","","","","","","","","","","","","","","","","",""
"O","Danushka Engineering Co, (Pvt) Ltd","Srilanka","","","","","","","","","","","","","","","","","",""
"O","Darby Equipment Company","United States","","","","","","","","","","","","","","","","","",""
"O","DEGROOT MARINE SERVICES","Australia","","","","","","","","","","","","","","","","","",""
"O","DEG Engineering Pte Ltd","Singapore","","","","","","","","","","","","","","","","","",""
"O","DELIGHT EST.","United Arab Emirates","","","","","","","","","","","","","","","","","",""
"O","DELOITTE & TOUCHE LLP","singapore","","","","","","","","","","","","","","","","","",""
"O","DYNACOM ENGINEERING (PVT) LTD","Srilanka","","","","","","","","","","","","","","","","","",""
"O","DAIDEN EQUIPMENT SDN BHD","Malaysia","","","","","","","","","","","","","","","","","",""
"O","Dexter Enterprises","Srilanka","","","","","","","","","","","","","","","","","",""
"O","Dockyard General","Srilanka","","","","","","","","","","","","","","","","","",""
"O","DHI WATER & ENVIRONMENT (S) PTE LTD","Singapore","","","","","","","","","","","","","","","","","",""
"O","DHL KEELLS (PVT) LTD","Srilanka","","","","","","","","","","","","","","","","","",""
"O","DHL EXPRESS (SINGAPORE) PTE LTD","Singapore","","","","","","","","","","","","","","","","","",""
"O","DIANUS SITORUS","Indonesia","","","","","","","","","","","","","","","","","",""
"O","Diselube Enterprise","Malaysia","","","","","","","","","","","","","","","","","",""
"O","D.K.D. NANAWATHIE","Srilanka","","","","","","","","","","","","","","","","","",""
"O","DK OUTSOURCE SERVICES","Singapore","","","","","","","","","","","","","","","","","",""
"O","DOLLAR LAND SINGAPORE PTE LTD","Singapore","","","","","","","","","","","","","","","","","",""
"O","DACOTRANS MALAYSIA SDN BHD","Malaysia","","","","","","","","","","","","","","","","","",""
"O","DME Cables","United Arab Emirates","","","","","","","","","","","","","","","","","",""
"O","DOCUMENT MONITORING SOLUTIONS (ASIA) SDN BHD","Malaysia","","","","","","","","","","","","","","","","","",""
"O","DACON NETWORKS PTE LTD","Singapore","","","","","","","","","","","","","","","","","",""
"O","DET NORSKE VERITAS PTE LTD","Singapore","","","","","","","","","","","","","","","","","",""
"O","Det Norske Veritas","United Arab Emirates","","","","","","","","","","","","","","","","","",""
"O","DET NORSKE VERITAS AS","Indonesia","","","","","","","","","","","","","","","","","",""
"O","Det Norske Veritas As","Norway","","","","","","","","","","","","","","","","","",""
"O","DHIRAJ OFFSHORE SURVEYORS &ADJUSTERS PVT LTD","India","","","","","","","","","","","","","","","","","",""
"O","DK OUTSOURCE SERVICES","Singapore","","","","","","","","","","","","","","","","","",""
"O","The Dynamic Positioning Centre","United Kingdom","","","","","","","","","","","","","","","","","",""
"O","DPEX WORLDWIDE (PVT) LTD.","Srilanka","","","","","","","","","","","","","","","","","",""
"O","Dudy Pindayana Firdaus","Indonesia","","","","","","","","","","","","","","","","","",""
"O","DAVID PIERIS INFORMATION TECHNOLOGIES LTD","Srilanka","","","","","","","","","","","","","","","","","",""
"","","","","","","","","","","","","","","","","","","","",""
"","","","","","","","","","","","","","","","","","","","",""
"","","","","","","","","","","","","","","","","","","","",""
"","","","","","","","","","","","","","","","","","","","",""
"","","","","","","","","","","","","","","","","","","","",""
"","","","","","","","","","","","","","","","","","","","",""
"","","","","","","","","","","","","","","","","","","","",""
"","","","","","","","","","","","","","","","","","","","",""
"","","","","","","","","","","","","","","","","","","","",""
"","","","","","","","","","","","","","","","","","","","",""
"","","","","","","","","","","","","","","","","","","","",""
"","","","","","","","","","","","","","","","","","","","",""
"","","","","","","","","","","","","","","","","","","","",""
