type,subject_name,first_name,last_name,job_title,industry,country,state,address,contact_no,email
O,0dB Sound Works  ,0dB Sound Works  ,,,, South Africa ,," B-156, CHITTARANJAN PARK, NEW DELHI,110019 ",, 0dbsoundworks@gmail.com 
O,3KSYS SRL - Consultoria en Sistemas,3KSYS SRL - Consultoria en Sistemas,,,, Argentina ,," General Mansilla 3565,Piso 4 ""C"",CABA,Buenos Aires,1425 ",, alberto.carrizo@3ksys.com.ar 
A,, Timo , Rost ,,, South Africa ,,,,
O,42 Engines (Pty) Ltd, Tim , Shier ,,, South Africa ,," Unit 104, 2nd floor, The Armoury Building, 160 Sir Lowry Road, woodstock, Cape Town ",, accounts@42engines.com; tim.shier@instantafrica.com 
A,, Tim , Shier ,,, South Africa ,,,,
A,, Joe , King ,,, South Africa ,,,,
O,485 SEVENTH AVENUE ASSOCIATES LLC,485 SEVENTH AVENUE ASSOCIATES LLC,,,, United States , New York , 244 west 54th Street ,, jacob@eisensteinrealty.com 
