type,subject_name,first_name,last_name,job_title,industry,country,state,address,contact_no,email
O,TESTERs,TESTERs,,,, Canada , New Brunswick  , ,,
A,, TEST ,  ,,, Canada ,,,,
A,,  , TESTER ,,, Canada ,,,,
A,, TESTER ,  ,,, Canada ,,,,
A,,  , TEST ,,, Canada ,,,,
