type,subject_name,first_name,last_name,job_title,industry,country,state,address,contact_no,email
O,Test,Test,,,, Albania ,  , ,,
A,,  ,  ,,, Albania ,,,,
A,,  ,  ,,, Albania ,,,,
A,,  ,  ,,, Albania ,,,,
A,,  ,  ,,, Albania ,,,,
A,,  ,  ,,, Albania ,,,,
A,,  ,  ,,, Albania ,,,,
